%!PS-Adobe-2.0 EPSF-2.0
%%Title: x-fas.eps
%%Creator: gnuplot 5.2 patchlevel 2
%%CreationDate: Sun Mar  7 19:29:02 2021
%%DocumentFonts: (atend)
%%BoundingBox: 50 50 410 302
%%EndComments
%%BeginProlog
/gnudict 256 dict def
gnudict begin
%
% The following true/false flags may be edited by hand if desired.
% The unit line width and grayscale image gamma correction may also be changed.
%
/Color true def
/Blacktext false def
/Solid false def
/Dashlength 1 def
/Landscape false def
/Level1 false def
/Level3 false def
/Rounded false def
/ClipToBoundingBox false def
/SuppressPDFMark false def
/TransparentPatterns false def
/gnulinewidth 5.000 def
/userlinewidth gnulinewidth def
/Gamma 1.0 def
/BackgroundColor {-1.000 -1.000 -1.000} def
%
/vshift -80 def
/dl1 {
  10.0 Dashlength userlinewidth gnulinewidth div mul mul mul
  Rounded { currentlinewidth 0.75 mul sub dup 0 le { pop 0.01 } if } if
} def
/dl2 {
  10.0 Dashlength userlinewidth gnulinewidth div mul mul mul
  Rounded { currentlinewidth 0.75 mul add } if
} def
/hpt_ 31.5 def
/vpt_ 31.5 def
/hpt hpt_ def
/vpt vpt_ def
/doclip {
  ClipToBoundingBox {
    newpath 50 50 moveto 410 50 lineto 410 302 lineto 50 302 lineto closepath
    clip
  } if
} def
%
% Gnuplot Prolog Version 5.1 (Oct 2015)
%
%/SuppressPDFMark true def
%
/M {moveto} bind def
/L {lineto} bind def
/R {rmoveto} bind def
/V {rlineto} bind def
/N {newpath moveto} bind def
/Z {closepath} bind def
/C {setrgbcolor} bind def
/f {rlineto fill} bind def
/g {setgray} bind def
/Gshow {show} def   % May be redefined later in the file to support UTF-8
/vpt2 vpt 2 mul def
/hpt2 hpt 2 mul def
/Lshow {currentpoint stroke M 0 vshift R 
	Blacktext {gsave 0 setgray textshow grestore} {textshow} ifelse} def
/Rshow {currentpoint stroke M dup stringwidth pop neg vshift R
	Blacktext {gsave 0 setgray textshow grestore} {textshow} ifelse} def
/Cshow {currentpoint stroke M dup stringwidth pop -2 div vshift R 
	Blacktext {gsave 0 setgray textshow grestore} {textshow} ifelse} def
/UP {dup vpt_ mul /vpt exch def hpt_ mul /hpt exch def
  /hpt2 hpt 2 mul def /vpt2 vpt 2 mul def} def
/DL {Color {setrgbcolor Solid {pop []} if 0 setdash}
 {pop pop pop 0 setgray Solid {pop []} if 0 setdash} ifelse} def
/BL {stroke userlinewidth 2 mul setlinewidth
	Rounded {1 setlinejoin 1 setlinecap} if} def
/AL {stroke userlinewidth 2 div setlinewidth
	Rounded {1 setlinejoin 1 setlinecap} if} def
/UL {dup gnulinewidth mul /userlinewidth exch def
	dup 1 lt {pop 1} if 10 mul /udl exch def} def
/PL {stroke userlinewidth setlinewidth
	Rounded {1 setlinejoin 1 setlinecap} if} def
3.8 setmiterlimit
% Classic Line colors (version 5.0)
/LCw {1 1 1} def
/LCb {0 0 0} def
/LCa {0 0 0} def
/LC0 {1 0 0} def
/LC1 {0 1 0} def
/LC2 {0 0 1} def
/LC3 {1 0 1} def
/LC4 {0 1 1} def
/LC5 {1 1 0} def
/LC6 {0 0 0} def
/LC7 {1 0.3 0} def
/LC8 {0.5 0.5 0.5} def
% Default dash patterns (version 5.0)
/LTB {BL [] LCb DL} def
/LTw {PL [] 1 setgray} def
/LTb {PL [] LCb DL} def
/LTa {AL [1 udl mul 2 udl mul] 0 setdash LCa setrgbcolor} def
/LT0 {PL [] LC0 DL} def
/LT1 {PL [2 dl1 3 dl2] LC1 DL} def
/LT2 {PL [1 dl1 1.5 dl2] LC2 DL} def
/LT3 {PL [6 dl1 2 dl2 1 dl1 2 dl2] LC3 DL} def
/LT4 {PL [1 dl1 2 dl2 6 dl1 2 dl2 1 dl1 2 dl2] LC4 DL} def
/LT5 {PL [4 dl1 2 dl2] LC5 DL} def
/LT6 {PL [1.5 dl1 1.5 dl2 1.5 dl1 1.5 dl2 1.5 dl1 6 dl2] LC6 DL} def
/LT7 {PL [3 dl1 3 dl2 1 dl1 3 dl2] LC7 DL} def
/LT8 {PL [2 dl1 2 dl2 2 dl1 6 dl2] LC8 DL} def
/SL {[] 0 setdash} def
/Pnt {stroke [] 0 setdash gsave 1 setlinecap M 0 0 V stroke grestore} def
/Dia {stroke [] 0 setdash 2 copy vpt add M
  hpt neg vpt neg V hpt vpt neg V
  hpt vpt V hpt neg vpt V closepath stroke
  Pnt} def
/Pls {stroke [] 0 setdash vpt sub M 0 vpt2 V
  currentpoint stroke M
  hpt neg vpt neg R hpt2 0 V stroke
 } def
/Box {stroke [] 0 setdash 2 copy exch hpt sub exch vpt add M
  0 vpt2 neg V hpt2 0 V 0 vpt2 V
  hpt2 neg 0 V closepath stroke
  Pnt} def
/Crs {stroke [] 0 setdash exch hpt sub exch vpt add M
  hpt2 vpt2 neg V currentpoint stroke M
  hpt2 neg 0 R hpt2 vpt2 V stroke} def
/TriU {stroke [] 0 setdash 2 copy vpt 1.12 mul add M
  hpt neg vpt -1.62 mul V
  hpt 2 mul 0 V
  hpt neg vpt 1.62 mul V closepath stroke
  Pnt} def
/Star {2 copy Pls Crs} def
/BoxF {stroke [] 0 setdash exch hpt sub exch vpt add M
  0 vpt2 neg V hpt2 0 V 0 vpt2 V
  hpt2 neg 0 V closepath fill} def
/TriUF {stroke [] 0 setdash vpt 1.12 mul add M
  hpt neg vpt -1.62 mul V
  hpt 2 mul 0 V
  hpt neg vpt 1.62 mul V closepath fill} def
/TriD {stroke [] 0 setdash 2 copy vpt 1.12 mul sub M
  hpt neg vpt 1.62 mul V
  hpt 2 mul 0 V
  hpt neg vpt -1.62 mul V closepath stroke
  Pnt} def
/TriDF {stroke [] 0 setdash vpt 1.12 mul sub M
  hpt neg vpt 1.62 mul V
  hpt 2 mul 0 V
  hpt neg vpt -1.62 mul V closepath fill} def
/DiaF {stroke [] 0 setdash vpt add M
  hpt neg vpt neg V hpt vpt neg V
  hpt vpt V hpt neg vpt V closepath fill} def
/Pent {stroke [] 0 setdash 2 copy gsave
  translate 0 hpt M 4 {72 rotate 0 hpt L} repeat
  closepath stroke grestore Pnt} def
/PentF {stroke [] 0 setdash gsave
  translate 0 hpt M 4 {72 rotate 0 hpt L} repeat
  closepath fill grestore} def
/Circle {stroke [] 0 setdash 2 copy
  hpt 0 360 arc stroke Pnt} def
/CircleF {stroke [] 0 setdash hpt 0 360 arc fill} def
/C0 {BL [] 0 setdash 2 copy moveto vpt 90 450 arc} bind def
/C1 {BL [] 0 setdash 2 copy moveto
	2 copy vpt 0 90 arc closepath fill
	vpt 0 360 arc closepath} bind def
/C2 {BL [] 0 setdash 2 copy moveto
	2 copy vpt 90 180 arc closepath fill
	vpt 0 360 arc closepath} bind def
/C3 {BL [] 0 setdash 2 copy moveto
	2 copy vpt 0 180 arc closepath fill
	vpt 0 360 arc closepath} bind def
/C4 {BL [] 0 setdash 2 copy moveto
	2 copy vpt 180 270 arc closepath fill
	vpt 0 360 arc closepath} bind def
/C5 {BL [] 0 setdash 2 copy moveto
	2 copy vpt 0 90 arc
	2 copy moveto
	2 copy vpt 180 270 arc closepath fill
	vpt 0 360 arc} bind def
/C6 {BL [] 0 setdash 2 copy moveto
	2 copy vpt 90 270 arc closepath fill
	vpt 0 360 arc closepath} bind def
/C7 {BL [] 0 setdash 2 copy moveto
	2 copy vpt 0 270 arc closepath fill
	vpt 0 360 arc closepath} bind def
/C8 {BL [] 0 setdash 2 copy moveto
	2 copy vpt 270 360 arc closepath fill
	vpt 0 360 arc closepath} bind def
/C9 {BL [] 0 setdash 2 copy moveto
	2 copy vpt 270 450 arc closepath fill
	vpt 0 360 arc closepath} bind def
/C10 {BL [] 0 setdash 2 copy 2 copy moveto vpt 270 360 arc closepath fill
	2 copy moveto
	2 copy vpt 90 180 arc closepath fill
	vpt 0 360 arc closepath} bind def
/C11 {BL [] 0 setdash 2 copy moveto
	2 copy vpt 0 180 arc closepath fill
	2 copy moveto
	2 copy vpt 270 360 arc closepath fill
	vpt 0 360 arc closepath} bind def
/C12 {BL [] 0 setdash 2 copy moveto
	2 copy vpt 180 360 arc closepath fill
	vpt 0 360 arc closepath} bind def
/C13 {BL [] 0 setdash 2 copy moveto
	2 copy vpt 0 90 arc closepath fill
	2 copy moveto
	2 copy vpt 180 360 arc closepath fill
	vpt 0 360 arc closepath} bind def
/C14 {BL [] 0 setdash 2 copy moveto
	2 copy vpt 90 360 arc closepath fill
	vpt 0 360 arc} bind def
/C15 {BL [] 0 setdash 2 copy vpt 0 360 arc closepath fill
	vpt 0 360 arc closepath} bind def
/Rec {newpath 4 2 roll moveto 1 index 0 rlineto 0 exch rlineto
	neg 0 rlineto closepath} bind def
/Square {dup Rec} bind def
/Bsquare {vpt sub exch vpt sub exch vpt2 Square} bind def
/S0 {BL [] 0 setdash 2 copy moveto 0 vpt rlineto BL Bsquare} bind def
/S1 {BL [] 0 setdash 2 copy vpt Square fill Bsquare} bind def
/S2 {BL [] 0 setdash 2 copy exch vpt sub exch vpt Square fill Bsquare} bind def
/S3 {BL [] 0 setdash 2 copy exch vpt sub exch vpt2 vpt Rec fill Bsquare} bind def
/S4 {BL [] 0 setdash 2 copy exch vpt sub exch vpt sub vpt Square fill Bsquare} bind def
/S5 {BL [] 0 setdash 2 copy 2 copy vpt Square fill
	exch vpt sub exch vpt sub vpt Square fill Bsquare} bind def
/S6 {BL [] 0 setdash 2 copy exch vpt sub exch vpt sub vpt vpt2 Rec fill Bsquare} bind def
/S7 {BL [] 0 setdash 2 copy exch vpt sub exch vpt sub vpt vpt2 Rec fill
	2 copy vpt Square fill Bsquare} bind def
/S8 {BL [] 0 setdash 2 copy vpt sub vpt Square fill Bsquare} bind def
/S9 {BL [] 0 setdash 2 copy vpt sub vpt vpt2 Rec fill Bsquare} bind def
/S10 {BL [] 0 setdash 2 copy vpt sub vpt Square fill 2 copy exch vpt sub exch vpt Square fill
	Bsquare} bind def
/S11 {BL [] 0 setdash 2 copy vpt sub vpt Square fill 2 copy exch vpt sub exch vpt2 vpt Rec fill
	Bsquare} bind def
/S12 {BL [] 0 setdash 2 copy exch vpt sub exch vpt sub vpt2 vpt Rec fill Bsquare} bind def
/S13 {BL [] 0 setdash 2 copy exch vpt sub exch vpt sub vpt2 vpt Rec fill
	2 copy vpt Square fill Bsquare} bind def
/S14 {BL [] 0 setdash 2 copy exch vpt sub exch vpt sub vpt2 vpt Rec fill
	2 copy exch vpt sub exch vpt Square fill Bsquare} bind def
/S15 {BL [] 0 setdash 2 copy Bsquare fill Bsquare} bind def
/D0 {gsave translate 45 rotate 0 0 S0 stroke grestore} bind def
/D1 {gsave translate 45 rotate 0 0 S1 stroke grestore} bind def
/D2 {gsave translate 45 rotate 0 0 S2 stroke grestore} bind def
/D3 {gsave translate 45 rotate 0 0 S3 stroke grestore} bind def
/D4 {gsave translate 45 rotate 0 0 S4 stroke grestore} bind def
/D5 {gsave translate 45 rotate 0 0 S5 stroke grestore} bind def
/D6 {gsave translate 45 rotate 0 0 S6 stroke grestore} bind def
/D7 {gsave translate 45 rotate 0 0 S7 stroke grestore} bind def
/D8 {gsave translate 45 rotate 0 0 S8 stroke grestore} bind def
/D9 {gsave translate 45 rotate 0 0 S9 stroke grestore} bind def
/D10 {gsave translate 45 rotate 0 0 S10 stroke grestore} bind def
/D11 {gsave translate 45 rotate 0 0 S11 stroke grestore} bind def
/D12 {gsave translate 45 rotate 0 0 S12 stroke grestore} bind def
/D13 {gsave translate 45 rotate 0 0 S13 stroke grestore} bind def
/D14 {gsave translate 45 rotate 0 0 S14 stroke grestore} bind def
/D15 {gsave translate 45 rotate 0 0 S15 stroke grestore} bind def
/DiaE {stroke [] 0 setdash vpt add M
  hpt neg vpt neg V hpt vpt neg V
  hpt vpt V hpt neg vpt V closepath stroke} def
/BoxE {stroke [] 0 setdash exch hpt sub exch vpt add M
  0 vpt2 neg V hpt2 0 V 0 vpt2 V
  hpt2 neg 0 V closepath stroke} def
/TriUE {stroke [] 0 setdash vpt 1.12 mul add M
  hpt neg vpt -1.62 mul V
  hpt 2 mul 0 V
  hpt neg vpt 1.62 mul V closepath stroke} def
/TriDE {stroke [] 0 setdash vpt 1.12 mul sub M
  hpt neg vpt 1.62 mul V
  hpt 2 mul 0 V
  hpt neg vpt -1.62 mul V closepath stroke} def
/PentE {stroke [] 0 setdash gsave
  translate 0 hpt M 4 {72 rotate 0 hpt L} repeat
  closepath stroke grestore} def
/CircE {stroke [] 0 setdash 
  hpt 0 360 arc stroke} def
/Opaque {gsave closepath 1 setgray fill grestore 0 setgray closepath} def
/DiaW {stroke [] 0 setdash vpt add M
  hpt neg vpt neg V hpt vpt neg V
  hpt vpt V hpt neg vpt V Opaque stroke} def
/BoxW {stroke [] 0 setdash exch hpt sub exch vpt add M
  0 vpt2 neg V hpt2 0 V 0 vpt2 V
  hpt2 neg 0 V Opaque stroke} def
/TriUW {stroke [] 0 setdash vpt 1.12 mul add M
  hpt neg vpt -1.62 mul V
  hpt 2 mul 0 V
  hpt neg vpt 1.62 mul V Opaque stroke} def
/TriDW {stroke [] 0 setdash vpt 1.12 mul sub M
  hpt neg vpt 1.62 mul V
  hpt 2 mul 0 V
  hpt neg vpt -1.62 mul V Opaque stroke} def
/PentW {stroke [] 0 setdash gsave
  translate 0 hpt M 4 {72 rotate 0 hpt L} repeat
  Opaque stroke grestore} def
/CircW {stroke [] 0 setdash 
  hpt 0 360 arc Opaque stroke} def
/BoxFill {gsave Rec 1 setgray fill grestore} def
/Density {
  /Fillden exch def
  currentrgbcolor
  /ColB exch def /ColG exch def /ColR exch def
  /ColR ColR Fillden mul Fillden sub 1 add def
  /ColG ColG Fillden mul Fillden sub 1 add def
  /ColB ColB Fillden mul Fillden sub 1 add def
  ColR ColG ColB setrgbcolor} def
/BoxColFill {gsave Rec PolyFill} def
/PolyFill {gsave Density fill grestore grestore} def
/h {rlineto rlineto rlineto gsave closepath fill grestore} bind def
%
% PostScript Level 1 Pattern Fill routine for rectangles
% Usage: x y w h s a XX PatternFill
%	x,y = lower left corner of box to be filled
%	w,h = width and height of box
%	  a = angle in degrees between lines and x-axis
%	 XX = 0/1 for no/yes cross-hatch
%
/PatternFill {gsave /PFa [ 9 2 roll ] def
  PFa 0 get PFa 2 get 2 div add PFa 1 get PFa 3 get 2 div add translate
  PFa 2 get -2 div PFa 3 get -2 div PFa 2 get PFa 3 get Rec
  TransparentPatterns {} {gsave 1 setgray fill grestore} ifelse
  clip
  currentlinewidth 0.5 mul setlinewidth
  /PFs PFa 2 get dup mul PFa 3 get dup mul add sqrt def
  0 0 M PFa 5 get rotate PFs -2 div dup translate
  0 1 PFs PFa 4 get div 1 add floor cvi
	{PFa 4 get mul 0 M 0 PFs V} for
  0 PFa 6 get ne {
	0 1 PFs PFa 4 get div 1 add floor cvi
	{PFa 4 get mul 0 2 1 roll M PFs 0 V} for
 } if
  stroke grestore} def
%
/languagelevel where
 {pop languagelevel} {1} ifelse
dup 2 lt
	{/InterpretLevel1 true def
	 /InterpretLevel3 false def}
	{/InterpretLevel1 Level1 def
	 2 gt
	    {/InterpretLevel3 Level3 def}
	    {/InterpretLevel3 false def}
	 ifelse }
 ifelse
%
% PostScript level 2 pattern fill definitions
%
/Level2PatternFill {
/Tile8x8 {/PaintType 2 /PatternType 1 /TilingType 1 /BBox [0 0 8 8] /XStep 8 /YStep 8}
	bind def
/KeepColor {currentrgbcolor [/Pattern /DeviceRGB] setcolorspace} bind def
<< Tile8x8
 /PaintProc {0.5 setlinewidth pop 0 0 M 8 8 L 0 8 M 8 0 L stroke} 
>> matrix makepattern
/Pat1 exch def
<< Tile8x8
 /PaintProc {0.5 setlinewidth pop 0 0 M 8 8 L 0 8 M 8 0 L stroke
	0 4 M 4 8 L 8 4 L 4 0 L 0 4 L stroke}
>> matrix makepattern
/Pat2 exch def
<< Tile8x8
 /PaintProc {0.5 setlinewidth pop 0 0 M 0 8 L
	8 8 L 8 0 L 0 0 L fill}
>> matrix makepattern
/Pat3 exch def
<< Tile8x8
 /PaintProc {0.5 setlinewidth pop -4 8 M 8 -4 L
	0 12 M 12 0 L stroke}
>> matrix makepattern
/Pat4 exch def
<< Tile8x8
 /PaintProc {0.5 setlinewidth pop -4 0 M 8 12 L
	0 -4 M 12 8 L stroke}
>> matrix makepattern
/Pat5 exch def
<< Tile8x8
 /PaintProc {0.5 setlinewidth pop -2 8 M 4 -4 L
	0 12 M 8 -4 L 4 12 M 10 0 L stroke}
>> matrix makepattern
/Pat6 exch def
<< Tile8x8
 /PaintProc {0.5 setlinewidth pop -2 0 M 4 12 L
	0 -4 M 8 12 L 4 -4 M 10 8 L stroke}
>> matrix makepattern
/Pat7 exch def
<< Tile8x8
 /PaintProc {0.5 setlinewidth pop 8 -2 M -4 4 L
	12 0 M -4 8 L 12 4 M 0 10 L stroke}
>> matrix makepattern
/Pat8 exch def
<< Tile8x8
 /PaintProc {0.5 setlinewidth pop 0 -2 M 12 4 L
	-4 0 M 12 8 L -4 4 M 8 10 L stroke}
>> matrix makepattern
/Pat9 exch def
/Pattern1 {PatternBgnd KeepColor Pat1 setpattern} bind def
/Pattern2 {PatternBgnd KeepColor Pat2 setpattern} bind def
/Pattern3 {PatternBgnd KeepColor Pat3 setpattern} bind def
/Pattern4 {PatternBgnd KeepColor Landscape {Pat5} {Pat4} ifelse setpattern} bind def
/Pattern5 {PatternBgnd KeepColor Landscape {Pat4} {Pat5} ifelse setpattern} bind def
/Pattern6 {PatternBgnd KeepColor Landscape {Pat9} {Pat6} ifelse setpattern} bind def
/Pattern7 {PatternBgnd KeepColor Landscape {Pat8} {Pat7} ifelse setpattern} bind def
} def
%
%
%End of PostScript Level 2 code
%
/PatternBgnd {
  TransparentPatterns {} {gsave 1 setgray fill grestore} ifelse
} def
%
% Substitute for Level 2 pattern fill codes with
% grayscale if Level 2 support is not selected.
%
/Level1PatternFill {
/Pattern1 {0.250 Density} bind def
/Pattern2 {0.500 Density} bind def
/Pattern3 {0.750 Density} bind def
/Pattern4 {0.125 Density} bind def
/Pattern5 {0.375 Density} bind def
/Pattern6 {0.625 Density} bind def
/Pattern7 {0.875 Density} bind def
} def
%
% Now test for support of Level 2 code
%
Level1 {Level1PatternFill} {Level2PatternFill} ifelse
%
/Symbol-Oblique /Symbol findfont [1 0 .167 1 0 0] makefont
dup length dict begin {1 index /FID eq {pop pop} {def} ifelse} forall
currentdict end definefont pop
%
/Metrics {ExtendTextBox Gswidth} def
/Lwidth {currentpoint stroke M 0 vshift R Metrics} def
/Rwidth {currentpoint stroke M dup stringwidth pop neg vshift R Metrics} def
/Cwidth {currentpoint stroke M dup stringwidth pop -2 div vshift R Metrics} def
/GLwidth {currentpoint stroke M 0 vshift R {ExtendTextBox} forall} def
/GRwidth {currentpoint stroke M dup Gwidth vshift R {ExtendTextBox} forall} def
/GCwidth {currentpoint stroke M dup Gwidth 2 div vshift R {ExtendTextBox} forall} def
/GLwidth2 {0 Gwidth AddGlyphWidth} def
/GRwidth2 {Gwidth -1 mul 0 AddGlyphWidth} def
/GCwidth2 {Gwidth 2 div dup -1 mul AddGlyphWidth} def
/AddGlyphWidth { dup TBx2 gt {userdict /TBx2 3 -1 roll put} {pop} ifelse
                 dup TBx1 lt {userdict /TBx1 3 -1 roll put} {pop} ifelse } def
/MFshow {
   { dup 5 get 3 ge
     { 5 get 3 eq {gsave} {grestore} ifelse }
     {dup dup 0 get findfont exch 1 get scalefont setfont
     [ currentpoint ] exch dup 2 get 0 exch R dup 5 get 2 ne {dup dup 6
     get exch 4 get {textshow} {Metrics pop 0 R} ifelse }if dup 5 get 0 eq
     {dup 3 get {2 get neg 0 exch R pop} {pop aload pop M} ifelse} {dup 5
     get 1 eq {dup 2 get exch dup 3 get exch 6 get Gswidth pop -2 div
     dup 0 R} {dup 6 get Gswidth pop -2 div 0 R 6 get
     textshow 2 index {aload pop M neg 3 -1 roll neg R pop pop} {pop pop pop
     pop aload pop M} ifelse }ifelse }ifelse }
     ifelse }
   forall} def
/Gswidth {dup type /stringtype eq {stringwidth} {pop (n) stringwidth} ifelse} def
/MFwidth {0 exch { dup 5 get 3 ge { 5 get 3 eq { 0 } { pop } ifelse }
 {dup 3 get{dup dup 0 get findfont exch 1 get scalefont setfont
     6 get Gswidth pop add} {pop} ifelse} ifelse} forall} def
/MLshow { currentpoint stroke M
  0 exch R
  Blacktext {gsave 0 setgray MFshow grestore} {MFshow} ifelse } bind def
/MRshow { currentpoint stroke M
  exch dup MFwidth neg 3 -1 roll R
  Blacktext {gsave 0 setgray MFshow grestore} {MFshow} ifelse } bind def
/MCshow { currentpoint stroke M
  exch dup MFwidth -2 div 3 -1 roll R
  Blacktext {gsave 0 setgray MFshow grestore} {MFshow} ifelse } bind def
/XYsave    { [( ) 1 2 true false 3 ()] } bind def
/XYrestore { [( ) 1 2 true false 4 ()] } bind def
Level1 SuppressPDFMark or 
{} {
/SDict 10 dict def
systemdict /pdfmark known not {
  userdict /pdfmark systemdict /cleartomark get put
} if
SDict begin [
  /Title (x-fas.eps)
  /Subject (gnuplot plot)
  /Creator (gnuplot 5.2 patchlevel 2)
%  /Producer (gnuplot)
%  /Keywords ()
  /CreationDate (Sun Mar  7 19:29:02 2021)
  /DOCINFO pdfmark
end
} ifelse
%
% Support for boxed text - Ethan A Merritt Sep 2016
%
/InitTextBox { userdict /TBy2 3 -1 roll put userdict /TBx2 3 -1 roll put
           userdict /TBy1 3 -1 roll put userdict /TBx1 3 -1 roll put
	   /Boxing true def } def
/ExtendTextBox { dup type /stringtype eq
    { Boxing { gsave dup false charpath pathbbox
      dup TBy2 gt {userdict /TBy2 3 -1 roll put} {pop} ifelse
      dup TBx2 gt {userdict /TBx2 3 -1 roll put} {pop} ifelse
      dup TBy1 lt {userdict /TBy1 3 -1 roll put} {pop} ifelse
      dup TBx1 lt {userdict /TBx1 3 -1 roll put} {pop} ifelse
      grestore } if }
    {} ifelse} def
/PopTextBox { newpath TBx1 TBxmargin sub TBy1 TBymargin sub M
               TBx1 TBxmargin sub TBy2 TBymargin add L
	       TBx2 TBxmargin add TBy2 TBymargin add L
	       TBx2 TBxmargin add TBy1 TBymargin sub L closepath } def
/DrawTextBox { PopTextBox stroke /Boxing false def} def
/FillTextBox { gsave PopTextBox fill grestore /Boxing false def} def
0 0 0 0 InitTextBox
/TBxmargin 20 def
/TBymargin 20 def
/Boxing false def
/textshow { ExtendTextBox Gshow } def
%
end
%%EndProlog
%%Page: 1 1
gnudict begin
gsave
doclip
50 50 translate
0.050 0.050 scale
0 setgray
newpath
(Times) findfont 240 scalefont setfont
BackgroundColor 0 lt 3 1 roll 0 lt exch 0 lt or or not {BackgroundColor C 1.000 0 0 7200.00 5040.00 BoxColFill} if
1.000 UL
LTb
LCb setrgbcolor
1176 768 M
63 0 V
5528 0 R
-63 0 V
stroke
1032 768 M
[ [(Times) 320.0 0.0 true true 0 ( 0)]
] -106.7 MRshow
1.000 UL
LTb
LCb setrgbcolor
1176 1272 M
63 0 V
5528 0 R
-63 0 V
stroke
1032 1272 M
[ [(Times) 320.0 0.0 true true 0 ( 50)]
] -106.7 MRshow
1.000 UL
LTb
LCb setrgbcolor
1176 1776 M
63 0 V
5528 0 R
-63 0 V
stroke
1032 1776 M
[ [(Times) 320.0 0.0 true true 0 ( 100)]
] -106.7 MRshow
1.000 UL
LTb
LCb setrgbcolor
1176 2280 M
63 0 V
5528 0 R
-63 0 V
stroke
1032 2280 M
[ [(Times) 320.0 0.0 true true 0 ( 150)]
] -106.7 MRshow
1.000 UL
LTb
LCb setrgbcolor
1176 2784 M
63 0 V
5528 0 R
-63 0 V
stroke
1032 2784 M
[ [(Times) 320.0 0.0 true true 0 ( 200)]
] -106.7 MRshow
1.000 UL
LTb
LCb setrgbcolor
1176 3287 M
63 0 V
5528 0 R
-63 0 V
stroke
1032 3287 M
[ [(Times) 320.0 0.0 true true 0 ( 250)]
] -106.7 MRshow
1.000 UL
LTb
LCb setrgbcolor
1176 3791 M
63 0 V
5528 0 R
-63 0 V
stroke
1032 3791 M
[ [(Times) 320.0 0.0 true true 0 ( 300)]
] -106.7 MRshow
1.000 UL
LTb
LCb setrgbcolor
1176 4295 M
63 0 V
5528 0 R
-63 0 V
stroke
1032 4295 M
[ [(Times) 320.0 0.0 true true 0 ( 350)]
] -106.7 MRshow
1.000 UL
LTb
LCb setrgbcolor
1176 4799 M
63 0 V
5528 0 R
-63 0 V
stroke
1032 4799 M
[ [(Times) 320.0 0.0 true true 0 ( 400)]
] -106.7 MRshow
1.000 UL
LTb
LCb setrgbcolor
1176 768 M
0 63 V
0 3968 R
0 -63 V
stroke
1176 528 M
[ [(Times) 320.0 0.0 true true 0 ( 0)]
] -106.7 MCshow
1.000 UL
LTb
LCb setrgbcolor
1875 768 M
0 63 V
0 3968 R
0 -63 V
stroke
1875 528 M
[ [(Times) 320.0 0.0 true true 0 ( 0.05)]
] -106.7 MCshow
1.000 UL
LTb
LCb setrgbcolor
2574 768 M
0 63 V
0 3968 R
0 -63 V
stroke
2574 528 M
[ [(Times) 320.0 0.0 true true 0 ( 0.1)]
] -106.7 MCshow
1.000 UL
LTb
LCb setrgbcolor
3273 768 M
0 63 V
0 3968 R
0 -63 V
stroke
3273 528 M
[ [(Times) 320.0 0.0 true true 0 ( 0.15)]
] -106.7 MCshow
1.000 UL
LTb
LCb setrgbcolor
3972 768 M
0 63 V
0 3968 R
0 -63 V
stroke
3972 528 M
[ [(Times) 320.0 0.0 true true 0 ( 0.2)]
] -106.7 MCshow
1.000 UL
LTb
LCb setrgbcolor
4670 768 M
0 63 V
0 3968 R
0 -63 V
stroke
4670 528 M
[ [(Times) 320.0 0.0 true true 0 ( 0.25)]
] -106.7 MCshow
1.000 UL
LTb
LCb setrgbcolor
5369 768 M
0 63 V
0 3968 R
0 -63 V
stroke
5369 528 M
[ [(Times) 320.0 0.0 true true 0 ( 0.3)]
] -106.7 MCshow
1.000 UL
LTb
LCb setrgbcolor
6068 768 M
0 63 V
0 3968 R
0 -63 V
stroke
6068 528 M
[ [(Times) 320.0 0.0 true true 0 ( 0.35)]
] -106.7 MCshow
1.000 UL
LTb
LCb setrgbcolor
6767 768 M
0 63 V
0 3968 R
0 -63 V
stroke
6767 528 M
[ [(Times) 320.0 0.0 true true 0 ( 0.4)]
] -106.7 MCshow
1.000 UL
LTb
LCb setrgbcolor
1.000 UL
LTB
LCb setrgbcolor
1176 4799 N
0 -4031 V
5591 0 V
0 4031 V
-5591 0 V
Z stroke
1.000 UP
1.000 UL
LTb
LCb setrgbcolor
LCb setrgbcolor
216 2783 M
currentpoint gsave translate -270 rotate 0 0 moveto
[ [(Times) 320.0 0.0 true true 0 (Mean latency \(ms\))]
] -106.7 MCshow
grestore
LTb
LCb setrgbcolor
3971 168 M
[ [(Times) 320.0 0.0 true true 0 (Initial acceptance probability)]
] -106.7 MCshow
LTb
% Begin plot #1
1.000 UP
1.000 UL
LTb
0.58 0.00 0.83 C LCb setrgbcolor
5696 4616 M
[ [(Times) 240.0 0.0 true true 0 (Traditional)]
] -80.0 MRshow
1.000 UP
1.000 UL
LTb
0.58 0.00 0.83 C 5840 4616 M
639 0 V
-639 31 R
0 -62 V
639 62 R
0 -62 V
-5302 59 R
13 -29 V
56 -127 V
70 -145 V
140 -252 V
139 -214 V
140 -185 V
140 -163 V
140 -138 V
139 -127 V
140 -111 V
140 -102 V
140 -91 V
140 -84 V
139 -73 V
140 -71 V
140 -61 V
140 -58 V
139 -53 V
140 -51 V
140 -46 V
140 -42 V
140 -39 V
5369 2102 L
6767 1950 L
1177 4644 M
0 1 V
-1 -1 R
32 0 V
-32 1 R
32 0 V
-18 -31 R
0 2 V
-14 -2 R
45 0 V
-45 2 R
45 0 V
25 -131 R
0 5 V
-31 -5 R
62 0 V
-62 5 R
62 0 V
39 -149 R
0 5 V
-31 -5 R
62 0 V
-62 5 R
62 0 V
109 -257 R
0 4 V
-31 -4 R
62 0 V
-62 4 R
62 0 V
108 -219 R
0 5 V
-31 -5 R
62 0 V
-62 5 R
62 0 V
109 -190 R
0 6 V
-31 -6 R
62 0 V
-62 6 R
62 0 V
109 -168 R
0 4 V
-31 -4 R
62 0 V
-62 4 R
62 0 V
109 -143 R
0 5 V
-31 -5 R
62 0 V
-62 5 R
62 0 V
108 -131 R
0 5 V
-31 -5 R
62 0 V
-62 5 R
62 0 V
109 -117 R
0 5 V
-31 -5 R
62 0 V
-62 5 R
62 0 V
109 -107 R
0 5 V
-31 -5 R
62 0 V
-62 5 R
62 0 V
109 -96 R
0 5 V
-31 -5 R
62 0 V
-62 5 R
62 0 V
109 -88 R
0 5 V
-31 -5 R
62 0 V
-62 5 R
62 0 V
108 -79 R
0 5 V
-31 -5 R
62 0 V
-62 5 R
62 0 V
109 -75 R
0 5 V
-31 -5 R
62 0 V
-62 5 R
62 0 V
109 -65 R
0 3 V
-31 -3 R
62 0 V
-62 3 R
62 0 V
109 -62 R
0 4 V
-31 -4 R
62 0 V
-62 4 R
62 0 V
108 -56 R
0 3 V
-31 -3 R
62 0 V
-62 3 R
62 0 V
109 -54 R
0 3 V
-31 -3 R
62 0 V
-62 3 R
62 0 V
109 -49 R
0 3 V
-31 -3 R
62 0 V
-62 3 R
62 0 V
109 -46 R
0 4 V
-31 -4 R
62 0 V
-62 4 R
62 0 V
109 -43 R
0 3 V
-31 -3 R
62 0 V
-62 3 R
62 0 V
5369 2101 M
0 2 V
-31 -2 R
62 0 V
-62 2 R
62 0 V
6767 1948 M
0 3 V
-31 -3 R
31 0 V
-31 3 R
31 0 V
1177 4644 Pls
1190 4615 Pls
1246 4488 Pls
1316 4343 Pls
1456 4091 Pls
1595 3877 Pls
1735 3692 Pls
1875 3529 Pls
2015 3391 Pls
2154 3264 Pls
2294 3153 Pls
2434 3051 Pls
2574 2960 Pls
2714 2876 Pls
2853 2803 Pls
2993 2732 Pls
3133 2671 Pls
3273 2613 Pls
3412 2560 Pls
3552 2509 Pls
3692 2463 Pls
3832 2421 Pls
3972 2382 Pls
5369 2102 Pls
6767 1950 Pls
6159 4616 Pls
% End plot #1
% Begin plot #2
1.000 UP
1.000 UL
LTb
0.00 0.62 0.45 C LCb setrgbcolor
5696 4376 M
[ [(Times) 240.0 0.0 true true 0 (Context-aware, no learning)]
] -80.0 MRshow
1.000 UP
1.000 UL
LTb
0.00 0.62 0.45 C 5840 4376 M
639 0 V
-639 31 R
0 -62 V
639 62 R
0 -62 V
1177 4198 M
13 -12 V
56 -53 V
70 -64 V
140 -122 V
139 -118 V
140 -107 V
140 -104 V
140 -97 V
139 -91 V
140 -85 V
140 -80 V
140 -75 V
140 -78 V
139 -65 V
140 -67 V
140 -60 V
140 -59 V
139 -55 V
140 -54 V
140 -48 V
140 -47 V
140 -46 V
5369 2269 L
6767 2059 L
1177 4198 M
-1 0 R
32 0 V
-32 0 R
32 0 V
-18 -12 R
-14 0 R
45 0 V
-45 0 R
45 0 V
25 -54 R
0 2 V
-31 -2 R
62 0 V
-62 2 R
62 0 V
39 -66 R
0 2 V
-31 -2 R
62 0 V
-62 2 R
62 0 V
109 -125 R
0 4 V
-31 -4 R
62 0 V
-62 4 R
62 0 V
108 -122 R
0 5 V
-31 -5 R
62 0 V
-62 5 R
62 0 V
109 -112 R
0 3 V
-31 -3 R
62 0 V
-62 3 R
62 0 V
109 -107 R
0 5 V
-31 -5 R
62 0 V
-62 5 R
62 0 V
109 -103 R
0 5 V
-31 -5 R
62 0 V
-62 5 R
62 0 V
108 -95 R
0 4 V
-31 -4 R
62 0 V
-62 4 R
62 0 V
109 -90 R
0 5 V
-31 -5 R
62 0 V
-62 5 R
62 0 V
109 -85 R
0 5 V
-31 -5 R
62 0 V
-62 5 R
62 0 V
109 -80 R
0 5 V
-31 -5 R
62 0 V
-62 5 R
62 0 V
109 -83 R
0 6 V
-31 -6 R
62 0 V
-62 6 R
62 0 V
108 -70 R
0 4 V
-31 -4 R
62 0 V
-62 4 R
62 0 V
109 -71 R
0 4 V
-31 -4 R
62 0 V
-62 4 R
62 0 V
109 -65 R
0 6 V
-31 -6 R
62 0 V
-62 6 R
62 0 V
109 -65 R
0 6 V
-31 -6 R
62 0 V
-62 6 R
62 0 V
108 -61 R
0 5 V
-31 -5 R
62 0 V
-62 5 R
62 0 V
109 -58 R
0 4 V
-31 -4 R
62 0 V
-62 4 R
62 0 V
109 -52 R
0 5 V
-31 -5 R
62 0 V
-62 5 R
62 0 V
109 -52 R
0 4 V
-31 -4 R
62 0 V
-62 4 R
62 0 V
109 -50 R
0 4 V
-31 -4 R
62 0 V
-62 4 R
62 0 V
5369 2268 M
0 3 V
-31 -3 R
62 0 V
-62 3 R
62 0 V
6767 2058 M
0 2 V
-31 -2 R
31 0 V
-31 2 R
31 0 V
1177 4198 Crs
1190 4186 Crs
1246 4133 Crs
1316 4069 Crs
1456 3947 Crs
1595 3829 Crs
1735 3722 Crs
1875 3618 Crs
2015 3521 Crs
2154 3430 Crs
2294 3345 Crs
2434 3265 Crs
2574 3190 Crs
2714 3112 Crs
2853 3047 Crs
2993 2980 Crs
3133 2920 Crs
3273 2861 Crs
3412 2806 Crs
3552 2752 Crs
3692 2704 Crs
3832 2657 Crs
3972 2611 Crs
5369 2269 Crs
6767 2059 Crs
6159 4376 Crs
% End plot #2
% Begin plot #3
1.000 UP
1.000 UL
LTb
0.34 0.71 0.91 C LCb setrgbcolor
5696 4136 M
[ [(Times) 240.0 0.0 true true 0 (Context-aware, Q-Learning)]
] -80.0 MRshow
1.000 UP
1.000 UL
LTb
0.34 0.71 0.91 C 5840 4136 M
639 0 V
-639 31 R
0 -62 V
639 62 R
0 -62 V
1177 3843 M
13 -8 V
56 -35 V
70 14 V
140 -18 V
139 -5 V
140 -17 V
140 -18 V
140 -25 V
139 -66 V
140 -50 V
140 -196 V
140 -65 V
140 -106 V
139 -12 V
140 -198 V
140 -152 V
140 18 V
139 -118 V
140 -193 V
140 -98 V
140 16 V
140 -98 V
5369 2142 L
6767 2007 L
1177 3803 M
0 80 V
-1 -80 R
32 0 V
-32 80 R
32 0 V
-18 -87 R
0 78 V
-14 -78 R
45 0 V
-45 78 R
45 0 V
25 -105 R
0 62 V
-31 -62 R
62 0 V
-62 62 R
62 0 V
39 -54 R
0 75 V
-31 -75 R
62 0 V
-62 75 R
62 0 V
109 -88 R
0 63 V
-31 -63 R
62 0 V
-62 63 R
62 0 V
108 -64 R
0 55 V
-31 -55 R
62 0 V
-62 55 R
62 0 V
109 -62 R
0 36 V
-31 -36 R
62 0 V
-62 36 R
62 0 V
109 -42 R
0 12 V
-31 -12 R
62 0 V
-62 12 R
62 0 V
109 -51 R
0 40 V
-31 -40 R
62 0 V
-62 40 R
62 0 V
108 -142 R
0 113 V
-31 -113 R
62 0 V
-62 113 R
62 0 V
109 -199 R
0 184 V
-31 -184 R
62 0 V
-62 184 R
62 0 V
109 -424 R
0 273 V
-31 -273 R
62 0 V
-62 273 R
62 0 V
109 -364 R
0 324 V
-31 -324 R
62 0 V
-62 324 R
62 0 V
109 -452 R
0 367 V
-31 -367 R
62 0 V
-62 367 R
62 0 V
108 -396 R
0 403 V
-31 -403 R
62 0 V
-62 403 R
62 0 V
109 -596 R
0 391 V
-31 -391 R
62 0 V
-62 391 R
62 0 V
109 -520 R
0 347 V
-31 -347 R
62 0 V
-62 347 R
62 0 V
109 -370 R
0 428 V
-31 -428 R
62 0 V
-62 428 R
62 0 V
108 -520 R
0 375 V
-31 -375 R
62 0 V
-62 375 R
62 0 V
109 -492 R
0 223 V
-31 -223 R
62 0 V
-62 223 R
62 0 V
109 -212 R
0 7 V
-31 -7 R
62 0 V
-62 7 R
62 0 V
109 -110 R
0 244 V
-31 -244 R
62 0 V
-62 244 R
62 0 V
109 -222 R
0 4 V
-31 -4 R
62 0 V
-62 4 R
62 0 V
5369 2139 M
0 6 V
-31 -6 R
62 0 V
-62 6 R
62 0 V
6767 2003 M
0 7 V
-31 -7 R
31 0 V
-31 7 R
31 0 V
1177 3843 Star
1190 3835 Star
1246 3800 Star
1316 3814 Star
1456 3796 Star
1595 3791 Star
1735 3774 Star
1875 3756 Star
2015 3731 Star
2154 3665 Star
2294 3615 Star
2434 3419 Star
2574 3354 Star
2714 3248 Star
2853 3236 Star
2993 3038 Star
3133 2886 Star
3273 2904 Star
3412 2786 Star
3552 2593 Star
3692 2495 Star
3832 2511 Star
3972 2413 Star
5369 2142 Star
6767 2007 Star
6159 4136 Star
% End plot #3
2.000 UL
LTb
LCb setrgbcolor
1.000 UL
LTB
LCb setrgbcolor
1176 4799 N
0 -4031 V
5591 0 V
0 4031 V
-5591 0 V
Z stroke
1.000 UP
1.000 UL
LTb
LCb setrgbcolor
stroke
grestore
end
showpage
%%Trailer
%%DocumentFonts: Times
