744.0 761.0 851.0 864.0 1402.0 1421.0 1497.0 1550.0 1671.0 1880.0 1976.0 2097.0 3216.0 3340.0 3360.0 3372.0 3528.0 
248.0 265.0 314.0 386.0 830.0 852.0 930.0 946.0 1949.0 1980.0 2013.0 2024.0 2154.0 2198.0 2203.0 3352.0 3382.0 
72.0 91.0 178.0 298.0 840.0 864.0 939.0 952.0 1870.0 1955.0 1969.0 1996.0 2043.0 2046.0 2048.0 3248.0 3429.0 
203.0 1222.0 1300.0 1317.0 2396.0 2425.0 2498.0 2523.0 3151.0 3171.0 3205.0 3252.0 3343.0 3542.0 4922.0 5096.0 5121.0 
123.0 140.0 207.0 863.0 894.0 918.0 979.0 1051.0 1255.0 1264.0 1325.0 1343.0 2592.0 2592.0 2671.0 2804.0 2819.0 
214.0 1362.0 1433.0 1443.0 2554.0 2572.0 2667.0 2678.0 3266.0 3297.0 3317.0 3383.0 3480.0 3804.0 5041.0 5227.0 5270.0 
37.0 83.0 1174.0 1198.0 1285.0 1291.0 1327.0 1328.0 1833.0 1847.0 1887.0 1989.0 2099.0 2273.0 3649.0 3778.0 3788.0 
27.0 76.0 1230.0 1254.0 1301.0 1314.0 1331.0 1351.0 1892.0 1909.0 1948.0 1961.0 2177.0 2402.0 3831.0 3845.0 3914.0 
28.0 1949.0 1975.0 2042.0 2048.0 2171.0 2609.0 2626.0 2715.0 2724.0 3760.0 3782.0 3900.0 3972.0 4007.0 5232.0 5250.0 
41.0 94.0 116.0 249.0 795.0 817.0 896.0 911.0 1892.0 1914.0 1978.0 1986.0 2011.0 2110.0 2248.0 3251.0 3259.0 
107.0 127.0 178.0 305.0 709.0 728.0 811.0 830.0 1797.0 1839.0 1893.0 1914.0 2034.0 2071.0 2131.0 3134.0 3166.0 
24.0 106.0 124.0 769.0 790.0 828.0 862.0 909.0 1153.0 1154.0 1183.0 1257.0 2463.0 2504.0 2562.0 2699.0 2757.0 
102.0 113.0 221.0 772.0 790.0 821.0 865.0 1063.0 1247.0 1295.0 1307.0 1347.0 2541.0 2577.0 2707.0 2709.0 2761.0 
1800.0 1804.0 1840.0 1871.0 2010.0 2461.0 2481.0 2560.0 2576.0 3553.0 3554.0 3573.0 3658.0 3739.0 3777.0 4902.0 5062.0 
34.0 1925.0 1942.0 2069.0 2084.0 2133.0 2583.0 2602.0 2681.0 2696.0 3694.0 3705.0 3725.0 3788.0 3788.0 5013.0 5196.0 

