107.0 228.0 241.0 304.0 322.0 888.0 903.0 974.0 1004.0 1026.0 1460.0 1971.0 1996.0 2037.0 2070.0 2247.0 2312.0 
72.0 205.0 221.0 352.0 370.0 864.0 889.0 952.0 981.0 982.0 1632.0 1953.0 1972.0 1993.0 2043.0 2215.0 2287.0 
96.0 122.0 165.0 366.0 372.0 713.0 727.0 805.0 827.0 834.0 1431.0 1813.0 1845.0 1915.0 1940.0 2038.0 2196.0 
108.0 124.0 222.0 223.0 753.0 775.0 815.0 909.0 1023.0 1025.0 1457.0 2085.0 2500.0 2512.0 2521.0 2599.0 2833.0 
40.0 124.0 143.0 246.0 802.0 817.0 947.0 963.0 1076.0 1077.0 1481.0 2131.0 2535.0 2551.0 2596.0 2673.0 2912.0 
56.0 135.0 176.0 237.0 796.0 813.0 870.0 937.0 1054.0 1455.0 2021.0 2125.0 2536.0 2581.0 2609.0 2656.0 2896.0 
82.0 84.0 153.0 399.0 1736.0 1761.0 1805.0 1813.0 1992.0 2008.0 2396.0 2412.0 2496.0 2512.0 2522.0 3071.0 3738.0 
71.0 89.0 147.0 260.0 1821.0 1845.0 1890.0 1902.0 2091.0 2093.0 2479.0 2496.0 2569.0 2592.0 2600.0 3152.0 3824.0 
265.0 321.0 346.0 396.0 2426.0 2445.0 2499.0 2501.0 2693.0 2695.0 3084.0 3106.0 3169.0 3214.0 3225.0 3765.0 4464.0 
22.0 100.0 100.0 284.0 302.0 682.0 698.0 759.0 769.0 797.0 798.0 1752.0 1813.0 1840.0 1888.0 1985.0 2133.0 
74.0 83.0 145.0 334.0 348.0 737.0 755.0 799.0 822.0 851.0 861.0 1804.0 1906.0 2063.0 2119.0 2194.0 2438.0 
29.0 124.0 130.0 132.0 686.0 721.0 739.0 755.0 946.0 956.0 1377.0 2019.0 2437.0 2448.0 2469.0 2540.0 2785.0 
761.0 769.0 830.0 909.0 1035.0 1037.0 1422.0 1452.0 1507.0 1533.0 1553.0 2570.0 2617.0 2643.0 2726.0 2727.0 2926.0 
21.0 79.0 92.0 341.0 1828.0 1848.0 1907.0 1928.0 2094.0 2103.0 2487.0 2504.0 2605.0 2610.0 2670.0 3163.0 3809.0 
1337.0 1351.0 1446.0 1455.0 1455.0 2000.0 2020.0 2104.0 2140.0 2260.0 2273.0 3330.0 3751.0 3819.0 4026.0 4105.0 4345.0 

