77.0 229.0 254.0 889.0 914.0 1000.0 1023.0 1071.0 1606.0 1608.0 1925.0 1980.0 2128.0 2208.0 2531.0 2563.0 3424.0 
73.0 203.0 225.0 868.0 885.0 948.0 976.0 996.0 1577.0 1579.0 1947.0 1959.0 2014.0 2085.0 2332.0 2334.0 3241.0 
29.0 713.0 808.0 815.0 820.0 830.0 1376.0 1380.0 1618.0 1695.0 1855.0 1927.0 3105.0 3426.0 3746.0 3783.0 4631.0 
103.0 122.0 203.0 233.0 744.0 749.0 815.0 907.0 972.0 1091.0 1241.0 1302.0 2482.0 2552.0 2872.0 2876.0 3770.0 
129.0 150.0 230.0 232.0 788.0 792.0 841.0 931.0 1023.0 1106.0 1208.0 1217.0 2493.0 2613.0 2930.0 2944.0 3830.0 
1197.0 1376.0 1422.0 3003.0 3022.0 3238.0 3290.0 3661.0 3686.0 3766.0 3777.0 3845.0 4378.0 4466.0 4778.0 4782.0 4901.0 
89.0 1115.0 1140.0 1219.0 1221.0 1316.0 1774.0 1778.0 1830.0 1918.0 2015.0 2064.0 3497.0 3577.0 3898.0 3904.0 4797.0 
1725.0 1752.0 2225.0 2230.0 2387.0 2409.0 2484.0 2494.0 2503.0 3108.0 3200.0 3667.0 3763.0 3862.0 4183.0 4184.0 5261.0 
32.0 316.0 1385.0 2149.0 2164.0 2389.0 2442.0 2806.0 2836.0 2901.0 2917.0 2918.0 3519.0 3526.0 3937.0 4026.0 4120.0 
17.0 252.0 301.0 744.0 765.0 840.0 853.0 861.0 1458.0 1460.0 1730.0 1766.0 1966.0 2025.0 2089.0 2123.0 3141.0 
23.0 713.0 816.0 820.0 828.0 830.0 1373.0 1374.0 1650.0 1673.0 1851.0 2092.0 3141.0 3333.0 3456.0 3467.0 4337.0 
17.0 121.0 124.0 135.0 716.0 720.0 760.0 769.0 1019.0 1035.0 1169.0 1392.0 2532.0 2695.0 2848.0 2851.0 3726.0 
103.0 117.0 213.0 220.0 760.0 816.0 825.0 848.0 1024.0 1029.0 1284.0 1478.0 2506.0 2546.0 2863.0 2901.0 3901.0 
87.0 1196.0 1203.0 1217.0 1303.0 1309.0 1911.0 1942.0 1952.0 2001.0 2212.0 2256.0 3691.0 3781.0 4099.0 4141.0 5031.0 
26.0 354.0 1595.0 2164.0 2179.0 2434.0 2440.0 2822.0 2836.0 2911.0 2928.0 2958.0 3533.0 3622.0 3959.0 3986.0 4058.0 

