213.0 279.0 965.0 2007.0 2027.0 2076.0 2081.0 2326.0 2337.0 3195.0 3196.0 3245.0 3259.0 3266.0 3772.0 3872.0 4351.0 
227.0 2069.0 2092.0 2141.0 2144.0 2236.0 2386.0 3285.0 3296.0 3313.0 3325.0 3416.0 3805.0 3873.0 3947.0 5003.0 6152.0 
737.0 809.0 1864.0 1884.0 1937.0 1947.0 2181.0 2183.0 3070.0 3080.0 3108.0 3664.0 3764.0 3906.0 4204.0 4868.0 5070.0 
1189.0 1237.0 1244.0 1312.0 1558.0 1561.0 2414.0 2455.0 2505.0 2588.0 2946.0 3064.0 3079.0 3274.0 3544.0 4268.0 4501.0 
668.0 814.0 868.0 1254.0 1276.0 1325.0 1326.0 1571.0 1574.0 2425.0 2474.0 2478.0 2484.0 2486.0 3001.0 3095.0 3578.0 
231.0 813.0 1261.0 1282.0 1332.0 1337.0 1577.0 1577.0 2446.0 2464.0 2503.0 3115.0 3161.0 3242.0 3599.0 4205.0 4413.0 
74.0 75.0 144.0 393.0 394.0 1169.0 1259.0 1340.0 1342.0 1397.0 1800.0 1861.0 1895.0 1938.0 3019.0 3179.0 3232.0 
71.0 90.0 142.0 260.0 389.0 1130.0 1294.0 1304.0 1321.0 1387.0 1752.0 1844.0 1892.0 1905.0 2405.0 3038.0 3241.0 
297.0 328.0 349.0 402.0 654.0 1537.0 1541.0 1544.0 1556.0 1559.0 2088.0 2126.0 2148.0 2170.0 2632.0 3276.0 3480.0 
180.0 1923.0 2030.0 2053.0 2100.0 2105.0 2357.0 3195.0 3222.0 3300.0 3421.0 3432.0 3737.0 3852.0 3870.0 4941.0 5138.0 
71.0 274.0 719.0 1821.0 1844.0 1897.0 1898.0 2138.0 2142.0 2984.0 3047.0 3050.0 3065.0 3147.0 3657.0 3849.0 4170.0 
1123.0 1192.0 1209.0 1265.0 1340.0 1511.0 2383.0 2442.0 2451.0 2598.0 2943.0 2975.0 2993.0 3013.0 3561.0 4158.0 4367.0 
207.0 800.0 1244.0 1264.0 1315.0 1315.0 1561.0 1563.0 2433.0 2439.0 2487.0 2942.0 3033.0 3045.0 3550.0 4146.0 4351.0 
21.0 71.0 91.0 342.0 383.0 1190.0 1239.0 1273.0 1365.0 1465.0 1757.0 1835.0 1843.0 1863.0 2340.0 2924.0 3151.0 
316.0 336.0 386.0 389.0 626.0 1518.0 1542.0 1550.0 1561.0 1718.0 2137.0 2139.0 2247.0 2274.0 2407.0 3259.0 3462.0 

