806.0 850.0 921.0 1608.0 2124.0 2143.0 2195.0 2199.0 2446.0 2479.0 3319.0 3890.0 3920.0 3994.0 4189.0 5072.0 5144.0 
833.0 872.0 945.0 1732.0 2088.0 2107.0 2159.0 2162.0 2402.0 2412.0 3233.0 3875.0 3940.0 3956.0 4189.0 5066.0 5140.0 
69.0 85.0 730.0 1849.0 1867.0 1922.0 1929.0 2175.0 2205.0 3066.0 3488.0 3599.0 3694.0 3751.0 3886.0 4396.0 6672.0 
1164.0 1242.0 1263.0 1318.0 1562.0 1599.0 2544.0 2597.0 2848.0 2958.0 3028.0 3086.0 3308.0 3770.0 4214.0 4286.0 6251.0 
114.0 225.0 929.0 1227.0 1248.0 1292.0 1302.0 1306.0 1542.0 1545.0 2413.0 2978.0 3054.0 3125.0 3268.0 4171.0 4238.0 
116.0 230.0 854.0 918.0 1310.0 1332.0 1382.0 1384.0 1622.0 1667.0 2500.0 3108.0 3208.0 3344.0 3415.0 4246.0 4313.0 
71.0 90.0 145.0 381.0 389.0 1171.0 1273.0 1307.0 1770.0 1770.0 1835.0 1881.0 1967.0 2892.0 2976.0 3051.0 4925.0 
72.0 93.0 152.0 388.0 413.0 1203.0 1239.0 1453.0 1727.0 1838.0 1840.0 1918.0 2134.0 2855.0 3112.0 3181.0 5087.0 
27.0 316.0 386.0 388.0 732.0 1530.0 1576.0 1950.0 2064.0 2090.0 2180.0 2190.0 2360.0 3028.0 3226.0 3295.0 5191.0 
15.0 88.0 659.0 1764.0 1787.0 1836.0 1838.0 2083.0 2087.0 3141.0 3393.0 3505.0 3634.0 3666.0 3829.0 4471.0 6751.0 
799.0 1772.0 1823.0 1842.0 1895.0 2137.0 2146.0 2985.0 3200.0 3514.0 3573.0 3636.0 3751.0 4595.0 4738.0 4809.0 6750.0 
661.0 665.0 739.0 1177.0 1199.0 1251.0 1252.0 1494.0 1504.0 2393.0 2814.0 2925.0 3019.0 3054.0 3213.0 3944.0 5653.0 
794.0 1174.0 1242.0 1258.0 1314.0 1556.0 1562.0 2452.0 2623.0 2865.0 2985.0 3122.0 3266.0 3996.0 4248.0 4317.0 7876.0 
15.0 91.0 92.0 318.0 323.0 1219.0 1235.0 1646.0 1761.0 1909.0 2043.0 2049.0 2086.0 2774.0 2989.0 3060.0 6102.0 
28.0 320.0 362.0 432.0 439.0 1549.0 1613.0 2113.0 2177.0 2232.0 2237.0 2367.0 2433.0 3190.0 3334.0 3402.0 4860.0 

