204.0 219.0 275.0 403.0 864.0 874.0 876.0 882.0 926.0 1044.0 1572.0 2002.0 2047.0 2053.0 2152.0 2187.0 3445.0 
224.0 243.0 293.0 417.0 815.0 849.0 886.0 895.0 1065.0 1456.0 1561.0 1937.0 1938.0 2017.0 2028.0 2425.0 3385.0 
804.0 820.0 1465.0 1483.0 1532.0 1670.0 1816.0 1841.0 2131.0 2135.0 2209.0 2699.0 3171.0 3190.0 3234.0 3392.0 4656.0 
745.0 762.0 815.0 924.0 1080.0 1184.0 1404.0 1410.0 1414.0 1422.0 1488.0 2122.0 2455.0 2492.0 2584.0 2965.0 3954.0 
209.0 755.0 775.0 824.0 963.0 1098.0 1416.0 1416.0 1419.0 1436.0 1986.0 2131.0 2489.0 2563.0 2587.0 2661.0 2668.0 
679.0 1115.0 1181.0 1276.0 1320.0 1464.0 1780.0 1787.0 1865.0 1957.0 2349.0 2586.0 2824.0 2842.0 3041.0 3126.0 4388.0 
259.0 1732.0 1746.0 1949.0 2050.0 2402.0 2406.0 2410.0 2475.0 2481.0 2966.0 3013.0 3118.0 3464.0 3507.0 3572.0 4934.0 
1185.0 2041.0 2875.0 2896.0 2944.0 3129.0 3532.0 3555.0 3556.0 3617.0 3623.0 4241.0 4584.0 4646.0 4675.0 4800.0 6115.0 
1396.0 1402.0 2182.0 2206.0 2255.0 2402.0 2840.0 2847.0 2847.0 3419.0 3470.0 3654.0 3892.0 3893.0 3972.0 4037.0 4086.0 
12.0 80.0 244.0 298.0 671.0 673.0 753.0 774.0 860.0 1251.0 1477.0 1703.0 1739.0 1776.0 1846.0 1932.0 3220.0 
69.0 85.0 293.0 731.0 736.0 746.0 751.0 814.0 1303.0 1338.0 1444.0 1777.0 1792.0 1836.0 1912.0 2010.0 3307.0 
13.0 742.0 760.0 810.0 816.0 841.0 979.0 1195.0 1404.0 1415.0 1485.0 1976.0 2456.0 2473.0 2539.0 2675.0 4539.0 
204.0 746.0 763.0 812.0 1015.0 1019.0 1381.0 1404.0 1411.0 1416.0 1978.0 2116.0 2438.0 2454.0 2535.0 2570.0 2670.0 
1276.0 1807.0 1819.0 1884.0 2089.0 2090.0 2479.0 2499.0 2566.0 2579.0 3049.0 3282.0 3526.0 3549.0 3671.0 3765.0 5052.0 
262.0 1930.0 1945.0 2202.0 2206.0 2241.0 2586.0 2592.0 2606.0 2682.0 2699.0 3171.0 3304.0 3660.0 3720.0 3754.0 5139.0 

