99.0 236.0 303.0 378.0 406.0 2161.0 2183.0 2233.0 2245.0 2321.0 3389.0 3397.0 3414.0 3500.0 3513.0 3517.0 4723.0 
81.0 277.0 301.0 349.0 363.0 2061.0 2084.0 2134.0 2144.0 2300.0 3254.0 3276.0 3284.0 3360.0 3369.0 3457.0 4594.0 
42.0 78.0 109.0 324.0 353.0 1864.0 1887.0 1936.0 1939.0 2018.0 3067.0 3104.0 3125.0 3206.0 3220.0 3272.0 4480.0 
1184.0 1213.0 1224.0 1241.0 2445.0 2475.0 2495.0 2581.0 2589.0 3014.0 3038.0 3073.0 3266.0 3299.0 3304.0 3840.0 5008.0 
131.0 153.0 240.0 249.0 1207.0 1209.0 1287.0 1296.0 1467.0 2592.0 2976.0 3011.0 3051.0 3219.0 3253.0 3288.0 4934.0 
114.0 150.0 228.0 230.0 1316.0 1349.0 1426.0 1427.0 1458.0 2574.0 3191.0 3230.0 3252.0 3412.0 3473.0 3504.0 5200.0 
41.0 77.0 93.0 1170.0 1246.0 1269.0 1289.0 1353.0 1364.0 1922.0 1932.0 1940.0 1958.0 2169.0 2208.0 2575.0 3913.0 
41.0 73.0 95.0 1207.0 1311.0 1333.0 1415.0 1428.0 1451.0 1843.0 1865.0 1896.0 1939.0 2081.0 2138.0 2692.0 3771.0 
2239.0 2260.0 2315.0 2338.0 2466.0 2553.0 4009.0 4030.0 4090.0 4094.0 5225.0 5228.0 5240.0 5272.0 5334.0 5349.0 6592.0 
32.0 127.0 134.0 244.0 296.0 1872.0 1905.0 1943.0 1957.0 1958.0 3073.0 3092.0 3108.0 3112.0 3202.0 3209.0 4447.0 
25.0 97.0 113.0 345.0 377.0 1825.0 1850.0 1896.0 1907.0 2059.0 3040.0 3205.0 3230.0 3235.0 3310.0 3326.0 4517.0 
26.0 109.0 128.0 153.0 1398.0 1399.0 1423.0 1471.0 1476.0 2634.0 3184.0 3209.0 3224.0 3419.0 3466.0 3480.0 5122.0 
109.0 123.0 206.0 224.0 1364.0 1427.0 1434.0 1440.0 1442.0 2609.0 3137.0 3155.0 3182.0 3211.0 3371.0 3417.0 5075.0 
25.0 101.0 103.0 1228.0 1234.0 1243.0 1249.0 1337.0 1368.0 1811.0 1831.0 1847.0 1854.0 2046.0 2093.0 2578.0 3791.0 
1388.0 1406.0 1496.0 1507.0 1513.0 2592.0 2625.0 2698.0 2699.0 4030.0 4445.0 4473.0 4486.0 4509.0 4717.0 5242.0 6509.0 

