96.0 216.0 233.0 290.0 877.0 886.0 893.0 987.0 1352.0 1449.0 1582.0 1931.0 1932.0 2001.0 2116.0 2152.0 2373.0 
101.0 229.0 250.0 301.0 886.0 900.0 903.0 971.0 1009.0 1463.0 1691.0 1920.0 1957.0 1999.0 2058.0 2172.0 2187.0 
713.0 718.0 815.0 840.0 1455.0 1471.0 1553.0 1717.0 1729.0 2003.0 2034.0 2132.0 2201.0 3179.0 3202.0 3370.0 3400.0 
101.0 132.0 216.0 754.0 776.0 811.0 820.0 1015.0 1024.0 1221.0 1442.0 1497.0 1512.0 2472.0 2472.0 2502.0 2673.0 
669.0 685.0 740.0 936.0 940.0 1181.0 1326.0 1339.0 1349.0 1411.0 1442.0 1901.0 2038.0 2458.0 2463.0 2598.0 2647.0 
112.0 132.0 223.0 770.0 792.0 823.0 834.0 1031.0 1041.0 1282.0 1437.0 1457.0 1512.0 2503.0 2556.0 2692.0 2697.0 
14.0 1161.0 1734.0 1757.0 1806.0 1995.0 2006.0 2394.0 2411.0 2478.0 2509.0 2969.0 3106.0 3502.0 3697.0 3706.0 3800.0 
14.0 1184.0 2807.0 2827.0 2876.0 3078.0 3080.0 3465.0 3481.0 3554.0 3602.0 4049.0 4177.0 4555.0 4579.0 4710.0 4812.0 
1422.0 1922.0 2070.0 2186.0 2197.0 2230.0 2582.0 2593.0 2599.0 2696.0 3155.0 3289.0 3638.0 3698.0 3728.0 3848.0 3905.0 
16.0 92.0 279.0 678.0 694.0 743.0 774.0 793.0 1236.0 1250.0 1389.0 1731.0 1751.0 1928.0 1989.0 1995.0 2038.0 
69.0 86.0 324.0 344.0 730.0 741.0 749.0 816.0 854.0 1305.0 1440.0 1775.0 1786.0 1818.0 1837.0 1973.0 2229.0 
12.0 113.0 131.0 714.0 755.0 777.0 826.0 1020.0 1028.0 1197.0 1341.0 1425.0 1498.0 2487.0 2507.0 2528.0 2714.0 
744.0 748.0 811.0 1005.0 1016.0 1402.0 1420.0 1508.0 1517.0 1562.0 1975.0 2113.0 2456.0 2489.0 2508.0 2542.0 2745.0 
1246.0 1302.0 1319.0 1419.0 1767.0 1782.0 1836.0 2015.0 2036.0 2039.0 2430.0 2510.0 2643.0 3457.0 3506.0 3515.0 3710.0 
1322.0 1366.0 1467.0 1483.0 2000.0 2028.0 2053.0 2099.0 2295.0 2302.0 2526.0 2692.0 2774.0 3720.0 3759.0 3957.0 4033.0 

