897.0 2112.0 2145.0 2222.0 2224.0 3349.0 3813.0 3914.0 3983.0 4021.0 4048.0 4178.0 4523.0 4556.0 4720.0 5113.0 7746.0 
908.0 948.0 2121.0 2143.0 2193.0 2194.0 3326.0 3346.0 3749.0 3989.0 4052.0 4168.0 4407.0 4464.0 4991.0 5092.0 7424.0 
816.0 1743.0 2079.0 2095.0 2152.0 3264.0 3303.0 3863.0 3977.0 4078.0 4146.0 4523.0 4577.0 4992.0 5188.0 5398.0 7728.0 
17.0 1249.0 1272.0 1319.0 1324.0 1800.0 2399.0 2472.0 2909.0 3022.0 3133.0 3138.0 3569.0 3622.0 4149.0 4273.0 6742.0 
845.0 1245.0 1250.0 1323.0 1323.0 2401.0 3047.0 3068.0 3070.0 3126.0 3146.0 3312.0 3707.0 3850.0 3907.0 4412.0 6621.0 
723.0 1181.0 1396.0 1414.0 1469.0 2577.0 2636.0 3030.0 3295.0 3394.0 3465.0 3740.0 3778.0 4002.0 4323.0 4374.0 6728.0 
70.0 86.0 142.0 1152.0 1219.0 1469.0 1811.0 1931.0 1940.0 1952.0 1975.0 2125.0 2142.0 2493.0 2678.0 3051.0 5043.0 
77.0 91.0 147.0 1181.0 1226.0 1282.0 1681.0 1762.0 1975.0 2056.0 2111.0 2341.0 2396.0 2924.0 3011.0 3166.0 5319.0 
1936.0 2001.0 2595.0 3254.0 3729.0 3778.0 3795.0 3847.0 3906.0 5017.0 5078.0 5593.0 5642.0 5658.0 5880.0 6394.0 6766.0 
658.0 1318.0 1367.0 1758.0 1768.0 1785.0 1839.0 2005.0 2932.0 3128.0 3615.0 3627.0 3659.0 3803.0 4382.0 4549.0 4615.0 
68.0 710.0 1370.0 1848.0 1857.0 1874.0 1931.0 2003.0 3024.0 3079.0 3313.0 3684.0 3729.0 3760.0 3927.0 4485.0 4778.0 
1147.0 1168.0 1220.0 1221.0 2361.0 2750.0 2921.0 2983.0 3048.0 3052.0 3182.0 3494.0 3547.0 3753.0 4083.0 4111.0 6480.0 
17.0 1427.0 1452.0 1499.0 1503.0 1815.0 2614.0 2641.0 3023.0 3217.0 3255.0 3317.0 3683.0 3733.0 4301.0 4367.0 6598.0 
18.0 94.0 95.0 1203.0 1235.0 1626.0 1855.0 1893.0 1912.0 2034.0 2123.0 2287.0 2339.0 2605.0 2810.0 2971.0 5200.0 
1356.0 1958.0 1992.0 2019.0 2484.0 2525.0 2541.0 2595.0 3715.0 3790.0 4350.0 4418.0 4472.0 4600.0 4909.0 5159.0 5369.0 

