326.0 392.0 2011.0 2056.0 2069.0 2266.0 2526.0 3314.0 3648.0 3663.0 3680.0 11682.0 11926.0 12504.0 12548.0 13216.0 13805.0 
235.0 841.0 899.0 902.0 1568.0 2064.0 2134.0 2151.0 2252.0 2264.0 2515.0 3634.0 3679.0 3698.0 3804.0 3873.0 4425.0 
220.0 714.0 723.0 1021.0 1472.0 2032.0 2251.0 2318.0 2335.0 2530.0 2792.0 3911.0 3930.0 3948.0 4010.0 4086.0 4536.0 
20.0 207.0 1188.0 1399.0 1658.0 1739.0 1756.0 2738.0 3655.0 3733.0 3927.0 5040.0 5279.0 5893.0 5925.0 6683.0 7214.0 
116.0 671.0 815.0 1419.0 1677.0 2500.0 3794.0 3864.0 3885.0 4020.0 4277.0 5373.0 5419.0 5438.0 5592.0 5658.0 6079.0 
201.0 217.0 1163.0 1352.0 1610.0 1681.0 1696.0 2679.0 3414.0 3482.0 3898.0 5156.0 5391.0 5991.0 6033.0 6788.0 7333.0 
260.0 516.0 589.0 604.0 1166.0 1183.0 1313.0 1560.0 2279.0 2345.0 2808.0 3905.0 4145.0 4724.0 4770.0 5439.0 6091.0 
76.0 92.0 259.0 520.0 1150.0 1654.0 1672.0 1673.0 1759.0 1825.0 2389.0 3467.0 3710.0 4315.0 4356.0 5110.0 5637.0 
274.0 274.0 343.0 360.0 1333.0 1401.0 1410.0 1419.0 2267.0 2333.0 2572.0 3745.0 3986.0 4600.0 4632.0 5295.0 5952.0 
68.0 297.0 1857.0 1891.0 1908.0 2121.0 2377.0 2986.0 3501.0 3516.0 3641.0 5293.0 5532.0 6163.0 6192.0 6827.0 7518.0 
68.0 213.0 1779.0 1865.0 1883.0 2040.0 2299.0 2930.0 3446.0 3452.0 3468.0 5137.0 5373.0 5975.0 6015.0 6679.0 7344.0 
127.0 713.0 790.0 795.0 1384.0 1653.0 2859.0 2930.0 2947.0 3150.0 3439.0 4527.0 4543.0 4546.0 4624.0 4686.0 5196.0 
20.0 234.0 1196.0 1436.0 1695.0 1772.0 1791.0 2817.0 3717.0 3786.0 3983.0 5176.0 5420.0 5997.0 6041.0 6801.0 7302.0 
19.0 92.0 349.0 613.0 1369.0 1728.0 1746.0 1763.0 1860.0 1928.0 2187.0 3414.0 3653.0 4285.0 4314.0 5039.0 5645.0 
1505.0 1624.0 2218.0 2295.0 2339.0 3189.0 4438.0 4523.0 4545.0 4611.0 4903.0 6008.0 6019.0 6027.0 6200.0 6269.0 6706.0 

