2102.0 2125.0 2172.0 3319.0 3337.0 3349.0 3349.0 3354.0 3471.0 3996.0 4000.0 4079.0 4154.0 4415.0 4749.0 5758.0 5940.0 
513.0 584.0 601.0 1245.0 1328.0 1364.0 1956.0 2457.0 2531.0 2532.0 2555.0 2564.0 3624.0 3630.0 3646.0 5003.0 6037.0 
70.0 87.0 316.0 729.0 822.0 938.0 1626.0 1797.0 1817.0 1931.0 1969.0 2030.0 2986.0 3005.0 3147.0 4527.0 6025.0 
13.0 207.0 1338.0 1395.0 1416.0 1417.0 2640.0 2656.0 2767.0 3300.0 3305.0 3362.0 3370.0 3689.0 5036.0 5401.0 5460.0 
205.0 206.0 1348.0 1419.0 1432.0 1605.0 2497.0 2516.0 2634.0 3157.0 3158.0 3230.0 3318.0 3565.0 4896.0 5080.0 5361.0 
122.0 140.0 721.0 781.0 783.0 851.0 1177.0 1253.0 1363.0 1376.0 2418.0 2423.0 2442.0 2499.0 2698.0 3982.0 5371.0 
75.0 78.0 1129.0 1145.0 1180.0 1279.0 1359.0 1367.0 1788.0 1790.0 1855.0 1860.0 2247.0 2745.0 3711.0 3753.0 4707.0 
258.0 1694.0 1717.0 1791.0 2183.0 2355.0 2361.0 2493.0 3071.0 3487.0 3575.0 3577.0 4651.0 4654.0 4656.0 6054.0 7890.0 
269.0 1938.0 1954.0 2030.0 2358.0 2598.0 2598.0 2729.0 3399.0 3766.0 3920.0 3982.0 5058.0 5086.0 5107.0 6470.0 8003.0 
18.0 79.0 468.0 659.0 662.0 781.0 1365.0 1728.0 1767.0 1831.0 1863.0 1941.0 2943.0 2948.0 2951.0 4355.0 6142.0 
711.0 732.0 809.0 1368.0 1372.0 1438.0 1821.0 1952.0 1982.0 2111.0 3129.0 3166.0 3168.0 3313.0 3336.0 4566.0 6219.0 
14.0 126.0 659.0 661.0 708.0 729.0 1098.0 1152.0 1177.0 1252.0 2321.0 2360.0 2396.0 2471.0 2600.0 3719.0 5727.0 
15.0 209.0 1205.0 1279.0 1284.0 1400.0 2315.0 2329.0 2442.0 2975.0 2979.0 3043.0 3125.0 3421.0 4734.0 5151.0 5579.0 
31.0 81.0 1237.0 1247.0 1252.0 1265.0 1364.0 1396.0 1897.0 1970.0 1979.0 2053.0 2335.0 2643.0 3629.0 3822.0 4325.0 
1395.0 1413.0 1603.0 2582.0 2651.0 2658.0 3688.0 3705.0 3818.0 4349.0 4351.0 4418.0 4424.0 4818.0 6063.0 6315.0 6884.0 

