840.0 942.0 943.0 1582.0 1686.0 1737.0 1763.0 2032.0 2164.0 2447.0 2460.0 3500.0 3512.0 3608.0 3640.0 4296.0 5011.0 
236.0 312.0 382.0 814.0 1002.0 1032.0 1054.0 1139.0 1774.0 2012.0 2029.0 2076.0 2093.0 2247.0 2311.0 2453.0 3707.0 
72.0 142.0 428.0 809.0 852.0 913.0 933.0 1016.0 1657.0 1847.0 1858.0 1944.0 1994.0 2142.0 2160.0 2659.0 3359.0 
18.0 110.0 743.0 744.0 794.0 814.0 1016.0 1088.0 1226.0 1491.0 1511.0 2667.0 2713.0 2807.0 2820.0 3342.0 4080.0 
1375.0 2770.0 3299.0 3363.0 3367.0 3652.0 4138.0 4156.0 4171.0 4251.0 4982.0 5063.0 5139.0 5145.0 5161.0 5204.0 5871.0 
719.0 1106.0 1175.0 1395.0 1462.0 1851.0 1868.0 1888.0 1962.0 2544.0 2596.0 2772.0 2893.0 2894.0 2945.0 2960.0 3700.0 
17.0 1130.0 2017.0 2090.0 2159.0 2281.0 2758.0 2811.0 2830.0 2923.0 3555.0 3864.0 3873.0 3981.0 4059.0 4517.0 5638.0 
15.0 1272.0 1779.0 1849.0 1916.0 2307.0 2539.0 2677.0 2699.0 2790.0 3421.0 3624.0 3730.0 3756.0 3814.0 4554.0 5166.0 
3125.0 3364.0 3437.0 3509.0 3945.0 4160.0 4179.0 4184.0 4257.0 4903.0 5140.0 5156.0 5197.0 5199.0 5402.0 5614.0 6802.0 
709.0 784.0 787.0 1528.0 1579.0 1603.0 1604.0 1869.0 2017.0 2199.0 2387.0 3371.0 3387.0 3447.0 3514.0 4089.0 4887.0 
67.0 134.0 710.0 736.0 793.0 813.0 903.0 1236.0 1535.0 1781.0 1794.0 1795.0 1956.0 2014.0 2056.0 3476.0 3615.0 
103.0 118.0 752.0 861.0 890.0 910.0 931.0 1343.0 1615.0 1622.0 2092.0 2696.0 2712.0 2745.0 2812.0 4225.0 4340.0 
23.0 104.0 743.0 767.0 842.0 923.0 1043.0 1264.0 1285.0 1522.0 1635.0 2684.0 2732.0 2937.0 2953.0 3530.0 4125.0 
1847.0 1916.0 1983.0 2307.0 2566.0 2659.0 2674.0 2694.0 2761.0 3404.0 3688.0 3693.0 3787.0 3803.0 3853.0 4554.0 5253.0 
1395.0 1599.0 1978.0 2036.0 2046.0 2368.0 2722.0 2737.0 2757.0 2835.0 3467.0 3763.0 3782.0 3806.0 3823.0 3861.0 4585.0 

