217.0 238.0 284.0 836.0 885.0 898.0 900.0 984.0 1184.0 1761.0 1765.0 2105.0 2125.0 2198.0 2199.0 2443.0 2469.0 
488.0 880.0 899.0 1567.0 1652.0 1712.0 1802.0 2125.0 2229.0 2230.0 2280.0 2354.0 2360.0 2494.0 2511.0 2597.0 2622.0 
391.0 727.0 750.0 1413.0 1420.0 1563.0 1645.0 2072.0 2074.0 2115.0 2134.0 2163.0 2188.0 2190.0 2361.0 2434.0 2460.0 
796.0 870.0 878.0 1113.0 1524.0 1538.0 1538.0 1552.0 1614.0 2268.0 2416.0 2766.0 2839.0 2845.0 2921.0 3083.0 3116.0 
21.0 694.0 718.0 749.0 778.0 867.0 1237.0 1304.0 1399.0 1443.0 1445.0 1473.0 1478.0 1540.0 1544.0 1715.0 1747.0 
20.0 668.0 669.0 720.0 845.0 1036.0 1077.0 1235.0 1333.0 1375.0 1416.0 1417.0 1446.0 1448.0 1512.0 1695.0 1721.0 
18.0 79.0 92.0 295.0 319.0 1294.0 1315.0 1962.0 1964.0 2036.0 2106.0 2276.0 2326.0 2621.0 2707.0 2710.0 2904.0 
22.0 71.0 89.0 256.0 281.0 1307.0 1377.0 1974.0 1978.0 2105.0 2123.0 2383.0 2396.0 2635.0 2639.0 2815.0 2919.0 
27.0 303.0 321.0 349.0 367.0 1581.0 1583.0 2245.0 2249.0 2298.0 2308.0 2541.0 2643.0 2908.0 2910.0 2994.0 3095.0 
13.0 66.0 357.0 667.0 672.0 684.0 742.0 762.0 966.0 1402.0 1656.0 1901.0 2071.0 2144.0 2151.0 2383.0 2409.0 
65.0 75.0 657.0 718.0 723.0 726.0 735.0 795.0 918.0 1456.0 1690.0 1940.0 2118.0 2190.0 2191.0 2431.0 2455.0 
24.0 664.0 678.0 805.0 821.0 1337.0 1358.0 1422.0 1600.0 2072.0 2306.0 2553.0 2576.0 2647.0 2655.0 2898.0 2926.0 
850.0 868.0 920.0 1234.0 1516.0 1530.0 1535.0 1610.0 1717.0 2260.0 2485.0 2735.0 2915.0 2988.0 2995.0 3236.0 3261.0 
22.0 78.0 79.0 369.0 401.0 1234.0 1235.0 1903.0 1955.0 1982.0 2040.0 2187.0 2339.0 2643.0 2643.0 2647.0 2836.0 
21.0 256.0 258.0 311.0 329.0 1526.0 1571.0 2234.0 2325.0 2344.0 2391.0 2485.0 2595.0 2891.0 2894.0 3067.0 3192.0 

