2016.0 2037.0 2087.0 2102.0 2408.0 3151.0 3157.0 3232.0 3233.0 3269.0 3270.0 3901.0 3904.0 3911.0 3957.0 4157.0 4488.0 
891.0 913.0 998.0 1115.0 1117.0 1789.0 1789.0 1838.0 2167.0 2187.0 2244.0 2258.0 2486.0 2562.0 3301.0 4217.0 4351.0 
83.0 738.0 759.0 869.0 982.0 982.0 1430.0 1907.0 2060.0 2077.0 2128.0 2143.0 2196.0 2441.0 3146.0 3948.0 4124.0 
26.0 101.0 218.0 233.0 903.0 946.0 962.0 974.0 1383.0 1384.0 1401.0 1453.0 1468.0 1770.0 2498.0 3293.0 3426.0 
24.0 131.0 234.0 237.0 694.0 752.0 753.0 1139.0 1154.0 1155.0 1206.0 1224.0 1482.0 1527.0 2397.0 3026.0 3212.0 
19.0 132.0 236.0 239.0 726.0 754.0 780.0 1121.0 1172.0 1189.0 1251.0 1271.0 1441.0 1573.0 2287.0 3080.0 3249.0 
22.0 74.0 91.0 388.0 1113.0 1157.0 1162.0 1208.0 1258.0 1264.0 1877.0 1910.0 1925.0 1971.0 2027.0 2269.0 2503.0 
17.0 71.0 86.0 427.0 1139.0 1153.0 1181.0 1255.0 1256.0 1262.0 1812.0 1853.0 1922.0 1954.0 2083.0 2236.0 2646.0 
1327.0 1409.0 1421.0 1440.0 1447.0 2107.0 2112.0 2172.0 2387.0 2460.0 2475.0 2529.0 2546.0 2888.0 3552.0 4354.0 4511.0 
70.0 685.0 708.0 805.0 909.0 912.0 1382.0 1858.0 1879.0 1927.0 1927.0 1943.0 2107.0 2244.0 3115.0 3752.0 3932.0 
1830.0 1840.0 1912.0 1915.0 2002.0 3028.0 3054.0 3069.0 3070.0 3174.0 3182.0 3721.0 3742.0 3786.0 3956.0 4200.0 4390.0 
112.0 113.0 118.0 119.0 788.0 841.0 891.0 1090.0 1109.0 1151.0 1158.0 1177.0 1349.0 1479.0 2376.0 3112.0 3243.0 
18.0 103.0 217.0 234.0 920.0 940.0 974.0 981.0 1352.0 1367.0 1399.0 1422.0 1440.0 1741.0 2488.0 3268.0 3376.0 
21.0 94.0 95.0 320.0 1193.0 1257.0 1353.0 1405.0 1457.0 1467.0 1829.0 2016.0 2159.0 2220.0 2570.0 2821.0 2917.0 
318.0 322.0 396.0 396.0 1514.0 1534.0 1572.0 1636.0 1644.0 1687.0 1984.0 2241.0 2358.0 2383.0 2468.0 2720.0 2874.0 

