262.0 353.0 368.0 439.0 834.0 1263.0 1495.0 2155.0 2340.0 2360.0 2449.0 2656.0 3696.0 3754.0 3812.0 4633.0 4938.0 
839.0 871.0 951.0 2034.0 2232.0 2592.0 4245.0 4311.0 4450.0 4517.0 5141.0 5251.0 5621.0 5749.0 6307.0 6482.0 6801.0 
20.0 68.0 93.0 268.0 709.0 817.0 1304.0 1812.0 1995.0 2020.0 2021.0 2341.0 3337.0 3391.0 3449.0 4255.0 4529.0 
742.0 814.0 830.0 900.0 921.0 1403.0 1625.0 2662.0 2806.0 2839.0 2840.0 3153.0 4162.0 4280.0 4385.0 5094.0 5561.0 
134.0 248.0 1162.0 1244.0 1414.0 1729.0 3411.0 3433.0 3474.0 3500.0 3682.0 4120.0 4226.0 4710.0 5387.0 5395.0 5741.0 
117.0 228.0 1005.0 1383.0 1463.0 1774.0 3474.0 3501.0 3548.0 3579.0 3735.0 4181.0 4303.0 4781.0 5459.0 5491.0 5811.0 
1187.0 1928.0 1982.0 1997.0 2072.0 2256.0 2568.0 2799.0 2882.0 3303.0 3823.0 3978.0 5324.0 5366.0 5437.0 6211.0 6666.0 
1314.0 1865.0 2439.0 2562.0 2705.0 3035.0 4657.0 4687.0 4734.0 4758.0 4956.0 5450.0 5494.0 5990.0 6633.0 6792.0 6946.0 
325.0 1494.0 1549.0 1609.0 1999.0 2065.0 2272.0 2312.0 2381.0 2586.0 2711.0 2790.0 3024.0 3616.0 3961.0 3970.0 4286.0 
68.0 87.0 154.0 370.0 745.0 797.0 1385.0 1910.0 2065.0 2067.0 2175.0 2493.0 3439.0 3447.0 3558.0 4343.0 4617.0 
20.0 68.0 306.0 311.0 731.0 798.0 1540.0 1848.0 1985.0 2006.0 2043.0 2359.0 3414.0 3541.0 3657.0 4264.0 4553.0 
658.0 714.0 728.0 799.0 870.0 1524.0 1891.0 2553.0 2702.0 2712.0 2734.0 3019.0 4084.0 4104.0 4201.0 4972.0 5283.0 
743.0 795.0 814.0 877.0 1092.0 1170.0 1418.0 1526.0 1780.0 2108.0 2618.0 2793.0 4144.0 4257.0 4341.0 5064.0 5524.0 
314.0 1896.0 2219.0 2306.0 2322.0 2388.0 2591.0 3063.0 3118.0 3621.0 4168.0 4314.0 5714.0 5785.0 5901.0 6584.0 6875.0 
323.0 1601.0 1958.0 1967.0 1974.0 2041.0 2245.0 2687.0 2771.0 3277.0 3836.0 3963.0 5301.0 5424.0 5536.0 6230.0 6688.0 

