208.0 859.0 891.0 943.0 1092.0 1690.0 2068.0 2135.0 2282.0 2322.0 2324.0 3393.0 3828.0 3846.0 3851.0 4586.0 5688.0 
2245.0 2504.0 3619.0 3626.0 4196.0 4548.0 4764.0 4792.0 5048.0 5403.0 5435.0 5662.0 6399.0 6571.0 6583.0 6665.0 8420.0 
15.0 1805.0 1865.0 1999.0 3147.0 3346.0 3539.0 3834.0 3891.0 4489.0 4553.0 4692.0 4723.0 4926.0 5722.0 5964.0 7041.0 
225.0 346.0 1260.0 1437.0 1464.0 2193.0 2937.0 3261.0 3377.0 3525.0 3576.0 4612.0 4892.0 5034.0 5050.0 6097.0 6910.0 
1394.0 1658.0 2824.0 3408.0 3432.0 3570.0 3605.0 3696.0 3988.0 4245.0 4531.0 4573.0 4795.0 5220.0 5256.0 5815.0 6811.0 
116.0 220.0 1036.0 1214.0 1241.0 1969.0 2715.0 3053.0 3140.0 3319.0 3348.0 4287.0 4684.0 4812.0 4812.0 5906.0 6695.0 
258.0 1185.0 1648.0 1713.0 1762.0 1765.0 2026.0 2039.0 2353.0 2580.0 2891.0 2925.0 3148.0 3581.0 3625.0 4158.0 5108.0 
358.0 1276.0 1690.0 1936.0 3071.0 3098.0 3102.0 3154.0 3366.0 3921.0 3975.0 4203.0 4868.0 4887.0 4988.0 5203.0 6739.0 
263.0 1399.0 1527.0 1947.0 2298.0 2532.0 2586.0 2830.0 2842.0 3123.0 3167.0 3364.0 4195.0 4390.0 4419.0 4624.0 6477.0 
744.0 1629.0 1880.0 1934.0 1938.0 2062.0 2321.0 2480.0 2516.0 2717.0 3065.0 3674.0 3743.0 3874.0 4075.0 4748.0 5697.0 
21.0 1782.0 2022.0 2064.0 3099.0 3400.0 3534.0 3805.0 3841.0 4263.0 4658.0 4677.0 4697.0 4905.0 5567.0 5897.0 7508.0 
120.0 322.0 923.0 1136.0 1170.0 1829.0 2573.0 2951.0 3033.0 3217.0 3223.0 4123.0 4735.0 4740.0 4763.0 6036.0 6832.0 
745.0 885.0 1137.0 1181.0 1187.0 1399.0 1436.0 1743.0 1771.0 1939.0 2316.0 2806.0 3004.0 3150.0 3210.0 4171.0 5060.0 
1171.0 1220.0 1419.0 2321.0 2529.0 3255.0 3998.0 4339.0 4420.0 4599.0 4650.0 5654.0 6135.0 6172.0 6342.0 7458.0 7998.0 
256.0 1440.0 1526.0 1966.0 1975.0 2185.0 2282.0 2299.0 2625.0 2834.0 3153.0 3185.0 3382.0 3752.0 4370.0 4404.0 5682.0 

