948.0 983.0 1050.0 1067.0 1182.0 1707.0 1711.0 1781.0 1781.0 1913.0 2160.0 2204.0 2385.0 2419.0 3500.0 3774.0 3847.0 
205.0 220.0 295.0 296.0 863.0 868.0 879.0 962.0 969.0 982.0 1980.0 1991.0 2075.0 2098.0 2118.0 2278.0 2376.0 
22.0 74.0 91.0 283.0 733.0 749.0 767.0 834.0 839.0 861.0 1740.0 1837.0 1841.0 1864.0 1983.0 2060.0 2129.0 
20.0 101.0 115.0 230.0 762.0 836.0 844.0 845.0 907.0 1058.0 1167.0 1287.0 1431.0 1516.0 2550.0 2821.0 2886.0 
670.0 686.0 756.0 762.0 975.0 1328.0 1332.0 1430.0 1433.0 1448.0 2339.0 2470.0 2481.0 2576.0 2585.0 2749.0 2847.0 
120.0 137.0 241.0 241.0 782.0 866.0 935.0 940.0 1004.0 1181.0 1205.0 1277.0 1451.0 1541.0 2640.0 2737.0 2963.0 
1139.0 1153.0 1257.0 1258.0 1363.0 1799.0 1865.0 1868.0 1887.0 2132.0 2283.0 2310.0 2555.0 2575.0 3669.0 3806.0 3861.0 
259.0 1129.0 1148.0 1189.0 1202.0 1267.0 1790.0 1800.0 1871.0 1872.0 2212.0 2213.0 2289.0 2544.0 3569.0 3718.0 3829.0 
320.0 2255.0 2274.0 2319.0 2336.0 2737.0 2978.0 2978.0 3081.0 3081.0 3098.0 3101.0 4058.0 4066.0 4067.0 4148.0 4404.0 
21.0 69.0 70.0 344.0 657.0 660.0 761.0 763.0 771.0 868.0 1772.0 1786.0 1790.0 1894.0 1966.0 2074.0 2223.0 
22.0 71.0 91.0 417.0 732.0 738.0 755.0 840.0 841.0 845.0 1828.0 1847.0 1857.0 1868.0 2005.0 2085.0 2094.0 
18.0 118.0 119.0 122.0 656.0 730.0 733.0 746.0 1162.0 1208.0 1304.0 1322.0 1420.0 1581.0 2552.0 2640.0 2707.0 
21.0 106.0 121.0 233.0 768.0 836.0 844.0 851.0 1050.0 1217.0 1347.0 1405.0 1519.0 1605.0 2561.0 2660.0 2836.0 
326.0 1832.0 1857.0 1900.0 1914.0 2561.0 2562.0 2583.0 2663.0 2664.0 2689.0 3235.0 3679.0 3686.0 3689.0 3690.0 3947.0 
260.0 1375.0 1392.0 1426.0 1426.0 1505.0 2037.0 2120.0 2192.0 2194.0 2381.0 2415.0 2484.0 2702.0 3908.0 4036.0 4193.0 

