85.0 220.0 241.0 290.0 523.0 889.0 903.0 1111.0 2074.0 2093.0 2138.0 2139.0 2454.0 2456.0 3245.0 3311.0 3314.0 
103.0 237.0 263.0 318.0 575.0 907.0 926.0 1105.0 2099.0 2116.0 2195.0 2195.0 2507.0 2515.0 3295.0 3346.0 3388.0 
66.0 146.0 159.0 298.0 357.0 724.0 740.0 924.0 1747.0 1764.0 1844.0 1847.0 2160.0 2204.0 2918.0 3020.0 3046.0 
1207.0 1208.0 1284.0 1285.0 1599.0 1640.0 2439.0 2464.0 3018.0 3090.0 3161.0 3168.0 3364.0 3365.0 3847.0 3867.0 4054.0 
19.0 206.0 679.0 689.0 720.0 761.0 943.0 962.0 2523.0 2605.0 2717.0 2731.0 2845.0 2923.0 3901.0 3925.0 3946.0 
20.0 200.0 682.0 693.0 744.0 762.0 958.0 965.0 2566.0 2576.0 2579.0 2612.0 2887.0 2930.0 3735.0 3785.0 3791.0 
24.0 72.0 77.0 389.0 426.0 1174.0 1224.0 1262.0 1764.0 1846.0 1876.0 1916.0 2102.0 2121.0 2483.0 2502.0 2685.0 
21.0 91.0 95.0 410.0 410.0 1203.0 1240.0 1419.0 1808.0 1881.0 1923.0 1949.0 2152.0 2155.0 2601.0 2620.0 2799.0 
329.0 345.0 401.0 420.0 671.0 1359.0 1475.0 1603.0 2150.0 2222.0 2290.0 2290.0 2478.0 2497.0 2885.0 2903.0 3083.0 
27.0 74.0 75.0 251.0 274.0 673.0 688.0 875.0 1866.0 1880.0 1919.0 2200.0 2237.0 2524.0 3053.0 3386.0 3399.0 
109.0 124.0 183.0 464.0 782.0 796.0 985.0 1387.0 1984.0 1998.0 2058.0 2066.0 2381.0 2421.0 3152.0 3213.0 3219.0 
14.0 1174.0 1192.0 1244.0 1259.0 1313.0 1509.0 2565.0 3033.0 3102.0 3169.0 3184.0 3353.0 3375.0 3749.0 3764.0 3945.0 
206.0 229.0 879.0 892.0 957.0 962.0 1156.0 1165.0 2723.0 2738.0 2824.0 2831.0 3144.0 3193.0 3889.0 4002.0 4156.0 
21.0 74.0 90.0 330.0 342.0 1200.0 1217.0 1255.0 1883.0 1957.0 1994.0 2025.0 2215.0 2230.0 2621.0 2638.0 2820.0 
362.0 381.0 434.0 451.0 698.0 1552.0 1589.0 1600.0 2159.0 2230.0 2263.0 2294.0 2486.0 2503.0 2879.0 2897.0 3100.0 

