187.0 860.0 877.0 919.0 1065.0 1715.0 2015.0 2059.0 2083.0 2115.0 2202.0 2272.0 3277.0 3904.0 4164.0 4981.0 5882.0 
227.0 843.0 877.0 2111.0 2141.0 2202.0 3515.0 3536.0 3723.0 4454.0 4654.0 4669.0 4861.0 5390.0 6288.0 6494.0 6752.0 
227.0 804.0 1030.0 1844.0 1860.0 1971.0 3061.0 3080.0 3267.0 4190.0 4220.0 4389.0 4406.0 5096.0 5893.0 6248.0 6509.0 
744.0 795.0 920.0 1203.0 1458.0 1777.0 1797.0 1983.0 2931.0 3031.0 3054.0 3119.0 4211.0 4916.0 5383.0 6231.0 6888.0 
16.0 208.0 854.0 1054.0 1181.0 1221.0 1344.0 1371.0 1759.0 2560.0 2570.0 2866.0 3196.0 3218.0 3469.0 4318.0 5198.0 
20.0 201.0 865.0 1063.0 1167.0 1233.0 1239.0 1341.0 1798.0 2467.0 2697.0 2906.0 3102.0 3259.0 3318.0 4139.0 5109.0 
1158.0 1182.0 1930.0 2320.0 2793.0 2993.0 3176.0 3283.0 3726.0 4475.0 4523.0 4832.0 5146.0 5180.0 5362.0 6211.0 7182.0 
259.0 1164.0 1960.0 1962.0 2057.0 2920.0 2940.0 3118.0 4070.0 4152.0 4186.0 4254.0 5378.0 6282.0 6294.0 7103.0 8312.0 
291.0 1457.0 1982.0 2254.0 2339.0 3192.0 3207.0 3392.0 4439.0 4482.0 4505.0 4528.0 5650.0 6298.0 6517.0 7362.0 8297.0 
181.0 743.0 1023.0 1044.0 1222.0 1535.0 1735.0 1995.0 2205.0 2270.0 2302.0 2358.0 3567.0 4111.0 4391.0 5218.0 6134.0 
900.0 1644.0 1820.0 2066.0 2332.0 2680.0 2694.0 2878.0 3860.0 3920.0 3971.0 4012.0 5129.0 5756.0 6036.0 6882.0 7725.0 
799.0 1039.0 1618.0 2903.0 2925.0 3034.0 4128.0 4146.0 4325.0 5253.0 5309.0 5456.0 5463.0 6180.0 7079.0 7320.0 7578.0 
207.0 208.0 1052.0 1137.0 1169.0 1250.0 1420.0 1599.0 1998.0 2584.0 2795.0 3081.0 3274.0 3431.0 3796.0 4614.0 5253.0 
20.0 1173.0 1235.0 1253.0 1436.0 1860.0 2120.0 2323.0 2393.0 2527.0 2572.0 2973.0 3244.0 3873.0 4041.0 4342.0 4599.0 
2002.0 2219.0 2716.0 3051.0 3840.0 3858.0 5075.0 5091.0 5298.0 6168.0 6235.0 6367.0 6435.0 7083.0 7877.0 8187.0 8543.0 

