217.0 235.0 888.0 915.0 1049.0 1642.0 1644.0 2033.0 2116.0 2140.0 2146.0 3336.0 3339.0 3357.0 4445.0 4470.0 4683.0 
491.0 509.0 1201.0 1216.0 1244.0 2002.0 2011.0 2234.0 2590.0 2651.0 2756.0 3988.0 4000.0 4142.0 5119.0 5143.0 5313.0 
19.0 522.0 710.0 726.0 742.0 1411.0 1494.0 1627.0 1985.0 2101.0 2146.0 3329.0 3344.0 3344.0 4440.0 4480.0 4653.0 
15.0 104.0 1197.0 1244.0 1257.0 1262.0 1486.0 2441.0 2495.0 2620.0 3118.0 3125.0 3225.0 3313.0 3345.0 3721.0 3843.0 
21.0 117.0 691.0 692.0 717.0 724.0 920.0 1216.0 1225.0 1381.0 1436.0 2606.0 2606.0 2637.0 3716.0 3865.0 3946.0 
21.0 146.0 669.0 670.0 739.0 742.0 947.0 1231.0 1244.0 1252.0 1414.0 2454.0 2471.0 2476.0 3589.0 3590.0 3799.0 
16.0 355.0 1150.0 1252.0 1254.0 2504.0 2521.0 3738.0 3875.0 3998.0 4404.0 4409.0 4599.0 4621.0 4693.0 5061.0 5138.0 
18.0 356.0 1132.0 1233.0 1233.0 2555.0 2570.0 3929.0 3954.0 4072.0 4603.0 4680.0 4682.0 4687.0 4907.0 5238.0 5326.0 
271.0 275.0 1367.0 1472.0 1474.0 2589.0 2620.0 3846.0 3872.0 3993.0 4509.0 4594.0 4602.0 4696.0 4781.0 5167.0 5245.0 
24.0 251.0 675.0 695.0 823.0 1414.0 1515.0 1885.0 1908.0 2053.0 2097.0 3290.0 3294.0 3316.0 4422.0 4591.0 4593.0 
21.0 577.0 713.0 722.0 732.0 1399.0 1495.0 1616.0 1948.0 2114.0 2140.0 3353.0 3356.0 3360.0 4441.0 4462.0 4702.0 
112.0 129.0 710.0 806.0 890.0 1203.0 1352.0 1492.0 1516.0 1851.0 2064.0 2715.0 2728.0 2877.0 3824.0 3865.0 4064.0 
15.0 99.0 1222.0 1229.0 1241.0 1253.0 1442.0 2436.0 2560.0 2573.0 3158.0 3164.0 3243.0 3703.0 3967.0 4128.0 4357.0 
16.0 1221.0 1222.0 1222.0 1233.0 1426.0 1556.0 1892.0 2151.0 2233.0 2351.0 2358.0 2569.0 2624.0 2669.0 2768.0 3002.0 
1420.0 1443.0 1568.0 1934.0 1950.0 2163.0 2249.0 2266.0 2653.0 2674.0 2791.0 3879.0 3884.0 3885.0 4988.0 5159.0 5201.0 

