65.0 428.0 449.0 523.0 532.0 810.0 1195.0 1196.0 1196.0 1296.0 1306.0 2306.0 2376.0 2543.0 2588.0 2623.0 2945.0 
80.0 496.0 521.0 563.0 596.0 1259.0 1287.0 1347.0 1361.0 1450.0 1452.0 2550.0 2553.0 2634.0 2649.0 2766.0 3080.0 
36.0 74.0 116.0 471.0 509.0 738.0 741.0 748.0 755.0 839.0 840.0 1823.0 1925.0 1931.0 2147.0 2163.0 2567.0 
21.0 103.0 227.0 231.0 763.0 779.0 833.0 833.0 1245.0 1288.0 1429.0 1439.0 1626.0 1632.0 1633.0 1960.0 2684.0 
19.0 119.0 225.0 226.0 666.0 681.0 733.0 737.0 1182.0 1200.0 1202.0 1206.0 1403.0 1443.0 1449.0 1726.0 2559.0 
15.0 125.0 228.0 229.0 753.0 774.0 821.0 826.0 1203.0 1254.0 1295.0 1372.0 1396.0 1420.0 1531.0 1734.0 2670.0 
22.0 80.0 401.0 1201.0 1217.0 1319.0 1425.0 1426.0 1869.0 1887.0 1936.0 1937.0 2370.0 2611.0 2647.0 3384.0 3800.0 
21.0 83.0 439.0 1184.0 1201.0 1298.0 1400.0 1402.0 1852.0 1871.0 1922.0 1925.0 2378.0 2389.0 2573.0 2635.0 3759.0 
323.0 400.0 401.0 1567.0 1589.0 1698.0 1798.0 1803.0 2237.0 2255.0 2304.0 2306.0 2726.0 2742.0 3018.0 3141.0 4159.0 
20.0 63.0 67.0 481.0 497.0 671.0 675.0 745.0 774.0 848.0 848.0 1833.0 1894.0 1945.0 2056.0 2286.0 2421.0 
24.0 96.0 103.0 422.0 446.0 710.0 766.0 769.0 773.0 864.0 869.0 1893.0 1958.0 1973.0 2125.0 2173.0 2531.0 
112.0 112.0 115.0 127.0 657.0 673.0 725.0 735.0 1161.0 1170.0 1333.0 1348.0 1439.0 1521.0 1529.0 1889.0 2617.0 
29.0 104.0 218.0 222.0 762.0 780.0 832.0 835.0 1249.0 1273.0 1384.0 1385.0 1543.0 1596.0 1617.0 2011.0 2683.0 
74.0 85.0 323.0 1240.0 1258.0 1364.0 1471.0 1477.0 1907.0 1927.0 1974.0 1988.0 2382.0 2397.0 2686.0 2690.0 3832.0 
1377.0 1409.0 1509.0 1610.0 1613.0 2132.0 2149.0 2198.0 2200.0 2571.0 2609.0 2644.0 2646.0 2833.0 2912.0 3155.0 4298.0 

