90.0 835.0 856.0 950.0 957.0 960.0 1493.0 1513.0 1563.0 1565.0 2115.0 2150.0 2164.0 2327.0 2586.0 3294.0 3554.0 
81.0 803.0 820.0 919.0 921.0 922.0 1462.0 1479.0 1532.0 1534.0 2079.0 2114.0 2116.0 2131.0 2372.0 3261.0 3564.0 
31.0 69.0 221.0 733.0 739.0 768.0 833.0 838.0 1537.0 1987.0 2013.0 2016.0 2030.0 2060.0 2250.0 2260.0 3190.0 
19.0 102.0 119.0 218.0 765.0 794.0 836.0 838.0 969.0 1404.0 1414.0 1425.0 1458.0 1475.0 1668.0 2590.0 2815.0 
1185.0 1208.0 1264.0 1280.0 1469.0 2530.0 2649.0 2662.0 2751.0 2754.0 3290.0 3308.0 3357.0 3364.0 3499.0 3978.0 5314.0 
117.0 117.0 220.0 224.0 758.0 774.0 825.0 828.0 915.0 1179.0 1223.0 1241.0 1337.0 1436.0 1461.0 2501.0 2826.0 
26.0 74.0 91.0 287.0 1161.0 1186.0 1274.0 1275.0 1379.0 1385.0 1850.0 1873.0 1921.0 1923.0 2073.0 2594.0 3916.0 
19.0 77.0 96.0 258.0 1136.0 1204.0 1250.0 1252.0 1355.0 1358.0 1808.0 1833.0 1875.0 1885.0 2045.0 2596.0 3861.0 
261.0 275.0 332.0 351.0 1499.0 1574.0 1704.0 1704.0 1808.0 1809.0 2332.0 2351.0 2403.0 2407.0 2543.0 2984.0 4381.0 
22.0 72.0 74.0 664.0 689.0 745.0 849.0 856.0 1500.0 1872.0 1876.0 2039.0 2073.0 2108.0 2127.0 2130.0 3077.0 
23.0 70.0 99.0 759.0 762.0 854.0 863.0 869.0 1601.0 1997.0 2020.0 2138.0 2228.0 2249.0 2258.0 2259.0 3338.0 
15.0 114.0 115.0 120.0 656.0 674.0 726.0 728.0 830.0 1277.0 1278.0 1403.0 1494.0 1513.0 1694.0 2461.0 2728.0 
23.0 102.0 119.0 214.0 760.0 777.0 828.0 835.0 914.0 1376.0 1397.0 1432.0 1453.0 1468.0 1633.0 2562.0 2802.0 
23.0 95.0 96.0 353.0 1218.0 1277.0 1337.0 1340.0 1442.0 1450.0 1992.0 2011.0 2065.0 2066.0 2178.0 2730.0 4081.0 
1977.0 2001.0 2048.0 2127.0 2712.0 2713.0 2737.0 2811.0 2816.0 3557.0 3906.0 3951.0 3955.0 3979.0 3997.0 4214.0 5224.0 

