79.0 415.0 504.0 544.0 612.0 1063.0 1420.0 1443.0 1476.0 1681.0 2014.0 3373.0 3374.0 3484.0 3489.0 3636.0 3751.0 
125.0 472.0 497.0 542.0 725.0 1449.0 1480.0 1539.0 1550.0 1573.0 1592.0 2276.0 3252.0 3306.0 3368.0 3399.0 3462.0 
19.0 78.0 143.0 715.0 728.0 731.0 742.0 797.0 801.0 1234.0 1316.0 1799.0 1812.0 1823.0 1828.0 2014.0 2032.0 
25.0 103.0 106.0 211.0 235.0 745.0 748.0 805.0 902.0 988.0 1023.0 1169.0 1187.0 1244.0 1244.0 1381.0 1398.0 
24.0 122.0 123.0 199.0 224.0 679.0 717.0 722.0 756.0 1135.0 1151.0 1155.0 1219.0 1251.0 1361.0 1432.0 1494.0 
36.0 116.0 124.0 203.0 330.0 680.0 721.0 721.0 1026.0 1127.0 1207.0 1217.0 1245.0 1257.0 1416.0 1417.0 1702.0 
24.0 76.0 77.0 259.0 266.0 1131.0 1171.0 1192.0 1219.0 1259.0 1631.0 1734.0 1765.0 1798.0 1937.0 2294.0 2313.0 
56.0 82.0 111.0 265.0 268.0 1151.0 1151.0 1284.0 1327.0 1729.0 1785.0 1811.0 1951.0 2021.0 2278.0 2577.0 2854.0 
36.0 257.0 263.0 317.0 344.0 1325.0 1390.0 1399.0 1404.0 1519.0 1932.0 2036.0 2048.0 2151.0 2272.0 3257.0 3543.0 
32.0 79.0 90.0 240.0 288.0 664.0 671.0 674.0 681.0 743.0 746.0 1732.0 1738.0 1787.0 1810.0 1908.0 1946.0 
39.0 82.0 93.0 309.0 329.0 710.0 723.0 736.0 740.0 803.0 804.0 1828.0 1831.0 1980.0 1996.0 2039.0 2089.0 
40.0 105.0 112.0 128.0 131.0 660.0 669.0 707.0 713.0 890.0 985.0 1088.0 1154.0 1206.0 1295.0 1361.0 1475.0 
26.0 105.0 106.0 208.0 210.0 765.0 800.0 805.0 986.0 1012.0 1157.0 1169.0 1226.0 1246.0 1338.0 1397.0 1565.0 
23.0 75.0 81.0 318.0 319.0 1148.0 1173.0 1232.0 1244.0 1247.0 1252.0 1792.0 1816.0 1822.0 1877.0 2324.0 2653.0 
26.0 260.0 261.0 322.0 353.0 1306.0 1402.0 1517.0 1526.0 1574.0 1618.0 1980.0 1998.0 2174.0 2226.0 3399.0 3654.0 

