110.0 394.0 450.0 458.0 768.0 914.0 1033.0 1465.0 1576.0 1602.0 1654.0 3366.0 3429.0 3440.0 3503.0 3526.0 3823.0 
119.0 438.0 464.0 584.0 736.0 957.0 1007.0 1255.0 1289.0 1390.0 1820.0 2454.0 3338.0 3512.0 3573.0 3593.0 3619.0 
22.0 70.0 95.0 306.0 310.0 731.0 732.0 733.0 733.0 801.0 802.0 1788.0 1791.0 1813.0 1843.0 1975.0 1997.0 
80.0 102.0 119.0 205.0 208.0 743.0 746.0 793.0 799.0 979.0 1005.0 1168.0 1185.0 1226.0 1245.0 1381.0 1385.0 
22.0 117.0 142.0 204.0 217.0 663.0 691.0 720.0 720.0 929.0 1137.0 1166.0 1196.0 1241.0 1353.0 1359.0 1371.0 
36.0 137.0 137.0 201.0 206.0 683.0 814.0 816.0 943.0 1047.0 1104.0 1175.0 1227.0 1235.0 1377.0 1392.0 1597.0 
16.0 70.0 76.0 354.0 415.0 1137.0 1166.0 1191.0 1204.0 1282.0 1626.0 1692.0 1735.0 1763.0 1766.0 2341.0 2359.0 
28.0 72.0 79.0 365.0 406.0 1090.0 1190.0 1198.0 1276.0 1319.0 1712.0 1782.0 1792.0 1937.0 1946.0 2287.0 2328.0 
27.0 279.0 325.0 368.0 409.0 1326.0 1357.0 1377.0 1389.0 1404.0 1936.0 1977.0 1978.0 2143.0 2196.0 2256.0 3154.0 
40.0 89.0 91.0 286.0 293.0 683.0 684.0 706.0 720.0 776.0 778.0 1733.0 1768.0 1785.0 1810.0 1949.0 1951.0 
33.0 75.0 77.0 304.0 313.0 733.0 737.0 799.0 802.0 830.0 834.0 1763.0 1785.0 1822.0 1845.0 1952.0 1994.0 
27.0 108.0 112.0 126.0 129.0 661.0 670.0 712.0 713.0 966.0 1113.0 1133.0 1135.0 1310.0 1352.0 1354.0 1362.0 
24.0 105.0 105.0 207.0 216.0 748.0 818.0 818.0 998.0 1030.0 1137.0 1174.0 1185.0 1222.0 1251.0 1381.0 1423.0 
20.0 72.0 76.0 328.0 329.0 1167.0 1205.0 1217.0 1243.0 1252.0 1283.0 1781.0 1785.0 1837.0 1861.0 2101.0 2683.0 
21.0 255.0 257.0 328.0 330.0 1341.0 1372.0 1380.0 1394.0 1397.0 1417.0 1942.0 1952.0 1975.0 2178.0 2474.0 3697.0 

