105.0 327.0 379.0 555.0 676.0 932.0 1464.0 1504.0 1573.0 1621.0 1918.0 3204.0 3392.0 3436.0 3452.0 3489.0 3708.0 
132.0 366.0 518.0 636.0 727.0 1015.0 1500.0 1501.0 1538.0 1566.0 1657.0 2358.0 3229.0 3365.0 3405.0 3447.0 3458.0 
57.0 71.0 135.0 297.0 307.0 715.0 731.0 739.0 812.0 813.0 814.0 1785.0 1820.0 1827.0 1840.0 1977.0 2253.0 
26.0 104.0 105.0 206.0 208.0 744.0 746.0 798.0 799.0 1025.0 1040.0 1166.0 1170.0 1222.0 1243.0 1384.0 1396.0 
28.0 118.0 122.0 202.0 233.0 669.0 684.0 719.0 721.0 1085.0 1151.0 1215.0 1230.0 1237.0 1264.0 1367.0 1375.0 
25.0 116.0 117.0 207.0 324.0 676.0 808.0 829.0 966.0 1107.0 1189.0 1202.0 1217.0 1253.0 1274.0 1350.0 1571.0 
17.0 78.0 88.0 260.0 287.0 1134.0 1160.0 1166.0 1202.0 1218.0 1661.0 1692.0 1769.0 1783.0 1936.0 2276.0 3268.0 
20.0 72.0 74.0 263.0 264.0 1183.0 1232.0 1282.0 1314.0 1736.0 1784.0 1805.0 1838.0 1973.0 2270.0 2304.0 2848.0 
28.0 315.0 324.0 356.0 394.0 1324.0 1366.0 1428.0 1431.0 1582.0 1961.0 1999.0 2200.0 2228.0 2246.0 2287.0 3127.0 
28.0 68.0 73.0 254.0 281.0 660.0 667.0 672.0 673.0 744.0 746.0 1737.0 1757.0 1782.0 1800.0 1969.0 1971.0 
40.0 72.0 80.0 300.0 315.0 710.0 722.0 747.0 816.0 816.0 820.0 1770.0 1789.0 1818.0 1957.0 1998.0 2059.0 
27.0 114.0 117.0 117.0 120.0 661.0 662.0 714.0 714.0 913.0 985.0 1111.0 1149.0 1150.0 1280.0 1326.0 1358.0 
19.0 104.0 107.0 209.0 213.0 765.0 798.0 811.0 989.0 1029.0 1155.0 1166.0 1171.0 1225.0 1242.0 1434.0 1584.0 
21.0 76.0 80.0 321.0 323.0 1168.0 1221.0 1231.0 1239.0 1254.0 1324.0 1770.0 1792.0 1823.0 1841.0 2384.0 2629.0 
36.0 254.0 262.0 316.0 318.0 1373.0 1394.0 1404.0 1410.0 1558.0 1585.0 1970.0 1982.0 2210.0 2249.0 2530.0 3660.0 

