986.0 1030.0 1089.0 1139.0 1743.0 1797.0 2352.0 2384.0 2438.0 2443.0 2458.0 2819.0 2839.0 3786.0 4595.0 4712.0 5455.0 
429.0 557.0 974.0 1005.0 1105.0 1112.0 2342.0 2373.0 2438.0 2440.0 2487.0 2720.0 2866.0 3768.0 4378.0 4440.0 5232.0 
88.0 343.0 813.0 853.0 959.0 963.0 2318.0 2344.0 2379.0 2434.0 2444.0 2642.0 2871.0 3923.0 4626.0 4705.0 5475.0 
1040.0 1207.0 3063.0 3066.0 3165.0 3167.0 3536.0 4603.0 4611.0 4680.0 4738.0 5421.0 5444.0 5973.0 6108.0 6343.0 6507.0 
139.0 146.0 267.0 892.0 1040.0 1390.0 1424.0 1486.0 1488.0 1647.0 1915.0 2217.0 2827.0 3319.0 3452.0 3465.0 4300.0 
1332.0 1337.0 1434.0 1472.0 1913.0 2884.0 3530.0 3743.0 4112.0 4593.0 9912.0 10046.0 10665.0 10815.0 11419.0 11870.0 12563.0 
31.0 97.0 132.0 575.0 1455.0 1476.0 2227.0 2381.0 2835.0 3228.0 4550.0 4687.0 5305.0 5359.0 6070.0 6169.0 6839.0 
40.0 85.0 116.0 561.0 1342.0 1543.0 2107.0 2406.0 2816.0 2955.0 3630.0 3764.0 4382.0 4439.0 5131.0 5255.0 5727.0 
1538.0 1565.0 1591.0 1691.0 2349.0 2371.0 2697.0 2948.0 2982.0 3042.0 3043.0 3323.0 3880.0 4356.0 4995.0 5029.0 5845.0 
92.0 331.0 781.0 819.0 925.0 931.0 2114.0 2148.0 2212.0 2216.0 2345.0 2581.0 2760.0 3495.0 4161.0 4197.0 5014.0 
177.0 1022.0 2106.0 2107.0 2208.0 2213.0 2576.0 3556.0 3572.0 4865.0 5274.0 5408.0 6027.0 6083.0 6772.0 7312.0 7757.0 
27.0 135.0 161.0 859.0 928.0 1328.0 1363.0 1422.0 1428.0 1528.0 1692.0 1943.0 1962.0 2780.0 3545.0 3666.0 4392.0 
120.0 154.0 260.0 872.0 1021.0 1193.0 1489.0 1529.0 1572.0 1583.0 1592.0 1857.0 2876.0 2972.0 3626.0 3762.0 4610.0 
31.0 123.0 125.0 392.0 1369.0 1470.0 2004.0 2075.0 2773.0 2852.0 3083.0 3214.0 3837.0 3895.0 4587.0 5001.0 5549.0 
368.0 404.0 458.0 462.0 1715.0 1783.0 2467.0 2649.0 3137.0 3294.0 3424.0 3498.0 4053.0 4105.0 4818.0 5270.0 5317.0 

