332.0 2509.0 2604.0 2609.0 2612.0 3939.0 3942.0 4460.0 5200.0 5230.0 5326.0 6010.0 6030.0 6037.0 6581.0 6706.0 7197.0 
986.0 1018.0 1105.0 1737.0 1800.0 1801.0 2291.0 2301.0 2401.0 2532.0 2669.0 2763.0 3818.0 3962.0 4319.0 4620.0 9329.0 
26.0 838.0 850.0 956.0 1590.0 2189.0 2231.0 2233.0 2290.0 2480.0 2589.0 2751.0 3650.0 3833.0 3942.0 4476.0 7910.0 
146.0 168.0 861.0 966.0 967.0 1391.0 1454.0 1456.0 1554.0 1651.0 1917.0 2065.0 2992.0 3105.0 3276.0 3801.0 6891.0 
30.0 230.0 1592.0 1687.0 1690.0 1958.0 3808.0 4262.0 4296.0 4389.0 5017.0 5078.0 5078.0 5631.0 5789.0 6258.0 6743.0 
28.0 232.0 1451.0 1542.0 1545.0 1814.0 3667.0 3962.0 3996.0 4087.0 4774.0 4783.0 4799.0 5346.0 5665.0 5889.0 6844.0 
31.0 84.0 453.0 1432.0 1468.0 1519.0 1542.0 1558.0 1834.0 2187.0 2246.0 2249.0 2304.0 2841.0 2988.0 3438.0 5906.0 
45.0 105.0 472.0 1436.0 1466.0 1505.0 1539.0 1560.0 2014.0 2194.0 2241.0 2254.0 2322.0 2738.0 3138.0 3358.0 5040.0 
399.0 493.0 494.0 1822.0 1977.0 2160.0 2248.0 2993.0 3045.0 3072.0 3169.0 3850.0 3858.0 3879.0 4562.0 4615.0 5045.0 
832.0 847.0 855.0 1650.0 1732.0 2007.0 2103.0 2120.0 2202.0 2359.0 2565.0 2745.0 3646.0 3796.0 4085.0 4465.0 8093.0 
36.0 816.0 818.0 944.0 1649.0 2121.0 2165.0 2204.0 2237.0 2369.0 2608.0 2720.0 3635.0 3675.0 3964.0 4453.0 7410.0 
23.0 141.0 812.0 858.0 906.0 1294.0 1294.0 1417.0 1432.0 1526.0 1799.0 2043.0 2846.0 2984.0 3317.0 3645.0 6552.0 
243.0 249.0 1414.0 1506.0 1510.0 1775.0 3628.0 3926.0 3954.0 4052.0 4682.0 4732.0 4752.0 5291.0 5452.0 5848.0 6451.0 
1387.0 1410.0 1418.0 2005.0 2215.0 2215.0 2685.0 2688.0 2787.0 2924.0 3154.0 3313.0 4183.0 4210.0 4539.0 5044.0 7859.0 
1556.0 1585.0 1680.0 2324.0 2380.0 2385.0 2860.0 2877.0 2927.0 3004.0 3099.0 3471.0 4497.0 4517.0 4856.0 5318.0 8122.0 

