116.0 1115.0 1146.0 1148.0 1262.0 1867.0 1935.0 1937.0 1967.0 2503.0 2538.0 2604.0 2605.0 2641.0 2735.0 2827.0 4274.0 
117.0 1081.0 2320.0 2351.0 2464.0 3093.0 3096.0 3153.0 3233.0 3649.0 3682.0 3747.0 3747.0 3830.0 3858.0 3946.0 5524.0 
30.0 834.0 853.0 869.0 968.0 1591.0 1598.0 2211.0 2252.0 2312.0 2313.0 2354.0 2368.0 2374.0 2801.0 3927.0 3974.0 
120.0 149.0 266.0 885.0 888.0 929.0 939.0 1359.0 1443.0 1481.0 1508.0 1538.0 1540.0 1632.0 1648.0 1727.0 3205.0 
133.0 164.0 259.0 822.0 875.0 972.0 974.0 1544.0 1580.0 1639.0 1639.0 1650.0 1654.0 1814.0 2228.0 2379.0 3256.0 
763.0 789.0 1521.0 1527.0 1645.0 1653.0 2330.0 2334.0 2850.0 2885.0 2906.0 2941.0 2944.0 3026.0 3067.0 3712.0 4561.0 
34.0 86.0 92.0 462.0 466.0 1464.0 1493.0 1597.0 1611.0 1965.0 2295.0 2296.0 2319.0 2329.0 2809.0 3176.0 3417.0 
32.0 87.0 92.0 462.0 465.0 1484.0 1515.0 1624.0 1656.0 1842.0 2234.0 2264.0 2310.0 2403.0 2838.0 3031.0 3539.0 
51.0 373.0 412.0 462.0 464.0 1528.0 1558.0 1658.0 1676.0 2107.0 2399.0 2407.0 2448.0 2537.0 3022.0 3243.0 3689.0 
24.0 752.0 840.0 882.0 975.0 981.0 1656.0 1740.0 2228.0 2232.0 2265.0 2320.0 2325.0 2370.0 2398.0 2921.0 3945.0 
25.0 828.0 906.0 937.0 1025.0 1662.0 1747.0 2420.0 2428.0 2451.0 2471.0 2480.0 2514.0 2516.0 2885.0 3317.0 4298.0 
49.0 189.0 195.0 754.0 757.0 877.0 882.0 1372.0 1454.0 1489.0 1535.0 1543.0 1550.0 1551.0 1559.0 2096.0 3178.0 
1406.0 1446.0 1498.0 1507.0 1770.0 1775.0 2771.0 2804.0 2910.0 2914.0 3547.0 3550.0 3585.0 3598.0 4154.0 4397.0 4810.0 
39.0 96.0 98.0 443.0 445.0 1621.0 1651.0 1760.0 1774.0 1811.0 2369.0 2411.0 2547.0 2549.0 3016.0 3138.0 3654.0 
30.0 369.0 405.0 463.0 470.0 1554.0 1589.0 1692.0 1701.0 2086.0 2328.0 2345.0 2395.0 2487.0 2884.0 3175.0 3567.0 

