112.0 2270.0 2304.0 2362.0 2362.0 3684.0 3725.0 3840.0 3841.0 3841.0 3877.0 4315.0 4317.0 4379.0 4498.0 6530.0 6534.0 
136.0 2248.0 2281.0 2340.0 2343.0 3629.0 3676.0 3786.0 3789.0 3793.0 3808.0 4245.0 4251.0 4378.0 4442.0 6438.0 6458.0 
811.0 850.0 903.0 941.0 958.0 961.0 2198.0 2236.0 2291.0 2294.0 4191.0 4327.0 4444.0 5406.0 6285.0 6631.0 6632.0 
56.0 129.0 159.0 277.0 282.0 1007.0 1554.0 1591.0 1644.0 1654.0 3542.0 3617.0 3649.0 4780.0 5678.0 5811.0 5823.0 
57.0 139.0 144.0 295.0 322.0 959.0 1658.0 1695.0 1753.0 1758.0 3664.0 3766.0 4023.0 4904.0 5697.0 6226.0 6490.0 
37.0 149.0 149.0 300.0 335.0 958.0 1543.0 1575.0 1629.0 1644.0 3620.0 3638.0 3828.0 4813.0 5622.0 5829.0 6062.0 
37.0 82.0 92.0 1474.0 1516.0 1634.0 1636.0 1636.0 1659.0 2096.0 2140.0 2182.0 2283.0 3410.0 4116.0 4285.0 4345.0 
64.0 125.0 128.0 1516.0 1566.0 1671.0 1671.0 1677.0 1709.0 2125.0 2141.0 2194.0 2338.0 3399.0 4160.0 4323.0 4350.0 
36.0 2210.0 2239.0 2299.0 4201.0 4243.0 4294.0 4300.0 5612.0 5654.0 5773.0 5775.0 5781.0 5798.0 6515.0 7479.0 8302.0 
31.0 81.0 2012.0 2044.0 2103.0 2109.0 2219.0 2447.0 3398.0 3445.0 3552.0 3565.0 3568.0 3581.0 4203.0 5243.0 6109.0 
85.0 86.0 2073.0 2108.0 2162.0 2164.0 2277.0 2285.0 3638.0 3692.0 3796.0 3806.0 3817.0 3834.0 4446.0 5431.0 6123.0 
32.0 142.0 147.0 178.0 208.0 840.0 1439.0 1473.0 1535.0 1537.0 3448.0 3502.0 3516.0 4761.0 5686.0 5703.0 5717.0 
57.0 136.0 184.0 288.0 290.0 901.0 1553.0 1591.0 1643.0 1652.0 3563.0 3625.0 3631.0 4895.0 5648.0 5734.0 5764.0 
34.0 88.0 94.0 1583.0 1639.0 1747.0 1752.0 1756.0 1775.0 2045.0 2069.0 2371.0 2393.0 3288.0 4211.0 4253.0 4264.0 
56.0 2202.0 2229.0 2383.0 4188.0 4224.0 4282.0 4284.0 5753.0 5794.0 5904.0 5909.0 5913.0 5934.0 6572.0 7465.0 8821.0 

