514.0 538.0 2434.0 2524.0 2525.0 4985.0 5024.0 5119.0 5122.0 5146.0 5746.0 5794.0 6441.0 6491.0 6594.0 6601.0 6692.0 
1000.0 1073.0 1204.0 1209.0 1220.0 1890.0 1924.0 2370.0 2372.0 2558.0 2561.0 2595.0 2607.0 2768.0 4564.0 4649.0 9569.0 
82.0 330.0 2078.0 2169.0 2175.0 4695.0 4736.0 4828.0 4837.0 4846.0 5454.0 5505.0 6204.0 6230.0 6232.0 6306.0 6370.0 
121.0 154.0 258.0 268.0 876.0 925.0 1401.0 1421.0 1611.0 1641.0 1642.0 1646.0 1646.0 1722.0 3689.0 3720.0 10352.0 
135.0 170.0 276.0 299.0 859.0 1032.0 1410.0 1416.0 1427.0 1659.0 1662.0 1663.0 1710.0 1818.0 3690.0 3729.0 11933.0 
1653.0 2416.0 2417.0 2452.0 2552.0 2564.0 3227.0 3696.0 3718.0 3883.0 3918.0 3927.0 3952.0 4091.0 5958.0 6125.0 15867.0 
26.0 87.0 1457.0 1496.0 1590.0 1603.0 1607.0 2129.0 2226.0 2318.0 2368.0 2958.0 2964.0 2965.0 3066.0 3135.0 23023.0 
44.0 88.0 1584.0 1622.0 1733.0 1742.0 1748.0 2147.0 2337.0 2385.0 2482.0 3087.0 3098.0 3146.0 3242.0 3256.0 9989.0 
1520.0 1557.0 1657.0 1663.0 1753.0 2276.0 2541.0 2797.0 2966.0 3034.0 3054.0 3119.0 3126.0 3189.0 5296.0 5337.0 11846.0 
81.0 289.0 2013.0 2101.0 2104.0 4462.0 4512.0 4617.0 4622.0 4624.0 5218.0 5363.0 5993.0 5993.0 5995.0 6065.0 6127.0 
809.0 911.0 918.0 1015.0 1019.0 1559.0 2127.0 2156.0 2309.0 2324.0 2347.0 2398.0 2415.0 2507.0 4360.0 4645.0 9097.0 
25.0 155.0 177.0 180.0 779.0 836.0 1038.0 1322.0 1364.0 1485.0 1537.0 1540.0 1622.0 1723.0 3630.0 3817.0 14203.0 
124.0 156.0 269.0 271.0 885.0 907.0 1429.0 1554.0 1615.0 1624.0 1634.0 1726.0 1788.0 1820.0 3653.0 3706.0 9450.0 
1334.0 1370.0 1382.0 1468.0 1479.0 2026.0 2142.0 2583.0 2584.0 2794.0 2872.0 2874.0 3001.0 3064.0 4860.0 5096.0 7774.0 
1526.0 1685.0 1815.0 1825.0 1836.0 2444.0 2584.0 3002.0 3115.0 3141.0 3176.0 3188.0 3281.0 5253.0 5416.0 8114.0 14350.0 

