1064.0 1113.0 1231.0 1815.0 1846.0 1904.0 1939.0 2454.0 2491.0 2694.0 3762.0 3796.0 3797.0 3834.0 3849.0 3883.0 6286.0 
948.0 1097.0 1123.0 1702.0 1749.0 1790.0 1794.0 2356.0 2455.0 3036.0 3646.0 3668.0 3692.0 3778.0 3788.0 3792.0 6257.0 
39.0 94.0 98.0 849.0 992.0 1919.0 2118.0 2164.0 2249.0 2276.0 2417.0 2538.0 2975.0 3449.0 3507.0 3571.0 4622.0 
131.0 298.0 882.0 923.0 970.0 972.0 1202.0 1558.0 1572.0 1738.0 2946.0 2994.0 3002.0 3085.0 3103.0 3205.0 5410.0 
42.0 137.0 1437.0 2834.0 2976.0 3118.0 3683.0 3720.0 3774.0 3806.0 4458.0 4592.0 5453.0 5671.0 5677.0 5722.0 8325.0 
32.0 131.0 1432.0 2831.0 2992.0 3136.0 3464.0 3498.0 3562.0 3582.0 4518.0 4660.0 4909.0 5432.0 5498.0 5517.0 7992.0 
49.0 98.0 2011.0 2040.0 2102.0 2138.0 2767.0 2910.0 3843.0 4022.0 4299.0 4379.0 5332.0 5414.0 5422.0 5653.0 6542.0 
37.0 91.0 2167.0 2206.0 2286.0 2295.0 2924.0 3069.0 3992.0 4183.0 4452.0 4634.0 5310.0 5625.0 5641.0 5684.0 6648.0 
2253.0 2283.0 2340.0 2353.0 3028.0 3167.0 4092.0 4248.0 4266.0 4270.0 4271.0 4471.0 4609.0 4649.0 5623.0 5713.0 5871.0 
37.0 87.0 90.0 787.0 931.0 1862.0 2030.0 2037.0 2057.0 2272.0 2314.0 2329.0 2406.0 3410.0 3461.0 3464.0 4526.0 
35.0 92.0 112.0 947.0 1089.0 1933.0 2166.0 2188.0 2284.0 2296.0 2447.0 2455.0 2639.0 3548.0 3603.0 3629.0 4601.0 
137.0 138.0 1306.0 2742.0 2855.0 2996.0 3599.0 3628.0 3689.0 3710.0 4335.0 4475.0 4505.0 5543.0 5567.0 5640.0 8123.0 
119.0 259.0 846.0 874.0 941.0 956.0 1410.0 1609.0 1641.0 1756.0 2799.0 2806.0 2813.0 2825.0 2833.0 3136.0 5331.0 
99.0 133.0 2034.0 2071.0 2128.0 2133.0 2870.0 3010.0 3863.0 4046.0 4285.0 4353.0 4549.0 5494.0 5500.0 5640.0 6617.0 
1533.0 1574.0 1728.0 2432.0 2466.0 2517.0 2553.0 2920.0 2972.0 3200.0 4338.0 4349.0 4357.0 4402.0 4439.0 4462.0 6983.0 

