148.0 304.0 334.0 394.0 1055.0 1098.0 1175.0 1193.0 1218.0 1220.0 2302.0 2383.0 2415.0 2470.0 2525.0 2593.0 4497.0 
160.0 308.0 333.0 396.0 1057.0 1096.0 1195.0 1202.0 1219.0 1229.0 2343.0 2487.0 2519.0 2545.0 2572.0 2747.0 4562.0 
96.0 106.0 538.0 624.0 818.0 857.0 953.0 957.0 976.0 983.0 2110.0 2141.0 2193.0 2205.0 2329.0 2371.0 4219.0 
70.0 157.0 190.0 308.0 310.0 1002.0 1004.0 1057.0 1487.0 1507.0 1515.0 1717.0 3030.0 3061.0 3116.0 3198.0 5122.0 
38.0 137.0 148.0 271.0 273.0 909.0 911.0 966.0 1319.0 1414.0 1707.0 2353.0 3102.0 3147.0 3175.0 3239.0 5457.0 
65.0 161.0 168.0 285.0 290.0 922.0 923.0 972.0 1385.0 1649.0 1649.0 2438.0 2928.0 2958.0 3018.0 3131.0 4997.0 
83.0 90.0 2026.0 2114.0 2144.0 2198.0 2863.0 2903.0 2982.0 3000.0 3028.0 3029.0 4153.0 4330.0 4389.0 5113.0 5181.0 
1348.0 1349.0 1436.0 1467.0 1582.0 1593.0 2197.0 2203.0 2246.0 2625.0 2695.0 2962.0 4437.0 4467.0 4502.0 4557.0 6829.0 
2210.0 2254.0 2317.0 2717.0 2741.0 2965.0 3009.0 3086.0 3106.0 3127.0 3134.0 4215.0 4232.0 4246.0 4303.0 4499.0 6301.0 
29.0 84.0 510.0 522.0 840.0 888.0 975.0 988.0 1001.0 1007.0 2034.0 2068.0 2108.0 2121.0 2267.0 2322.0 4363.0 
2115.0 2120.0 2304.0 4100.0 4130.0 4187.0 4851.0 4896.0 5005.0 5006.0 5016.0 5024.0 6114.0 6282.0 6402.0 6878.0 10050.0 
31.0 129.0 149.0 168.0 169.0 789.0 795.0 933.0 1254.0 1296.0 1536.0 2157.0 2795.0 2832.0 2879.0 3042.0 4862.0 
36.0 118.0 154.0 277.0 282.0 880.0 880.0 936.0 1330.0 1367.0 1405.0 1823.0 2886.0 2913.0 2975.0 3085.0 5003.0 
35.0 99.0 2093.0 2249.0 2282.0 2340.0 3004.0 3051.0 3140.0 3144.0 3166.0 3169.0 4312.0 4449.0 4507.0 4808.0 5770.0 
1483.0 1523.0 1618.0 1635.0 1655.0 1660.0 2246.0 2247.0 2385.0 2653.0 2751.0 2764.0 4271.0 4301.0 4360.0 4455.0 6654.0 

