487.0 587.0 1013.0 1322.0 2540.0 2578.0 2638.0 2693.0 2901.0 3942.0 4092.0 4102.0 4239.0 4243.0 4599.0 5360.0 9041.0 
343.0 2477.0 2511.0 2564.0 2841.0 2844.0 3901.0 3952.0 4031.0 4177.0 4180.0 4225.0 4470.0 4501.0 4653.0 4922.0 5514.0 
82.0 169.0 336.0 1009.0 2180.0 2212.0 2278.0 2384.0 2545.0 3602.0 3733.0 3881.0 3886.0 3923.0 4300.0 4999.0 7803.0 
34.0 1331.0 1415.0 1439.0 1781.0 1781.0 2900.0 2929.0 3075.0 3084.0 3521.0 3719.0 3749.0 3884.0 4104.0 4218.0 7301.0 
38.0 138.0 1385.0 1593.0 1659.0 1663.0 1679.0 1960.0 3037.0 3073.0 3156.0 3692.0 3835.0 3871.0 3922.0 5161.0 6765.0 
37.0 141.0 1467.0 1528.0 1625.0 1674.0 1709.0 1896.0 2971.0 3011.0 3301.0 3595.0 3800.0 3834.0 3909.0 4126.0 6750.0 
89.0 115.0 459.0 460.0 1337.0 1373.0 1593.0 1654.0 1798.0 1799.0 2136.0 2330.0 2387.0 2420.0 2663.0 2894.0 5359.0 
1264.0 1395.0 1416.0 2675.0 2764.0 2776.0 2779.0 3046.0 4189.0 4255.0 4258.0 4664.0 4695.0 4740.0 4829.0 4994.0 9385.0 
371.0 374.0 467.0 774.0 1557.0 1706.0 1714.0 1785.0 1912.0 1957.0 2471.0 2637.0 2674.0 2810.0 2820.0 2967.0 6954.0 
51.0 85.0 326.0 887.0 2107.0 2137.0 2198.0 2470.0 2527.0 3530.0 3660.0 3692.0 3807.0 3816.0 4197.0 4949.0 8072.0 
469.0 2143.0 2173.0 2237.0 2505.0 2525.0 3563.0 3674.0 3683.0 3836.0 3839.0 3879.0 4133.0 4168.0 4230.0 4449.0 4976.0 
749.0 789.0 832.0 1067.0 1352.0 1384.0 1452.0 1494.0 1719.0 2802.0 2888.0 3033.0 3049.0 3105.0 3462.0 4130.0 6621.0 
33.0 1356.0 1393.0 1420.0 1755.0 1760.0 2755.0 2971.0 3128.0 3136.0 3434.0 3471.0 3487.0 3527.0 3767.0 4234.0 5914.0 
23.0 119.0 361.0 385.0 1379.0 1454.0 1502.0 1525.0 1526.0 1592.0 2064.0 2098.0 2109.0 2155.0 2395.0 2662.0 4781.0 
398.0 425.0 487.0 764.0 1602.0 1816.0 1953.0 1966.0 2099.0 2101.0 2232.0 2266.0 2321.0 2490.0 3202.0 3522.0 4865.0 

