423.0 459.0 503.0 579.0 790.0 1193.0 1204.0 1218.0 1291.0 1298.0 2269.0 2350.0 2474.0 2573.0 2626.0 2637.0 2694.0 
492.0 519.0 580.0 592.0 1262.0 1267.0 1281.0 1289.0 1349.0 1867.0 2329.0 2452.0 2479.0 2538.0 2663.0 2690.0 2744.0 
79.0 129.0 170.0 357.0 695.0 843.0 865.0 867.0 942.0 1032.0 1921.0 2007.0 2152.0 2245.0 2272.0 2295.0 2391.0 
260.0 854.0 888.0 911.0 933.0 1308.0 1356.0 1623.0 1632.0 1652.0 1712.0 2844.0 2912.0 2997.0 3036.0 3128.0 3143.0 
839.0 885.0 930.0 940.0 1317.0 1342.0 1370.0 1583.0 1619.0 1649.0 1706.0 1708.0 2681.0 2843.0 3068.0 3112.0 3271.0 
239.0 820.0 1635.0 1675.0 1810.0 2103.0 2391.0 2402.0 2416.0 2486.0 2995.0 3595.0 3638.0 3677.0 3838.0 3842.0 3893.0 
1926.0 2029.0 2042.0 2179.0 2619.0 2697.0 2708.0 2711.0 2719.0 2785.0 3330.0 3762.0 3895.0 3956.0 4119.0 4142.0 4220.0 
301.0 1365.0 4158.0 4222.0 4271.0 4283.0 4607.0 4694.0 4927.0 4935.0 4949.0 5011.0 5986.0 6103.0 6195.0 6335.0 6427.0 
297.0 1563.0 2215.0 2257.0 2307.0 2339.0 2690.0 2744.0 3051.0 3061.0 3073.0 3130.0 4110.0 4278.0 4407.0 4409.0 4486.0 
28.0 160.0 221.0 398.0 516.0 801.0 810.0 812.0 827.0 889.0 1860.0 1969.0 2014.0 2077.0 2199.0 2221.0 2314.0 
95.0 142.0 177.0 597.0 599.0 815.0 848.0 865.0 875.0 907.0 944.0 2089.0 2107.0 2261.0 2290.0 2312.0 2377.0 
28.0 274.0 778.0 834.0 872.0 878.0 1213.0 1318.0 1532.0 1553.0 1632.0 2601.0 2756.0 2757.0 2957.0 2988.0 3042.0 
121.0 150.0 848.0 891.0 942.0 944.0 1294.0 1365.0 1417.0 1674.0 1758.0 2737.0 2809.0 2820.0 3065.0 3088.0 3091.0 
1325.0 1350.0 1558.0 2040.0 2088.0 2155.0 2156.0 2536.0 2547.0 2811.0 2896.0 3864.0 3962.0 3997.0 4233.0 4247.0 4307.0 
2265.0 2289.0 2324.0 2374.0 2688.0 2905.0 3069.0 3074.0 3080.0 3097.0 3152.0 4127.0 4337.0 4346.0 4517.0 4542.0 4586.0 

