127.0 366.0 398.0 452.0 1006.0 1215.0 2310.0 2346.0 2556.0 2631.0 2670.0 2998.0 4014.0 4085.0 4159.0 4351.0 4722.0 
124.0 308.0 344.0 391.0 1046.0 1154.0 2285.0 2288.0 2341.0 2364.0 2501.0 2706.0 3710.0 3844.0 3845.0 4248.0 4460.0 
90.0 92.0 501.0 617.0 854.0 906.0 2043.0 2073.0 2105.0 2131.0 2297.0 2479.0 3469.0 3505.0 3644.0 4001.0 4178.0 
855.0 857.0 908.0 1282.0 1380.0 1614.0 2829.0 3030.0 3069.0 3077.0 3104.0 3436.0 4562.0 4648.0 4780.0 4957.0 5172.0 
136.0 162.0 1504.0 1524.0 1619.0 1623.0 1890.0 3457.0 3589.0 3795.0 3835.0 4071.0 4239.0 4298.0 4558.0 4644.0 6009.0 
780.0 805.0 868.0 1078.0 1445.0 1628.0 2717.0 2754.0 2792.0 2815.0 2990.0 3161.0 4161.0 4175.0 4309.0 4536.0 4888.0 
30.0 90.0 124.0 456.0 1421.0 1481.0 1620.0 1971.0 2165.0 3575.0 3617.0 3714.0 4006.0 4083.0 4341.0 4420.0 5781.0 
29.0 84.0 107.0 447.0 1608.0 1612.0 1754.0 1987.0 1994.0 2029.0 2066.0 2169.0 2359.0 2594.0 2749.0 2836.0 4167.0 
2208.0 2245.0 2286.0 2653.0 2705.0 2992.0 3057.0 4185.0 4216.0 4221.0 4251.0 4582.0 5593.0 5776.0 5922.0 5976.0 6312.0 
68.0 128.0 527.0 576.0 851.0 893.0 2071.0 2115.0 2145.0 2302.0 2343.0 2483.0 3420.0 3462.0 3593.0 3887.0 4418.0 
905.0 2310.0 2313.0 2344.0 2404.0 2406.0 3661.0 3721.0 3869.0 4816.0 4854.0 4907.0 5219.0 5659.0 5664.0 6130.0 7000.0 
26.0 162.0 1340.0 1353.0 1446.0 1446.0 1712.0 3253.0 3448.0 3613.0 3652.0 3708.0 4090.0 4115.0 4460.0 4466.0 5780.0 
936.0 1414.0 1451.0 1507.0 1507.0 1752.0 2722.0 2794.0 2939.0 3928.0 3971.0 4014.0 4429.0 4436.0 4694.0 4775.0 6112.0 
26.0 118.0 125.0 388.0 1329.0 1462.0 1737.0 1798.0 2147.0 2270.0 2307.0 2364.0 2715.0 2799.0 3030.0 3118.0 4478.0 
360.0 398.0 446.0 458.0 1594.0 1735.0 1852.0 1877.0 2245.0 2579.0 2615.0 2664.0 3063.0 3082.0 3343.0 3428.0 4812.0 

