2461.0 2497.0 2557.0 2567.0 2829.0 4008.0 4045.0 4143.0 4151.0 4205.0 4228.0 4595.0 4610.0 4773.0 4856.0 5470.0 7380.0 
526.0 678.0 2420.0 2468.0 2509.0 2781.0 2797.0 3803.0 3840.0 3938.0 3943.0 4169.0 4319.0 4557.0 4559.0 5187.0 8894.0 
32.0 487.0 2092.0 2127.0 2194.0 2453.0 2457.0 3489.0 3516.0 3622.0 3627.0 3817.0 3818.0 4244.0 4245.0 4902.0 7791.0 
44.0 148.0 182.0 278.0 293.0 904.0 905.0 1394.0 1426.0 1486.0 1579.0 1766.0 1776.0 3519.0 3742.0 6315.0 6737.0 
29.0 143.0 180.0 274.0 282.0 899.0 901.0 1345.0 1530.0 1561.0 1623.0 1896.0 1905.0 3599.0 3632.0 6445.0 6759.0 
43.0 135.0 178.0 265.0 269.0 891.0 893.0 1321.0 1543.0 1571.0 1632.0 1901.0 1914.0 3643.0 3917.0 6495.0 6619.0 
1345.0 1435.0 1468.0 1477.0 1562.0 1564.0 2193.0 2198.0 2818.0 2849.0 2914.0 3207.0 3209.0 5015.0 5214.0 7770.0 8954.0 
89.0 90.0 297.0 454.0 1469.0 1509.0 1655.0 1661.0 1826.0 1832.0 2151.0 2222.0 2295.0 2451.0 2760.0 5048.0 5478.0 
360.0 386.0 446.0 721.0 1749.0 1780.0 1892.0 1893.0 2078.0 2079.0 2421.0 2482.0 2505.0 2508.0 2903.0 3188.0 6329.0 
23.0 795.0 879.0 1006.0 1021.0 1033.0 1042.0 2124.0 2397.0 2432.0 2496.0 2765.0 2772.0 4471.0 4502.0 7564.0 7806.0 
57.0 670.0 2102.0 2132.0 2193.0 2471.0 2506.0 3668.0 3704.0 3814.0 3815.0 3872.0 4014.0 4422.0 4507.0 4938.0 7263.0 
26.0 169.0 172.0 182.0 205.0 757.0 757.0 1302.0 1566.0 1596.0 1653.0 1932.0 1934.0 3655.0 3680.0 6629.0 8426.0 
64.0 152.0 183.0 289.0 299.0 911.0 912.0 1394.0 1423.0 1460.0 1492.0 1763.0 1765.0 3491.0 3500.0 6441.0 7277.0 
44.0 106.0 407.0 410.0 1444.0 1480.0 1576.0 1588.0 1779.0 1810.0 2143.0 2161.0 2205.0 2211.0 2904.0 5117.0 5425.0 
301.0 366.0 374.0 727.0 1742.0 1775.0 1879.0 1887.0 2096.0 2113.0 2475.0 2483.0 2501.0 2585.0 3013.0 5475.0 5835.0 

