126.0 372.0 412.0 462.0 499.0 1051.0 1134.0 1162.0 1172.0 1172.0 1260.0 2323.0 2346.0 2483.0 2507.0 2615.0 2747.0 
150.0 347.0 389.0 438.0 467.0 1088.0 1111.0 1118.0 1134.0 1148.0 1238.0 2412.0 2413.0 2516.0 2617.0 2672.0 2675.0 
84.0 129.0 161.0 618.0 655.0 922.0 953.0 954.0 955.0 1042.0 1054.0 2081.0 2139.0 2306.0 2373.0 2451.0 2686.0 
126.0 128.0 279.0 282.0 963.0 1022.0 1058.0 1139.0 1447.0 1459.0 1616.0 1809.0 2987.0 3005.0 3076.0 3107.0 3424.0 
34.0 132.0 164.0 262.0 848.0 889.0 941.0 950.0 1347.0 1348.0 1703.0 1877.0 2824.0 2830.0 2886.0 2964.0 3017.0 
48.0 140.0 169.0 270.0 769.0 816.0 878.0 900.0 1255.0 1267.0 1699.0 1713.0 2716.0 2788.0 2818.0 2826.0 3311.0 
34.0 93.0 2203.0 2240.0 2294.0 2301.0 2632.0 2787.0 2974.0 2990.0 2999.0 3063.0 3067.0 3102.0 4451.0 4504.0 4525.0 
54.0 101.0 2262.0 2308.0 2366.0 2393.0 2657.0 2976.0 3028.0 3045.0 3053.0 3059.0 3117.0 3154.0 4317.0 4431.0 4588.0 
365.0 2230.0 2275.0 2315.0 2334.0 2621.0 2828.0 2994.0 3015.0 3024.0 3043.0 3097.0 3122.0 4171.0 4301.0 4321.0 4496.0 
40.0 89.0 93.0 473.0 809.0 820.0 833.0 837.0 939.0 984.0 1352.0 2008.0 2076.0 2129.0 2141.0 2258.0 2334.0 
36.0 84.0 88.0 551.0 587.0 876.0 919.0 932.0 949.0 999.0 1052.0 2013.0 2056.0 2130.0 2197.0 2268.0 2477.0 
37.0 131.0 185.0 188.0 791.0 840.0 911.0 974.0 1276.0 1302.0 1480.0 1639.0 2759.0 2787.0 3078.0 3084.0 3242.0 
848.0 885.0 931.0 1014.0 1153.0 1425.0 1601.0 1629.0 1701.0 1705.0 1732.0 2820.0 2829.0 2911.0 2945.0 3010.0 3143.0 
90.0 94.0 2275.0 2337.0 2385.0 2412.0 2790.0 2792.0 3040.0 3059.0 3072.0 3132.0 3143.0 3169.0 4430.0 4594.0 4602.0 
1508.0 1530.0 1563.0 1661.0 1661.0 2259.0 2305.0 2363.0 2364.0 2736.0 2771.0 3110.0 4251.0 4275.0 4328.0 4441.0 4633.0 

