139.0 491.0 591.0 1112.0 1252.0 1922.0 2384.0 2386.0 2478.0 2505.0 2624.0 2716.0 2738.0 3920.0 3951.0 3979.0 4771.0 
144.0 481.0 598.0 1023.0 1166.0 1833.0 2284.0 2362.0 2447.0 2452.0 2581.0 2594.0 2647.0 3842.0 3992.0 4040.0 4530.0 
409.0 578.0 975.0 1537.0 1684.0 2346.0 2776.0 2837.0 2926.0 2997.0 3033.0 3085.0 3248.0 4391.0 4432.0 4460.0 5014.0 
121.0 872.0 902.0 1328.0 1604.0 1630.0 1807.0 2091.0 2255.0 2629.0 3001.0 3036.0 3063.0 3586.0 4436.0 4524.0 4694.0 
26.0 242.0 766.0 1422.0 2929.0 3079.0 3451.0 3739.0 4215.0 4513.0 4639.0 9288.0 9428.0 9796.0 11649.0 11735.0 11893.0 
48.0 283.0 803.0 1477.0 2808.0 2954.0 3616.0 3698.0 4063.0 4365.0 4431.0 6267.0 6404.0 6772.0 8624.0 8710.0 8831.0 
96.0 298.0 2822.0 3214.0 4981.0 5353.0 5972.0 6109.0 6869.0 7211.0 7411.0 7508.0 7771.0 8808.0 8829.0 8855.0 9648.0 
299.0 1347.0 1556.0 1979.0 2312.0 2882.0 3230.0 3449.0 3603.0 3974.0 4635.0 4783.0 4817.0 5265.0 5779.0 5868.0 6012.0 
302.0 386.0 3731.0 4125.0 5331.0 5691.0 6345.0 6484.0 7152.0 7635.0 7791.0 7936.0 8047.0 9187.0 9193.0 9228.0 9825.0 
770.0 800.0 951.0 2031.0 3529.0 3671.0 4046.0 4429.0 4816.0 5111.0 5333.0 6867.0 7017.0 7387.0 9275.0 9368.0 9532.0 
804.0 811.0 1006.0 1557.0 2000.0 2301.0 2488.0 2697.0 2840.0 3207.0 3884.0 3888.0 3918.0 4494.0 5061.0 5149.0 5290.0 
899.0 1706.0 1800.0 2459.0 2936.0 3161.0 3238.0 3681.0 3828.0 4196.0 4608.0 4784.0 4814.0 5421.0 6014.0 6105.0 6248.0 
242.0 266.0 863.0 1427.0 2908.0 3060.0 3433.0 3714.0 4155.0 4460.0 4526.0 6289.0 6430.0 6796.0 8664.0 8756.0 8904.0 
1446.0 1474.0 1503.0 1610.0 1648.0 2017.0 2027.0 2316.0 2768.0 3073.0 3127.0 4891.0 5017.0 5388.0 7220.0 7308.0 7453.0 
324.0 1653.0 1881.0 2325.0 2634.0 3227.0 3358.0 3770.0 3926.0 4284.0 4789.0 4818.0 4938.0 5364.0 6122.0 6215.0 6351.0 

