420.0 514.0 2449.0 2672.0 3190.0 3818.0 4406.0 4536.0 5231.0 5733.0 5921.0 6238.0 6243.0 7746.0 7870.0 7956.0 8359.0 
986.0 1128.0 1791.0 2252.0 2689.0 2711.0 2798.0 2826.0 3008.0 4362.0 4650.0 4770.0 4818.0 4916.0 5054.0 5499.0 5890.0 
91.0 402.0 2008.0 2282.0 2680.0 3524.0 4021.0 4158.0 4836.0 5373.0 5548.0 5842.0 5946.0 7376.0 7494.0 7587.0 7742.0 
128.0 846.0 1412.0 1568.0 1687.0 1817.0 2503.0 3021.0 3032.0 3115.0 3318.0 3511.0 3639.0 4816.0 5457.0 5825.0 6216.0 
1337.0 1749.0 2105.0 3311.0 3313.0 3337.0 3471.0 3735.0 4140.0 4624.0 4669.0 5047.0 5885.0 6496.0 6615.0 6881.0 6900.0 
138.0 914.0 1388.0 1527.0 1580.0 1645.0 1821.0 1999.0 2358.0 3471.0 3592.0 3851.0 3919.0 4042.0 4368.0 4769.0 5986.0 
293.0 692.0 1869.0 1945.0 2006.0 2033.0 2439.0 2686.0 3212.0 3463.0 3541.0 3559.0 3591.0 5364.0 5495.0 5763.0 5813.0 
1317.0 1526.0 2026.0 2695.0 2901.0 2932.0 2945.0 3198.0 3997.0 4768.0 4890.0 4954.0 5087.0 5127.0 5662.0 6060.0 6410.0 
334.0 511.0 1755.0 1897.0 2168.0 2678.0 2736.0 2983.0 3080.0 3181.0 3343.0 3587.0 3942.0 4803.0 4923.0 5012.0 5188.0 
92.0 495.0 1968.0 2180.0 2581.0 3718.0 3849.0 4633.0 4814.0 5056.0 5147.0 5409.0 5536.0 7231.0 7350.0 7442.0 7609.0 
810.0 827.0 904.0 2056.0 2109.0 2217.0 2415.0 2467.0 2838.0 4289.0 4408.0 4507.0 4638.0 4656.0 5174.0 5577.0 5691.0 
118.0 963.0 1516.0 1688.0 1723.0 1855.0 2542.0 3064.0 3142.0 3164.0 3205.0 3442.0 3448.0 5359.0 5914.0 6310.0 6338.0 
1011.0 1820.0 1838.0 3186.0 3217.0 3267.0 3419.0 3475.0 3835.0 5305.0 5427.0 5482.0 5620.0 5664.0 6200.0 6594.0 6684.0 
363.0 1409.0 1541.0 2034.0 2820.0 2950.0 3635.0 4240.0 4280.0 4285.0 4319.0 4541.0 4640.0 6447.0 7005.0 7393.0 7404.0 
372.0 1588.0 1706.0 2445.0 3200.0 3338.0 4024.0 4524.0 4627.0 4690.0 4706.0 4932.0 5044.0 6810.0 7358.0 7763.0 7894.0 

