1147.0 1153.0 1272.0 1301.0 1403.0 1431.0 1993.0 2057.0 2357.0 2768.0 2791.0 2846.0 2984.0 3292.0 3301.0 5608.0 7310.0 
310.0 390.0 1062.0 1101.0 1188.0 1193.0 1214.0 1216.0 2533.0 2555.0 2631.0 2793.0 2827.0 3038.0 3093.0 5157.0 6602.0 
2075.0 2117.0 2156.0 2183.0 2561.0 3646.0 3683.0 3781.0 3794.0 3921.0 3950.0 4545.0 4607.0 4904.0 5447.0 5776.0 6179.0 
27.0 151.0 185.0 302.0 307.0 956.0 977.0 1112.0 1317.0 1628.0 1658.0 1868.0 1899.0 2090.0 2338.0 4666.0 5599.0 
39.0 145.0 161.0 284.0 313.0 993.0 1063.0 1349.0 1379.0 1403.0 1420.0 1795.0 1799.0 1901.0 2067.0 3967.0 5368.0 
39.0 134.0 137.0 260.0 289.0 887.0 941.0 1242.0 1483.0 1506.0 1531.0 1604.0 1815.0 1942.0 2052.0 4035.0 5587.0 
23.0 107.0 114.0 304.0 1365.0 1398.0 1518.0 1520.0 1642.0 1679.0 1977.0 2201.0 2272.0 2327.0 2624.0 3160.0 3497.0 
41.0 88.0 90.0 401.0 1343.0 1377.0 1489.0 1501.0 1629.0 1659.0 2156.0 2253.0 2312.0 2602.0 3148.0 3409.0 4143.0 
301.0 387.0 399.0 528.0 1619.0 1648.0 1759.0 1773.0 1893.0 1922.0 2215.0 2579.0 2615.0 2697.0 2967.0 3186.0 3681.0 
80.0 329.0 754.0 790.0 847.0 881.0 884.0 908.0 2280.0 2432.0 2459.0 2638.0 2690.0 2788.0 2849.0 4861.0 6446.0 
160.0 478.0 814.0 853.0 956.0 966.0 1007.0 1036.0 2330.0 2353.0 2415.0 2504.0 2625.0 2849.0 2867.0 4935.0 6362.0 
22.0 129.0 140.0 153.0 157.0 752.0 805.0 1101.0 1532.0 1605.0 1631.0 1903.0 1910.0 1918.0 2069.0 4118.0 5639.0 
38.0 123.0 154.0 254.0 269.0 848.0 910.0 1192.0 1627.0 1763.0 1782.0 1802.0 1855.0 2056.0 2180.0 4488.0 5800.0 
35.0 84.0 105.0 540.0 1735.0 1769.0 1887.0 1891.0 2028.0 2057.0 2083.0 2643.0 2792.0 3004.0 3361.0 3889.0 4164.0 
1580.0 1631.0 1744.0 1744.0 1875.0 1903.0 2498.0 2647.0 2849.0 2978.0 3001.0 3046.0 3271.0 3566.0 3657.0 5656.0 8922.0 

