1130.0 1165.0 2077.0 2476.0 2501.0 2514.0 2553.0 2625.0 2730.0 3818.0 3982.0 4047.0 4645.0 5072.0 5188.0 5550.0 6821.0 
995.0 1133.0 1910.0 2383.0 2816.0 3717.0 3774.0 4782.0 5036.0 5105.0 5340.0 6602.0 7472.0 7527.0 7552.0 7623.0 11859.0 
819.0 823.0 902.0 1883.0 2090.0 3452.0 3480.0 4491.0 4765.0 4807.0 5072.0 6302.0 7138.0 7218.0 7382.0 7568.0 11580.0 
1013.0 1829.0 1922.0 2891.0 3328.0 4718.0 4807.0 5724.0 5999.0 6074.0 6311.0 7541.0 8388.0 8478.0 8506.0 8597.0 12894.0 
136.0 821.0 1089.0 1409.0 1829.0 2722.0 2801.0 3703.0 4091.0 4130.0 4370.0 5599.0 6439.0 6519.0 6681.0 7039.0 10920.0 
1342.0 1639.0 2677.0 2792.0 3576.0 3839.0 4071.0 4129.0 5526.0 5654.0 6157.0 6226.0 6290.0 6452.0 6767.0 7061.0 10702.0 
95.0 304.0 2869.0 3951.0 4046.0 4395.0 5054.0 5299.0 5391.0 5635.0 6610.0 6716.0 6904.0 7642.0 7794.0 8331.0 8552.0 
292.0 1324.0 1345.0 1465.0 1979.0 2439.0 2735.0 2773.0 4107.0 4186.0 4772.0 4841.0 4884.0 4982.0 5293.0 5793.0 9202.0 
320.0 417.0 2841.0 3935.0 3977.0 4883.0 4901.0 5285.0 5347.0 5773.0 6654.0 6687.0 6868.0 7351.0 7763.0 8256.0 8465.0 
2232.0 2637.0 3796.0 3915.0 3956.0 4774.0 4935.0 5340.0 6730.0 6788.0 7256.0 7327.0 7460.0 7485.0 7825.0 8371.0 11721.0 
909.0 1027.0 1998.0 2004.0 2247.0 2322.0 3361.0 3732.0 3830.0 4355.0 4418.0 4428.0 4573.0 4684.0 4845.0 5344.0 8721.0 
144.0 813.0 1240.0 1330.0 1719.0 2636.0 2879.0 3788.0 4211.0 4244.0 4443.0 5732.0 6614.0 6683.0 6807.0 7172.0 11081.0 
119.0 905.0 1094.0 1349.0 1548.0 1584.0 2712.0 2852.0 2908.0 3432.0 3498.0 3661.0 3899.0 4021.0 4109.0 4807.0 7866.0 
1343.0 1381.0 1396.0 1485.0 2096.0 2296.0 2730.0 2763.0 2961.0 3002.0 3184.0 4228.0 5407.0 5522.0 5606.0 5749.0 10015.0 
296.0 1572.0 1587.0 1690.0 2489.0 2541.0 2753.0 2980.0 4324.0 4388.0 5079.0 5087.0 5186.0 5361.0 5691.0 6112.0 9495.0 

