327.0 1080.0 1172.0 2535.0 2579.0 4056.0 4999.0 5034.0 5447.0 5798.0 5800.0 5939.0 6847.0 6967.0 7125.0 7136.0 7537.0 
347.0 435.0 1052.0 1163.0 1197.0 1198.0 1966.0 2380.0 2452.0 2541.0 2601.0 2786.0 4294.0 4554.0 5660.0 5950.0 5967.0 
88.0 522.0 808.0 851.0 902.0 935.0 1807.0 2036.0 2099.0 2256.0 2302.0 2422.0 3742.0 4367.0 5500.0 5756.0 5790.0 
943.0 951.0 1030.0 1182.0 1413.0 1753.0 1796.0 1797.0 3024.0 3165.0 3262.0 3361.0 4900.0 5126.0 6429.0 6522.0 6752.0 
27.0 758.0 844.0 1291.0 1336.0 1341.0 1585.0 1593.0 1809.0 2710.0 2944.0 2948.0 4455.0 5270.0 6218.0 6535.0 6684.0 
29.0 758.0 840.0 1301.0 1317.0 1385.0 1509.0 1613.0 1744.0 2650.0 2905.0 3202.0 4898.0 5538.0 6473.0 6773.0 6931.0 
1385.0 1505.0 1936.0 2018.0 2731.0 2771.0 2926.0 3116.0 3390.0 3835.0 4122.0 4134.0 5664.0 6480.0 7041.0 7331.0 8057.0 
1345.0 1376.0 2105.0 2188.0 2590.0 2666.0 2857.0 2983.0 3095.0 4000.0 4513.0 4552.0 6051.0 6810.0 7792.0 8083.0 8386.0 
1518.0 1531.0 2189.0 2241.0 2307.0 2635.0 2922.0 2952.0 2958.0 3146.0 3215.0 3702.0 4148.0 4154.0 4281.0 4531.0 4549.0 
84.0 501.0 776.0 834.0 854.0 1092.0 1972.0 2100.0 2226.0 2374.0 2382.0 2433.0 3751.0 4554.0 5212.0 5504.0 5973.0 
1008.0 1913.0 1992.0 2183.0 2401.0 2775.0 2777.0 2810.0 3959.0 4098.0 4362.0 4417.0 5946.0 6744.0 7585.0 7879.0 8298.0 
128.0 756.0 1058.0 1520.0 1521.0 3241.0 3686.0 3769.0 4160.0 4442.0 4453.0 4680.0 5586.0 5630.0 5788.0 5846.0 6019.0 
133.0 1448.0 1567.0 1828.0 2163.0 3100.0 3773.0 3835.0 4237.0 4558.0 4565.0 4741.0 5734.0 5749.0 6023.0 6147.0 6195.0 
1430.0 2097.0 2178.0 2333.0 2911.0 2943.0 2948.0 4124.0 4302.0 4332.0 4526.0 4751.0 5833.0 6657.0 7571.0 7870.0 8069.0 
1761.0 1791.0 2518.0 2599.0 3001.0 3109.0 3109.0 3270.0 3504.0 4415.0 4719.0 4725.0 6449.0 7028.0 7710.0 8003.0 8442.0 

