333.0 361.0 511.0 1067.0 1443.0 2278.0 2310.0 2365.0 2365.0 2823.0 3554.0 3652.0 3761.0 3880.0 4464.0 5359.0 5409.0 
714.0 798.0 867.0 1149.0 1645.0 1652.0 2745.0 2788.0 2844.0 2848.0 4088.0 4110.0 4149.0 4221.0 4936.0 5680.0 5725.0 
813.0 833.0 2115.0 2150.0 2202.0 2229.0 2294.0 2313.0 3542.0 3595.0 4215.0 4656.0 4965.0 5506.0 5511.0 5921.0 7072.0 
32.0 849.0 880.0 1037.0 1895.0 2588.0 2842.0 2902.0 2958.0 2967.0 4239.0 4328.0 4333.0 4397.0 5300.0 5874.0 5893.0 
136.0 910.0 1668.0 1683.0 1905.0 1942.0 2000.0 2002.0 3315.0 3348.0 4249.0 4433.0 4742.0 5283.0 5285.0 5643.0 6415.0 
133.0 1522.0 1554.0 1610.0 1611.0 2945.0 2996.0 3678.0 3721.0 3782.0 4110.0 4456.0 4489.0 4631.0 4633.0 5189.0 5914.0 
30.0 86.0 87.0 1406.0 1460.0 1495.0 1521.0 1993.0 2229.0 2513.0 2834.0 2941.0 3128.0 3360.0 3461.0 3669.0 4360.0 
35.0 91.0 92.0 1279.0 1386.0 1457.0 1501.0 2014.0 2192.0 2432.0 2738.0 2969.0 3158.0 3285.0 3288.0 3648.0 4333.0 
43.0 1658.0 1796.0 2562.0 2962.0 3017.0 3069.0 3071.0 4333.0 4417.0 4987.0 5236.0 5545.0 6086.0 6087.0 6743.0 7393.0 
27.0 80.0 375.0 791.0 887.0 887.0 1949.0 1982.0 2036.0 2040.0 3223.0 3319.0 3341.0 3610.0 4139.0 4847.0 4892.0 
155.0 155.0 536.0 735.0 1006.0 1007.0 1981.0 2009.0 2063.0 2066.0 3250.0 3361.0 3392.0 3469.0 4235.0 4900.0 4942.0 
130.0 810.0 1345.0 1383.0 1432.0 1439.0 1501.0 1514.0 2721.0 2771.0 3355.0 3661.0 3982.0 4518.0 4523.0 5072.0 5733.0 
26.0 848.0 879.0 931.0 1150.0 1595.0 2789.0 2823.0 2879.0 2879.0 4168.0 4224.0 4267.0 4313.0 4999.0 5710.0 5749.0 
45.0 90.0 100.0 1348.0 1371.0 1449.0 1602.0 2091.0 2121.0 2289.0 2602.0 2877.0 2885.0 3133.0 3148.0 3754.0 4449.0 
38.0 1504.0 1645.0 2409.0 2831.0 2866.0 2932.0 2934.0 4227.0 4304.0 4896.0 5185.0 5493.0 6037.0 6041.0 6606.0 7321.0 

