147.0 969.0 971.0 1008.0 1054.0 1056.0 1825.0 1833.0 1898.0 1949.0 2064.0 2506.0 3212.0 3260.0 3291.0 3311.0 3377.0 
143.0 832.0 863.0 919.0 920.0 1713.0 1729.0 1788.0 1907.0 1963.0 2121.0 3084.0 3137.0 3168.0 3212.0 3320.0 3524.0 
48.0 104.0 105.0 576.0 851.0 863.0 869.0 874.0 986.0 1086.0 1095.0 2193.0 2193.0 2246.0 2287.0 2373.0 2392.0 
121.0 264.0 273.0 504.0 869.0 929.0 976.0 985.0 1512.0 1552.0 1603.0 1638.0 1784.0 1796.0 3173.0 3225.0 3255.0 
40.0 135.0 230.0 264.0 848.0 876.0 932.0 935.0 1319.0 1357.0 1476.0 1645.0 1720.0 1742.0 3152.0 3468.0 3476.0 
40.0 162.0 286.0 290.0 849.0 883.0 936.0 945.0 1337.0 1338.0 1478.0 1498.0 1712.0 1748.0 3134.0 3160.0 3215.0 
1327.0 1342.0 1372.0 1478.0 1597.0 2099.0 2132.0 2174.0 2187.0 2701.0 2726.0 2823.0 2939.0 3069.0 4450.0 4459.0 4498.0 
1360.0 1389.0 1496.0 1615.0 1624.0 2121.0 2156.0 2209.0 2214.0 2760.0 2852.0 2938.0 2978.0 3017.0 4395.0 4433.0 4492.0 
66.0 2277.0 2312.0 2365.0 2369.0 2961.0 3076.0 3118.0 3122.0 3128.0 3217.0 3245.0 3448.0 4446.0 4475.0 4489.0 4562.0 
27.0 81.0 85.0 695.0 777.0 846.0 849.0 899.0 962.0 1008.0 2090.0 2098.0 2171.0 2190.0 2281.0 2311.0 2636.0 
56.0 85.0 99.0 684.0 856.0 896.0 950.0 956.0 975.0 1190.0 1194.0 2212.0 2243.0 2259.0 2307.0 2318.0 2332.0 
128.0 137.0 151.0 399.0 753.0 797.0 840.0 843.0 1329.0 1444.0 1454.0 1624.0 1643.0 1715.0 3029.0 3067.0 3116.0 
237.0 264.0 374.0 491.0 996.0 1023.0 1078.0 1078.0 1371.0 1629.0 1694.0 1876.0 1883.0 1886.0 3270.0 3334.0 3364.0 
1412.0 1502.0 1636.0 1642.0 1878.0 2339.0 2382.0 2428.0 2437.0 2979.0 3091.0 3148.0 3238.0 3515.0 4640.0 4713.0 4722.0 
37.0 2287.0 2321.0 2369.0 2372.0 3066.0 3123.0 3134.0 3143.0 3147.0 3175.0 3254.0 3374.0 4490.0 4492.0 4508.0 4587.0 

