2576.0 4151.0 4249.0 4276.0 4322.0 4354.0 5062.0 5148.0 5600.0 5685.0 5770.0 7307.0 7324.0 7668.0 7754.0 8671.0 12749.0 
340.0 426.0 2351.0 2434.0 5071.0 6558.0 6683.0 6689.0 6728.0 7118.0 7201.0 7589.0 8089.0 9140.0 9617.0 10487.0 10954.0 
89.0 328.0 2005.0 2092.0 2310.0 3849.0 3982.0 3991.0 4023.0 4404.0 4485.0 4932.0 5370.0 6384.0 6641.0 7711.0 8242.0 
1506.0 1803.0 3455.0 3505.0 4321.0 4323.0 4461.0 4466.0 4490.0 5590.0 5674.0 5770.0 5878.0 7683.0 7774.0 9613.0 11451.0 
40.0 140.0 164.0 228.0 1038.0 1123.0 1489.0 1565.0 1586.0 1670.0 3328.0 3560.0 3609.0 3697.0 4677.0 4932.0 6836.0 
26.0 162.0 181.0 259.0 973.0 1053.0 1464.0 1549.0 1636.0 1782.0 2993.0 3246.0 3539.0 3623.0 4344.0 5172.0 6713.0 
308.0 1330.0 1968.0 2021.0 2843.0 2844.0 2992.0 3010.0 3039.0 4084.0 4175.0 4259.0 4322.0 6169.0 6256.0 8488.0 9243.0 
85.0 94.0 1582.0 1705.0 1717.0 1755.0 2008.0 2099.0 2184.0 2269.0 2539.0 3328.0 4181.0 4703.0 4931.0 5505.0 7510.0 
1609.0 1610.0 1633.0 1706.0 1726.0 2609.0 2688.0 3062.0 3150.0 3234.0 3418.0 4630.0 4851.0 5133.0 5225.0 6132.0 8166.0 
89.0 417.0 2095.0 2166.0 2182.0 3624.0 3744.0 3763.0 3796.0 4236.0 4319.0 4770.0 5133.0 6252.0 6477.0 7756.0 8554.0 
82.0 822.0 904.0 944.0 959.0 985.0 1979.0 2139.0 2223.0 2271.0 2316.0 2520.0 3328.0 4271.0 4367.0 5884.0 7423.0 
32.0 125.0 137.0 167.0 811.0 890.0 1325.0 1419.0 1501.0 1706.0 2814.0 3100.0 3368.0 3457.0 4160.0 5437.0 6932.0 
132.0 157.0 238.0 264.0 946.0 1034.0 1436.0 1524.0 1569.0 1609.0 2966.0 3221.0 3501.0 3591.0 4335.0 5258.0 6482.0 
101.0 185.0 1834.0 1958.0 1968.0 1995.0 2276.0 2308.0 2360.0 2403.0 2790.0 3366.0 4295.0 4524.0 5070.0 5642.0 7145.0 
297.0 1622.0 2164.0 2270.0 3083.0 3173.0 3295.0 3314.0 3342.0 4344.0 4436.0 4539.0 4722.0 6435.0 6535.0 8500.0 9431.0 

