142.0 2379.0 2418.0 2474.0 2476.0 3704.0 3775.0 3780.0 3824.0 3827.0 4019.0 4363.0 4487.0 4562.0 4661.0 5319.0 5333.0 
151.0 2299.0 2331.0 2386.0 2387.0 3623.0 3676.0 3742.0 3745.0 3769.0 3856.0 4292.0 4405.0 4452.0 4542.0 5410.0 5568.0 
89.0 830.0 905.0 2090.0 2134.0 2178.0 2183.0 2463.0 2467.0 3508.0 3593.0 3715.0 3720.0 4130.0 4246.0 5115.0 5792.0 
44.0 123.0 259.0 874.0 960.0 1405.0 1440.0 1491.0 1493.0 2818.0 2878.0 3581.0 3676.0 4275.0 4352.0 4357.0 5012.0 
150.0 839.0 938.0 1659.0 1687.0 1866.0 1909.0 1957.0 1959.0 3264.0 3319.0 3383.0 3400.0 3930.0 4045.0 4772.0 5626.0 
147.0 270.0 274.0 1348.0 1382.0 1440.0 1446.0 1636.0 1756.0 2762.0 2894.0 3569.0 3659.0 4275.0 4308.0 4315.0 6088.0 
41.0 93.0 106.0 1270.0 1363.0 1390.0 1391.0 1499.0 1594.0 1940.0 2049.0 2171.0 2259.0 2908.0 3122.0 3133.0 4737.0 
29.0 86.0 90.0 1340.0 1347.0 1458.0 1461.0 1466.0 1497.0 1975.0 2089.0 2149.0 2240.0 2854.0 3031.0 3194.0 4803.0 
33.0 1528.0 1669.0 2341.0 2433.0 2830.0 2875.0 2930.0 2938.0 4177.0 4295.0 4299.0 4458.0 4938.0 5053.0 5745.0 7665.0 
79.0 977.0 991.0 2173.0 2202.0 2265.0 2265.0 2533.0 2677.0 3547.0 3609.0 3668.0 3672.0 4261.0 4383.0 5861.0 6971.0 
110.0 868.0 958.0 991.0 998.0 2292.0 2327.0 2387.0 2389.0 3718.0 3794.0 4462.0 4565.0 5208.0 5255.0 5258.0 7265.0 
129.0 132.0 145.0 752.0 877.0 1262.0 1300.0 1354.0 1354.0 2677.0 2896.0 3438.0 3528.0 4118.0 4213.0 4230.0 6019.0 
37.0 125.0 270.0 881.0 1065.0 1553.0 1591.0 1648.0 1650.0 2977.0 3192.0 3741.0 3831.0 4474.0 4624.0 4675.0 6252.0 
30.0 91.0 94.0 1330.0 1355.0 1410.0 1419.0 1474.0 1479.0 2070.0 2095.0 2156.0 2185.0 2833.0 2880.0 2992.0 4825.0 
37.0 1528.0 1682.0 2337.0 2421.0 2854.0 2896.0 2943.0 2952.0 4313.0 4396.0 4519.0 4526.0 4949.0 5058.0 5764.0 7691.0 

