213.0 708.0 931.0 1652.0 1882.0 2159.0 2245.0 2305.0 2362.0 2412.0 3807.0 4838.0 5246.0 5439.0 5869.0 5923.0 6348.0 
140.0 776.0 802.0 1219.0 1415.0 2208.0 2352.0 2468.0 2864.0 3110.0 4011.0 4657.0 4924.0 5056.0 5145.0 5165.0 5421.0 
60.0 122.0 203.0 539.0 566.0 889.0 899.0 911.0 979.0 986.0 1077.0 2048.0 2067.0 2122.0 2239.0 2244.0 2290.0 
55.0 136.0 140.0 258.0 269.0 872.0 887.0 925.0 1038.0 1412.0 1427.0 1454.0 1473.0 1545.0 1558.0 1606.0 1617.0 
58.0 155.0 178.0 365.0 419.0 798.0 862.0 863.0 886.0 1443.0 1467.0 1515.0 1562.0 1700.0 1717.0 1720.0 2801.0 
63.0 149.0 163.0 455.0 540.0 846.0 879.0 935.0 1321.0 1425.0 1462.0 1512.0 1635.0 1659.0 1702.0 2045.0 2131.0 
34.0 101.0 103.0 367.0 377.0 1353.0 1356.0 1381.0 1490.0 1517.0 2378.0 2475.0 2959.0 3007.0 3033.0 3045.0 4832.0 
37.0 99.0 103.0 310.0 348.0 1351.0 1460.0 1784.0 1938.0 1940.0 2007.0 2653.0 2731.0 3162.0 3345.0 3588.0 4225.0 
37.0 358.0 386.0 386.0 474.0 1562.0 1566.0 1590.0 1593.0 1631.0 2303.0 2596.0 2759.0 2880.0 3106.0 4342.0 4847.0 
43.0 87.0 98.0 574.0 579.0 825.0 830.0 849.0 862.0 922.0 1006.0 1952.0 1970.0 1984.0 2060.0 2302.0 2508.0 
43.0 158.0 332.0 650.0 700.0 855.0 857.0 865.0 917.0 940.0 947.0 2116.0 2177.0 2179.0 2297.0 2342.0 2618.0 
37.0 146.0 147.0 161.0 172.0 798.0 800.0 857.0 937.0 1193.0 1288.0 1299.0 1335.0 1350.0 1499.0 1629.0 1831.0 
59.0 154.0 164.0 381.0 382.0 936.0 1043.0 1164.0 1514.0 1558.0 1559.0 1596.0 1630.0 1632.0 1716.0 1759.0 1902.0 
38.0 102.0 103.0 470.0 474.0 1332.0 1473.0 1505.0 1524.0 1627.0 1700.0 2045.0 2058.0 2359.0 2405.0 2755.0 4549.0 
88.0 322.0 326.0 374.0 412.0 1525.0 1598.0 1621.0 1641.0 1751.0 1831.0 2156.0 2289.0 2493.0 2519.0 4405.0 4978.0 

