239.0 671.0 1348.0 1440.0 1825.0 1846.0 1957.0 2128.0 2194.0 3041.0 4325.0 5092.0 5303.0 6147.0 6455.0 8925.0 9126.0 
200.0 785.0 1330.0 1717.0 1781.0 1881.0 2118.0 2130.0 2219.0 2323.0 2924.0 4037.0 5182.0 5252.0 6003.0 6423.0 8779.0 
42.0 88.0 91.0 497.0 537.0 832.0 862.0 873.0 898.0 939.0 1016.0 2012.0 2156.0 2192.0 2206.0 2314.0 2314.0 
53.0 129.0 131.0 238.0 284.0 846.0 878.0 906.0 1029.0 1325.0 1342.0 1367.0 1407.0 1418.0 1434.0 1570.0 1610.0 
40.0 147.0 156.0 270.0 273.0 782.0 796.0 826.0 834.0 1281.0 1318.0 1364.0 1426.0 1433.0 1608.0 1608.0 1723.0 
81.0 164.0 200.0 239.0 280.0 811.0 840.0 884.0 1284.0 1364.0 1382.0 1439.0 1464.0 1607.0 1659.0 1660.0 1699.0 
43.0 101.0 117.0 443.0 471.0 1311.0 1374.0 1407.0 1455.0 1484.0 1933.0 1980.0 2030.0 2060.0 2636.0 2898.0 3294.0 
36.0 93.0 99.0 296.0 466.0 1241.0 1324.0 1417.0 1453.0 1583.0 1954.0 1996.0 2002.0 2006.0 3081.0 3145.0 3153.0 
37.0 294.0 386.0 424.0 475.0 1502.0 1583.0 1597.0 1743.0 1772.0 2278.0 2329.0 2337.0 2861.0 2880.0 3298.0 4652.0 
64.0 103.0 125.0 403.0 542.0 755.0 797.0 807.0 859.0 863.0 870.0 1984.0 2025.0 2061.0 2219.0 2241.0 2261.0 
93.0 153.0 153.0 533.0 664.0 842.0 844.0 849.0 852.0 925.0 1014.0 2267.0 2272.0 2276.0 2286.0 2335.0 2382.0 
161.0 316.0 326.0 330.0 337.0 913.0 914.0 960.0 965.0 1189.0 1367.0 1370.0 1426.0 1432.0 1559.0 1665.0 1739.0 
154.0 156.0 175.0 391.0 410.0 905.0 934.0 1126.0 1407.0 1490.0 1533.0 1542.0 1564.0 1710.0 1717.0 1822.0 1911.0 
49.0 98.0 108.0 365.0 374.0 1347.0 1428.0 1429.0 1431.0 1440.0 1496.0 2015.0 2068.0 2130.0 2138.0 2654.0 4064.0 
46.0 299.0 380.0 385.0 431.0 1590.0 1633.0 1649.0 1650.0 1653.0 1674.0 2262.0 2273.0 2544.0 2545.0 3204.0 5459.0 

