204.0 821.0 836.0 1310.0 2121.0 2188.0 2308.0 2387.0 2770.0 2800.0 3638.0 4795.0 4954.0 4971.0 4972.0 5096.0 5337.0 
203.0 753.0 1109.0 1147.0 1392.0 2108.0 2155.0 2360.0 2998.0 3235.0 3323.0 4727.0 4846.0 4952.0 5093.0 5747.0 5787.0 
56.0 86.0 94.0 534.0 838.0 855.0 913.0 928.0 929.0 1020.0 1477.0 2065.0 2079.0 2094.0 2127.0 2265.0 2554.0 
48.0 175.0 176.0 285.0 310.0 887.0 917.0 1047.0 1138.0 1348.0 1373.0 1394.0 1416.0 1484.0 1577.0 1645.0 1646.0 
51.0 167.0 187.0 293.0 322.0 772.0 792.0 823.0 879.0 1305.0 1342.0 1402.0 1440.0 1580.0 1641.0 2080.0 2843.0 
54.0 144.0 161.0 313.0 512.0 773.0 834.0 864.0 1320.0 1410.0 1448.0 1507.0 1646.0 1761.0 1855.0 2260.0 2299.0 
40.0 104.0 110.0 369.0 370.0 1307.0 1319.0 1373.0 1374.0 1403.0 2263.0 2501.0 2814.0 2918.0 2964.0 3078.0 3511.0 
61.0 112.0 118.0 309.0 311.0 1372.0 1628.0 1743.0 1845.0 1980.0 2009.0 2599.0 2740.0 2754.0 3207.0 3390.0 4260.0 
36.0 312.0 328.0 381.0 411.0 1511.0 1551.0 1587.0 1592.0 1604.0 2243.0 2299.0 2730.0 2876.0 2956.0 4883.0 5259.0 
53.0 103.0 110.0 492.0 561.0 862.0 866.0 875.0 883.0 951.0 955.0 1918.0 1945.0 2007.0 2186.0 2217.0 2267.0 
62.0 118.0 154.0 528.0 543.0 840.0 841.0 877.0 878.0 940.0 954.0 2075.0 2102.0 2105.0 2186.0 2299.0 2337.0 
50.0 134.0 181.0 198.0 207.0 822.0 824.0 851.0 910.0 1234.0 1261.0 1287.0 1333.0 1356.0 1536.0 1651.0 1725.0 
52.0 146.0 154.0 277.0 277.0 906.0 947.0 1010.0 1402.0 1406.0 1426.0 1443.0 1443.0 1453.0 1617.0 1787.0 1810.0 
83.0 125.0 126.0 436.0 457.0 1407.0 1418.0 1422.0 1438.0 1465.0 1577.0 2066.0 2092.0 2114.0 2195.0 2797.0 4602.0 
31.0 330.0 354.0 430.0 430.0 1534.0 1546.0 1584.0 1601.0 1675.0 1677.0 2192.0 2283.0 2524.0 2763.0 4353.0 4994.0 

