681.0 872.0 1670.0 1706.0 1729.0 1749.0 1817.0 1862.0 2872.0 3150.0 3295.0 3377.0 3402.0 3411.0 3664.0 4003.0 6537.0 
1299.0 1349.0 1560.0 2310.0 2436.0 2865.0 2943.0 3014.0 3116.0 3296.0 3304.0 3307.0 4769.0 4872.0 4999.0 5121.0 7616.0 
233.0 788.0 1100.0 1113.0 1171.0 1183.0 1294.0 1308.0 2687.0 2688.0 2818.0 2826.0 2854.0 2890.0 3076.0 3249.0 5258.0 
397.0 1134.0 1160.0 1705.0 2072.0 2117.0 2199.0 2243.0 3525.0 3657.0 3669.0 3715.0 3723.0 3795.0 4001.0 4199.0 6124.0 
372.0 411.0 906.0 1225.0 1445.0 1921.0 1944.0 2171.0 2283.0 2287.0 2371.0 2863.0 3543.0 3641.0 3738.0 3965.0 6365.0 
471.0 891.0 1048.0 1478.0 1747.0 1795.0 1858.0 1927.0 3439.0 3474.0 3475.0 3501.0 3531.0 3760.0 3875.0 7997.0 10588.0 
411.0 1609.0 1665.0 1834.0 2347.0 2567.0 3198.0 3371.0 3374.0 3388.0 3450.0 4302.0 4644.0 4664.0 4797.0 5074.0 7206.0 
659.0 1718.0 2214.0 2416.0 2815.0 3144.0 3197.0 3287.0 3333.0 3404.0 4505.0 4546.0 4715.0 4871.0 4976.0 5535.0 7139.0 
451.0 1747.0 1802.0 1932.0 2817.0 2955.0 3502.0 3552.0 3892.0 3919.0 4097.0 4395.0 5117.0 5285.0 5372.0 5611.0 7521.0 
924.0 953.0 1829.0 1839.0 1950.0 2493.0 2497.0 2785.0 2855.0 2861.0 2957.0 3995.0 4037.0 4120.0 4320.0 4363.0 6713.0 
2299.0 2357.0 4741.0 4866.0 5827.0 5839.0 5864.0 5889.0 5952.0 6050.0 6820.0 7219.0 7222.0 7244.0 7510.0 7698.0 8415.0 
141.0 345.0 970.0 1001.0 1196.0 1675.0 1715.0 1880.0 2048.0 2048.0 2059.0 3018.0 3335.0 3448.0 3505.0 3579.0 5918.0 
959.0 1184.0 1569.0 1669.0 1906.0 1935.0 1981.0 2010.0 2099.0 2100.0 3264.0 3371.0 3454.0 3467.0 3628.0 4318.0 5931.0 
69.0 2644.0 2971.0 3097.0 3098.0 3944.0 4011.0 4071.0 4128.0 4169.0 4186.0 5221.0 5487.0 5528.0 5669.0 5704.0 6190.0 
346.0 1795.0 2699.0 2924.0 3349.0 3618.0 3669.0 3803.0 3810.0 3838.0 5032.0 5117.0 5246.0 5403.0 5494.0 5834.0 7572.0 

