345.0 2289.0 2342.0 2468.0 2577.0 3158.0 3296.0 3305.0 3417.0 3849.0 4025.0 4075.0 4133.0 4150.0 4257.0 5422.0 5905.0 
233.0 1302.0 1361.0 1564.0 2253.0 2315.0 2426.0 2503.0 2685.0 2846.0 2977.0 3055.0 3255.0 3332.0 3508.0 4549.0 4983.0 
911.0 1007.0 1073.0 1761.0 1836.0 1993.0 2535.0 2537.0 2730.0 2825.0 2863.0 2924.0 3358.0 3446.0 3905.0 4001.0 4476.0 
375.0 471.0 1000.0 1058.0 1175.0 1859.0 1878.0 2034.0 2916.0 3416.0 3500.0 3770.0 3839.0 4248.0 4988.0 5858.0 5949.0 
153.0 449.0 980.0 1124.0 1246.0 1858.0 1872.0 2050.0 2871.0 3276.0 3420.0 3841.0 3953.0 4037.0 4462.0 4940.0 5552.0 
226.0 527.0 872.0 932.0 1032.0 1815.0 1825.0 2009.0 2868.0 3166.0 3550.0 3629.0 3825.0 4373.0 4803.0 5155.0 5503.0 
1460.0 1516.0 1638.0 2331.0 2385.0 2478.0 2495.0 3050.0 3081.0 3183.0 3295.0 3306.0 3402.0 3470.0 4510.0 4628.0 5126.0 
1482.0 1532.0 1659.0 2334.0 2396.0 2509.0 3180.0 3304.0 3311.0 3324.0 3372.0 3409.0 3457.0 3687.0 4435.0 4607.0 5059.0 
2458.0 2651.0 2760.0 3370.0 3395.0 3426.0 3484.0 3494.0 3626.0 4445.0 4740.0 4970.0 5222.0 5333.0 5591.0 6323.0 7095.0 
76.0 166.0 1012.0 1067.0 1087.0 1109.0 1116.0 1249.0 2025.0 2514.0 2684.0 2859.0 2973.0 3014.0 3168.0 4009.0 4729.0 
233.0 277.0 1177.0 1242.0 1362.0 1378.0 1401.0 1445.0 2288.0 2615.0 2857.0 3037.0 3105.0 3359.0 4202.0 4795.0 4825.0 
69.0 346.0 902.0 972.0 1123.0 1181.0 1629.0 1763.0 1923.0 1938.0 2030.0 2051.0 2255.0 3140.0 3157.0 3352.0 3943.0 
314.0 367.0 1126.0 1164.0 1236.0 1379.0 1673.0 2045.0 2055.0 2149.0 2243.0 2277.0 2387.0 2665.0 3321.0 3459.0 3638.0 
1729.0 1781.0 2145.0 2835.0 2975.0 3033.0 3143.0 3447.0 3788.0 3833.0 3954.0 3959.0 4041.0 4477.0 4895.0 5458.0 5693.0 
1745.0 1802.0 2007.0 2739.0 2790.0 2880.0 2974.0 3460.0 3553.0 3625.0 3764.0 3773.0 3774.0 4087.0 4810.0 5014.0 5415.0 

