402.0 762.0 829.0 913.0 1423.0 1726.0 1884.0 1910.0 1937.0 1969.0 3139.0 3264.0 3371.0 3479.0 3536.0 3586.0 5708.0 
752.0 905.0 1013.0 1227.0 1582.0 1963.0 1965.0 2003.0 2013.0 2115.0 3409.0 3425.0 3511.0 3511.0 3528.0 3733.0 6036.0 
2636.0 3147.0 3533.0 6722.0 6954.0 7146.0 7714.0 7726.0 7765.0 7780.0 7782.0 7880.0 7895.0 7977.0 9112.0 9113.0 9275.0 
952.0 1011.0 1081.0 1763.0 1897.0 1928.0 1949.0 1961.0 2058.0 2488.0 3334.0 3499.0 3529.0 3571.0 3753.0 3769.0 5924.0 
89.0 1015.0 1073.0 1156.0 1854.0 1983.0 2002.0 2010.0 2112.0 2171.0 3461.0 3632.0 3635.0 3661.0 3854.0 3885.0 6054.0 
144.0 873.0 969.0 1003.0 1796.0 1812.0 1821.0 1879.0 1965.0 2059.0 3274.0 3389.0 3480.0 3484.0 3672.0 3700.0 5857.0 
263.0 368.0 2199.0 2318.0 2490.0 3240.0 3258.0 3270.0 3275.0 3307.0 3309.0 3309.0 3380.0 4686.0 4792.0 5287.0 7332.0 
216.0 241.0 2219.0 2294.0 2390.0 3006.0 3218.0 3219.0 3338.0 3355.0 3356.0 3443.0 3484.0 4562.0 4716.0 4829.0 7160.0 
118.0 471.0 2489.0 2580.0 2638.0 3039.0 3317.0 3531.0 3564.0 3579.0 3585.0 3620.0 3655.0 3703.0 4781.0 4791.0 5005.0 
68.0 330.0 908.0 962.0 1125.0 1131.0 1156.0 1260.0 1271.0 1319.0 2345.0 2412.0 2416.0 2601.0 2826.0 2834.0 4977.0 
276.0 373.0 1076.0 1105.0 1215.0 1249.0 1285.0 1359.0 1361.0 1397.0 2802.0 2827.0 2857.0 2921.0 2957.0 3165.0 5522.0 
63.0 1002.0 1082.0 1119.0 1752.0 2055.0 2064.0 2065.0 2074.0 3287.0 3450.0 3537.0 3547.0 3726.0 3802.0 3930.0 5845.0 
1024.0 1121.0 1313.0 2008.0 2141.0 2155.0 2162.0 2184.0 2245.0 2253.0 3397.0 3425.0 3572.0 3574.0 3819.0 3833.0 5982.0 
294.0 296.0 2337.0 2540.0 2593.0 3298.0 3367.0 3405.0 3421.0 3433.0 3436.0 3518.0 3532.0 4639.0 4846.0 4896.0 7424.0 
147.0 558.0 2464.0 2690.0 2747.0 3180.0 3286.0 3515.0 3519.0 3523.0 3542.0 3596.0 3622.0 3959.0 4938.0 4944.0 5061.0 

