641.0 952.0 953.0 961.0 1413.0 1605.0 1691.0 1858.0 1881.0 3144.0 3200.0 3288.0 3346.0 3376.0 3667.0 4722.0 7518.0 
2947.0 2949.0 3033.0 3095.0 4671.0 5240.0 5468.0 5540.0 5629.0 5855.0 6163.0 6215.0 6239.0 6366.0 6392.0 7740.0 7854.0 
161.0 228.0 438.0 855.0 1126.0 1216.0 1249.0 1308.0 1338.0 2333.0 2472.0 2541.0 2700.0 2929.0 2995.0 4022.0 6624.0 
151.0 209.0 288.0 1081.0 1122.0 1218.0 1272.0 1661.0 1692.0 1829.0 2137.0 3354.0 3507.0 3565.0 3850.0 5075.0 7735.0 
900.0 969.0 1008.0 1834.0 1913.0 1918.0 2013.0 2309.0 2444.0 2752.0 2841.0 4094.0 4242.0 4304.0 4630.0 5833.0 8386.0 
1487.0 1686.0 1855.0 2144.0 4293.0 4300.0 4397.0 4442.0 4934.0 5214.0 5265.0 5289.0 5436.0 5448.0 6859.0 7098.0 7472.0 
1510.0 1592.0 1612.0 1758.0 2432.0 2521.0 2567.0 2585.0 3010.0 3364.0 3491.0 4981.0 5081.0 5173.0 5472.0 6704.0 10105.0 
344.0 378.0 841.0 1676.0 2802.0 2956.0 3004.0 3060.0 3673.0 3731.0 3821.0 3858.0 3944.0 3956.0 5329.0 5558.0 7889.0 
1833.0 2008.0 2108.0 2143.0 2733.0 2809.0 2876.0 2883.0 3325.0 3448.0 3695.0 5001.0 5143.0 5249.0 5511.0 6715.0 11356.0 
116.0 241.0 278.0 659.0 1001.0 1092.0 1109.0 1198.0 1220.0 2349.0 2475.0 2564.0 2565.0 2854.0 2869.0 4111.0 7435.0 
213.0 365.0 444.0 926.0 929.0 972.0 1170.0 1208.0 1289.0 2470.0 2498.0 2637.0 2708.0 2796.0 3020.0 4247.0 7641.0 
65.0 258.0 293.0 985.0 1116.0 1127.0 1204.0 1670.0 1681.0 1895.0 2049.0 3294.0 3374.0 3450.0 3747.0 4961.0 8354.0 
1044.0 1192.0 1284.0 1345.0 1384.0 2036.0 2049.0 2234.0 2266.0 3304.0 3375.0 3453.0 3664.0 3763.0 3944.0 5022.0 8348.0 
149.0 238.0 647.0 1702.0 2724.0 2750.0 2845.0 2970.0 3458.0 3665.0 3736.0 3791.0 3899.0 3943.0 5322.0 5745.0 7451.0 
499.0 638.0 719.0 2249.0 2799.0 3000.0 3042.0 3136.0 3711.0 3772.0 3808.0 3872.0 3892.0 3940.0 4644.0 5345.0 5570.0 

