650.0 788.0 1585.0 1688.0 1712.0 1758.0 3097.0 3231.0 3276.0 3296.0 3413.0 3987.0 4689.0 4864.0 5829.0 6731.0 7646.0 
810.0 1138.0 3388.0 3492.0 3574.0 3625.0 4591.0 5049.0 5063.0 5125.0 5208.0 5296.0 5325.0 5920.0 6069.0 6454.0 7023.0 
316.0 862.0 1004.0 1060.0 1094.0 1175.0 2475.0 2566.0 2636.0 2669.0 2872.0 3456.0 4216.0 4238.0 4887.0 6355.0 7033.0 
266.0 360.0 488.0 1110.0 1264.0 1624.0 1838.0 1917.0 2005.0 2019.0 2197.0 2740.0 3576.0 3584.0 4539.0 5510.0 6477.0 
366.0 1652.0 1729.0 1818.0 1827.0 1964.0 3207.0 3216.0 3373.0 3447.0 4073.0 4214.0 4300.0 4735.0 5176.0 5339.0 6670.0 
228.0 244.0 371.0 1097.0 1250.0 1629.0 1644.0 1729.0 1815.0 1821.0 2151.0 2562.0 3385.0 3418.0 4309.0 5449.0 6359.0 
307.0 401.0 449.0 1281.0 2039.0 2175.0 2190.0 2295.0 2325.0 2375.0 2892.0 3060.0 3121.0 3582.0 3974.0 4209.0 5861.0 
118.0 245.0 335.0 1202.0 2083.0 2092.0 2132.0 2201.0 2232.0 2265.0 2960.0 2968.0 3108.0 3592.0 4063.0 4118.0 5731.0 
449.0 587.0 684.0 728.0 2023.0 2060.0 2071.0 2129.0 2205.0 2247.0 2879.0 3031.0 3056.0 3467.0 3951.0 4167.0 6322.0 
166.0 566.0 2283.0 2371.0 2451.0 2458.0 3158.0 3897.0 3961.0 4059.0 4066.0 4123.0 4132.0 4767.0 4917.0 5406.0 5844.0 
195.0 621.0 2620.0 2722.0 2815.0 2867.0 3515.0 4315.0 4364.0 4389.0 4455.0 4511.0 4635.0 5326.0 5401.0 5844.0 6338.0 
92.0 233.0 272.0 962.0 1105.0 1483.0 1598.0 1770.0 1853.0 1872.0 2053.0 2548.0 3329.0 3373.0 4205.0 5340.0 7979.0 
341.0 1676.0 1759.0 1839.0 1851.0 2025.0 3311.0 3421.0 3488.0 3490.0 4168.0 4315.0 4321.0 4781.0 5249.0 5476.0 6924.0 
163.0 318.0 319.0 1095.0 1839.0 1905.0 1927.0 2008.0 2011.0 2059.0 2709.0 2861.0 2906.0 3279.0 3740.0 4020.0 5890.0 
1706.0 1786.0 1936.0 1938.0 2642.0 2729.0 3230.0 3326.0 3550.0 3575.0 3598.0 4252.0 5057.0 5074.0 5924.0 7045.0 8311.0 

