733.0 2411.0 2741.0 3265.0 3415.0 3495.0 4099.0 4220.0 4331.0 5274.0 5620.0 6070.0 7379.0 7460.0 7482.0 7781.0 7926.0 
1457.0 2329.0 2402.0 2508.0 2594.0 2988.0 3307.0 3310.0 3494.0 3502.0 4666.0 5142.0 6390.0 6461.0 6475.0 7029.0 8012.0 
615.0 1069.0 1922.0 1987.0 2091.0 2502.0 2696.0 2869.0 2977.0 3482.0 4150.0 4577.0 5927.0 5964.0 6015.0 7282.0 7714.0 
398.0 1045.0 1087.0 1102.0 1978.0 3071.0 3625.0 3820.0 3867.0 4029.0 4076.0 5235.0 5447.0 5480.0 5565.0 5735.0 5755.0 
335.0 1587.0 1704.0 1819.0 3209.0 3322.0 4156.0 4627.0 4679.0 4793.0 4976.0 5137.0 5305.0 5574.0 5680.0 9286.0 9364.0 
560.0 963.0 1000.0 1025.0 1896.0 2935.0 3391.0 3655.0 3845.0 3861.0 3904.0 5118.0 5195.0 5203.0 5457.0 5618.0 5716.0 
127.0 5049.0 6324.0 6506.0 7233.0 7297.0 7406.0 8296.0 8740.0 9035.0 9111.0 9195.0 9241.0 10395.0 10449.0 10542.0 10892.0 
189.0 635.0 1480.0 1924.0 2023.0 2031.0 2219.0 2299.0 2397.0 2587.0 3069.0 3230.0 3367.0 3571.0 4511.0 6719.0 8043.0 
554.0 677.0 2047.0 2062.0 2155.0 2275.0 3150.0 3730.0 3849.0 3954.0 4097.0 4171.0 4665.0 4679.0 4786.0 8259.0 8340.0 
85.0 255.0 1053.0 1084.0 1182.0 2071.0 2356.0 2523.0 2534.0 2820.0 2989.0 3103.0 3433.0 4126.0 4160.0 4214.0 4598.0 
229.0 284.0 1110.0 1164.0 1199.0 2178.0 2593.0 3021.0 3055.0 3140.0 3258.0 4343.0 4367.0 4396.0 4931.0 4970.0 5965.0 
1558.0 1717.0 2080.0 3100.0 3297.0 3358.0 4127.0 4610.0 4688.0 4802.0 4848.0 5135.0 5209.0 5565.0 5678.0 9286.0 10369.0 
337.0 1619.0 1742.0 1794.0 3114.0 3346.0 4225.0 4610.0 4669.0 4789.0 5057.0 5251.0 5445.0 5565.0 5673.0 9074.0 9333.0 
202.0 2548.0 3030.0 3227.0 3983.0 4076.0 4167.0 4991.0 5330.0 5845.0 5920.0 5935.0 6122.0 6808.0 7071.0 7134.0 7537.0 
1749.0 2606.0 2691.0 2786.0 2838.0 3302.0 3579.0 3676.0 4287.0 4847.0 4982.0 5311.0 6610.0 6645.0 6680.0 7118.0 7159.0 

