262.0 2690.0 2839.0 2852.0 2860.0 4244.0 4375.0 4465.0 4521.0 4592.0 4594.0 5140.0 5251.0 5302.0 5405.0 6205.0 7664.0 
474.0 2650.0 2806.0 2824.0 3301.0 4340.0 4371.0 4448.0 4595.0 4604.0 4638.0 5324.0 5356.0 5465.0 5942.0 6290.0 7912.0 
1046.0 1287.0 2673.0 2840.0 2853.0 3123.0 4179.0 4442.0 4468.0 4486.0 5164.0 5209.0 5213.0 5736.0 6143.0 7623.0 7654.0 
282.0 414.0 537.0 1460.0 1547.0 1611.0 1990.0 2039.0 2054.0 2353.0 2584.0 3690.0 3814.0 3942.0 4839.0 5362.0 7821.0 
289.0 1138.0 1831.0 1985.0 2004.0 2280.0 3388.0 3693.0 3726.0 3727.0 4356.0 4377.0 4423.0 5282.0 5386.0 6868.0 7116.0 
229.0 392.0 491.0 1177.0 1182.0 1243.0 1794.0 1795.0 1841.0 1935.0 2307.0 3441.0 3632.0 3734.0 4590.0 5378.0 7613.0 
298.0 394.0 893.0 1511.0 1809.0 1832.0 1874.0 2064.0 2148.0 2443.0 2509.0 2510.0 3079.0 3372.0 4700.0 4761.0 4896.0 
289.0 372.0 827.0 1545.0 1733.0 1768.0 1773.0 2144.0 2164.0 2416.0 2489.0 2574.0 3205.0 3420.0 4654.0 4711.0 4954.0 
1764.0 2051.0 2056.0 2076.0 2710.0 2791.0 2851.0 3352.0 3415.0 3419.0 3822.0 5077.0 5202.0 5239.0 6180.0 7443.0 7724.0 
175.0 253.0 921.0 1197.0 1201.0 1255.0 2545.0 2622.0 2635.0 2760.0 2875.0 3091.0 4397.0 4668.0 5446.0 6750.0 7826.0 
197.0 213.0 1033.0 1231.0 1258.0 1314.0 2688.0 2727.0 2727.0 2728.0 3015.0 3135.0 4329.0 4554.0 5764.0 6861.0 7657.0 
263.0 1107.0 1575.0 1789.0 1789.0 2099.0 3116.0 3312.0 3343.0 3350.0 4022.0 4048.0 4134.0 5032.0 5728.0 6411.0 6542.0 
230.0 339.0 877.0 1218.0 1301.0 1363.0 2012.0 2019.0 2076.0 2124.0 2543.0 3703.0 3708.0 3854.0 4984.0 6286.0 6977.0 
2539.0 2602.0 2753.0 3533.0 3740.0 3750.0 3779.0 5103.0 5140.0 5160.0 5458.0 5573.0 6878.0 6950.0 7991.0 9248.0 9971.0 
508.0 724.0 744.0 2123.0 2215.0 2263.0 2389.0 2427.0 2442.0 3046.0 3137.0 3179.0 3565.0 3947.0 4022.0 4299.0 5615.0 

