1105.0 1140.0 1314.0 1739.0 2233.0 3248.0 3286.0 4994.0 4998.0 5821.0 6081.0 6221.0 6779.0 7571.0 7788.0 8110.0 8527.0 
971.0 1700.0 1752.0 1892.0 2969.0 3047.0 3229.0 3361.0 3369.0 3580.0 4312.0 4667.0 4944.0 4998.0 5256.0 5935.0 7186.0 
2791.0 3215.0 4652.0 4931.0 8269.0 9096.0 9209.0 9377.0 9810.0 10256.0 11674.0 12606.0 18162.0 18301.0 19632.0 19845.0 20234.0 
1930.0 2117.0 2302.0 2800.0 3090.0 4344.0 4348.0 5882.0 6234.0 6287.0 6943.0 7070.0 8067.0 8380.0 8619.0 8955.0 9781.0 
2741.0 3241.0 4444.0 6840.0 7820.0 8643.0 8809.0 8900.0 9323.0 9937.0 11160.0 12367.0 12845.0 13028.0 14380.0 14592.0 14942.0 
315.0 689.0 1908.0 2126.0 4143.0 5929.0 6080.0 6422.0 6655.0 7127.0 7729.0 8447.0 9669.0 9670.0 9708.0 11427.0 13203.0 
2396.0 3538.0 4152.0 4720.0 4909.0 5361.0 6701.0 7120.0 8522.0 8571.0 9472.0 9598.0 10480.0 10976.0 11170.0 11509.0 12118.0 
127.0 1623.0 1718.0 2026.0 2255.0 3994.0 4123.0 4486.0 4709.0 5162.0 5734.0 6571.0 7617.0 7704.0 7707.0 9423.0 11287.0 
482.0 1876.0 2285.0 3565.0 5609.0 6315.0 6721.0 6844.0 7420.0 7936.0 9304.0 10277.0 10615.0 10756.0 12082.0 12301.0 12658.0 
186.0 346.0 715.0 1064.0 1422.0 2246.0 2746.0 3743.0 4571.0 4610.0 6187.0 6368.0 6444.0 7662.0 7880.0 8180.0 8243.0 
236.0 337.0 1014.0 1194.0 1334.0 2333.0 2475.0 4154.0 4335.0 4461.0 4812.0 4957.0 6087.0 6297.0 6523.0 6824.0 8065.0 
1302.0 1740.0 1932.0 2191.0 2538.0 2641.0 3127.0 3483.0 3596.0 5075.0 5532.0 5993.0 6378.0 6521.0 7984.0 8083.0 8394.0 
362.0 422.0 1699.0 1744.0 3908.0 5703.0 5871.0 6375.0 6376.0 6958.0 7695.0 8295.0 9393.0 9622.0 9722.0 11443.0 13196.0 
111.0 1781.0 1818.0 2159.0 2323.0 4094.0 4229.0 4283.0 4816.0 5312.0 5489.0 6672.0 7306.0 7435.0 7743.0 9194.0 10829.0 
3266.0 3895.0 4319.0 4480.0 4852.0 6852.0 8160.0 8393.0 9017.0 9153.0 9920.0 9932.0 10474.0 10703.0 11022.0 11649.0 13769.0 

