2861.0 4975.0 5015.0 5541.0 5566.0 5570.0 6864.0 7001.0 7459.0 7584.0 7839.0 7969.0 10332.0 12063.0 13223.0 13573.0 15763.0 
2095.0 2295.0 2486.0 2913.0 3114.0 3209.0 3255.0 3402.0 3485.0 3878.0 4088.0 4111.0 4117.0 4588.0 5663.0 7027.0 7382.0 
262.0 1471.0 1558.0 1657.0 1731.0 2631.0 2958.0 3110.0 3138.0 3166.0 3365.0 3782.0 4436.0 6320.0 6632.0 8714.0 8821.0 
292.0 417.0 430.0 1119.0 1478.0 1567.0 1900.0 1983.0 2136.0 2210.0 2270.0 5756.0 5933.0 7110.0 8864.0 11338.0 11449.0 
1068.0 2017.0 2191.0 2338.0 2480.0 3568.0 3570.0 3739.0 4035.0 4219.0 4375.0 5466.0 6811.0 7962.0 8504.0 10973.0 11034.0 
1605.0 2008.0 2169.0 3188.0 3457.0 3460.0 3605.0 4227.0 4509.0 4590.0 4668.0 4791.0 5157.0 5309.0 5314.0 5505.0 9122.0 
159.0 624.0 1712.0 1813.0 1916.0 2024.0 2696.0 2778.0 2865.0 3444.0 3568.0 3811.0 4748.0 6516.0 8007.0 9046.0 10379.0 
142.0 452.0 1676.0 1758.0 1875.0 1985.0 2521.0 2651.0 2841.0 3344.0 3608.0 3931.0 4653.0 6340.0 8452.0 8860.0 9054.0 
514.0 585.0 2032.0 2139.0 2295.0 2320.0 2867.0 2951.0 3195.0 3696.0 3785.0 4217.0 4945.0 6788.0 8315.0 9170.0 13263.0 
2595.0 3111.0 4283.0 5683.0 7202.0 7652.0 8110.0 8322.0 8328.0 8431.0 8874.0 8966.0 9095.0 9177.0 9934.0 10333.0 14462.0 
131.0 1181.0 1302.0 1483.0 1524.0 2355.0 2525.0 2580.0 2628.0 3102.0 3339.0 3441.0 4812.0 6358.0 7557.0 8891.0 9350.0 
314.0 390.0 580.0 992.0 1521.0 1619.0 1636.0 2085.0 2163.0 2236.0 2406.0 3055.0 4421.0 6084.0 6096.0 8609.0 8813.0 
91.0 325.0 355.0 1149.0 1232.0 1301.0 1693.0 1800.0 1895.0 1982.0 2033.0 2230.0 3782.0 5037.0 6516.0 7516.0 8989.0 
1701.0 1809.0 1917.0 2124.0 2501.0 3102.0 3172.0 3462.0 3542.0 3609.0 3911.0 4267.0 4488.0 6049.0 7380.0 9797.0 9909.0 
533.0 2000.0 2998.0 3567.0 5105.0 5360.0 5725.0 5926.0 6529.0 6614.0 6738.0 6917.0 6982.0 7343.0 7480.0 7759.0 11753.0 

