364.0 1433.0 1518.0 1668.0 1795.0 1892.0 2355.0 2454.0 2587.0 2594.0 3656.0 3711.0 4912.0 4965.0 5397.0 5673.0 6653.0 
252.0 1344.0 2566.0 2638.0 2836.0 2905.0 3496.0 3595.0 3746.0 3750.0 4632.0 4647.0 5845.0 5907.0 6541.0 6897.0 7579.0 
253.0 355.0 373.0 1310.0 1332.0 1452.0 1639.0 2219.0 2506.0 3055.0 3894.0 4009.0 5216.0 5252.0 5317.0 5331.0 7024.0 
263.0 394.0 542.0 638.0 1200.0 1381.0 1415.0 1520.0 1524.0 2303.0 2392.0 2862.0 3623.0 3718.0 4281.0 4401.0 5352.0 
382.0 426.0 571.0 735.0 944.0 1078.0 1213.0 1219.0 1575.0 1734.0 2874.0 2914.0 2986.0 3059.0 3701.0 3972.0 4728.0 
1787.0 2220.0 2451.0 2468.0 4016.0 4382.0 4383.0 4536.0 4671.0 4908.0 5044.0 5175.0 5178.0 6752.0 6786.0 7945.0 8073.0 
226.0 299.0 369.0 1644.0 2040.0 2060.0 2187.0 2207.0 2331.0 2558.0 2736.0 2877.0 2879.0 4240.0 4342.0 5653.0 5657.0 
83.0 218.0 278.0 1672.0 1977.0 2036.0 2066.0 2274.0 2337.0 2643.0 2768.0 2906.0 2910.0 4165.0 4260.0 5660.0 5736.0 
2809.0 2984.0 3063.0 3085.0 3997.0 4006.0 4143.0 4284.0 4904.0 5740.0 6269.0 6526.0 6611.0 6668.0 7868.0 7935.0 9620.0 
269.0 374.0 411.0 936.0 969.0 1078.0 1254.0 1859.0 2912.0 2937.0 3194.0 3226.0 3514.0 3563.0 4783.0 4852.0 6530.0 
144.0 263.0 286.0 1164.0 1262.0 1307.0 1545.0 2087.0 2818.0 2930.0 3130.0 3675.0 3784.0 4318.0 4949.0 4986.0 6664.0 
200.0 353.0 357.0 390.0 1048.0 1128.0 1299.0 1336.0 2037.0 2088.0 2096.0 2691.0 3361.0 3419.0 4104.0 4120.0 5110.0 
263.0 404.0 487.0 677.0 1189.0 1374.0 1491.0 1502.0 2058.0 2118.0 2223.0 2511.0 3415.0 3472.0 4294.0 4315.0 5158.0 
105.0 265.0 278.0 1739.0 1802.0 2172.0 2188.0 2322.0 2457.0 2731.0 2894.0 3010.0 3040.0 3974.0 4252.0 5786.0 5796.0 
2801.0 2986.0 3130.0 3141.0 4144.0 4159.0 4308.0 4448.0 4950.0 5833.0 5889.0 6371.0 6605.0 6673.0 7853.0 7917.0 9567.0 

