620.0 2889.0 2981.0 2987.0 3170.0 3191.0 3314.0 3345.0 3366.0 4476.0 5023.0 5282.0 5489.0 5697.0 6047.0 6400.0 9023.0 
1572.0 2787.0 3128.0 3632.0 3726.0 3791.0 5382.0 5536.0 5771.0 6124.0 6157.0 6754.0 7100.0 7252.0 7299.0 8242.0 8963.0 
1016.0 2817.0 3200.0 3718.0 3795.0 3852.0 3919.0 5470.0 5629.0 5922.0 6043.0 6272.0 6676.0 7054.0 7085.0 7223.0 8691.0 
1125.0 1941.0 1942.0 1981.0 2523.0 2615.0 2667.0 4185.0 4565.0 4696.0 4751.0 5032.0 5361.0 5788.0 5821.0 6056.0 7400.0 
554.0 1598.0 2282.0 2385.0 2747.0 2868.0 3147.0 4682.0 5641.0 5836.0 7279.0 7907.0 8228.0 8378.0 8402.0 8487.0 9941.0 
173.0 216.0 1174.0 1843.0 2767.0 3547.0 3821.0 3973.0 4047.0 4138.0 5570.0 5962.0 5982.0 6340.0 6875.0 7010.0 9349.0 
120.0 246.0 633.0 692.0 2403.0 2751.0 3347.0 3440.0 3511.0 3736.0 5043.0 5632.0 6054.0 6056.0 6114.0 6273.0 7708.0 
1593.0 1678.0 1901.0 2590.0 3675.0 4943.0 5212.0 5365.0 5495.0 5561.0 6962.0 7408.0 7497.0 7503.0 8296.0 8686.0 9697.0 
128.0 536.0 595.0 692.0 1956.0 2441.0 2838.0 2903.0 3030.0 3072.0 3092.0 3967.0 4062.0 4161.0 4245.0 4504.0 5586.0 
1093.0 1526.0 2479.0 2530.0 2623.0 3007.0 3120.0 4941.0 5836.0 6109.0 7587.0 8035.0 8240.0 8542.0 8685.0 8708.0 10254.0 
662.0 1002.0 1069.0 1181.0 2428.0 2610.0 2702.0 2852.0 2910.0 2982.0 4456.0 4878.0 4948.0 5215.0 5664.0 5992.0 7111.0 
77.0 263.0 1011.0 1577.0 2017.0 3353.0 3391.0 3546.0 3831.0 3886.0 5130.0 5569.0 5764.0 5919.0 6606.0 6790.0 7888.0 
504.0 1117.0 1840.0 1901.0 2346.0 2412.0 2822.0 4288.0 5187.0 5395.0 6594.0 7267.0 7537.0 7635.0 7713.0 7769.0 9249.0 
156.0 276.0 511.0 628.0 1781.0 2270.0 2471.0 2538.0 3357.0 3633.0 5418.0 6130.0 6738.0 7060.0 7219.0 7251.0 8810.0 
102.0 651.0 703.0 817.0 1971.0 2468.0 2733.0 2845.0 3093.0 3108.0 3208.0 3898.0 4214.0 4273.0 4402.0 5865.0 6055.0 

