2613.0 2674.0 2779.0 4213.0 4257.0 4275.0 4332.0 4383.0 5191.0 5208.0 5303.0 5322.0 5849.0 6143.0 7345.0 8781.0 10737.0 
870.0 921.0 1281.0 1791.0 1819.0 3452.0 3556.0 3642.0 4986.0 5052.0 5109.0 5156.0 5230.0 6251.0 8606.0 8688.0 10907.0 
1015.0 1087.0 1612.0 1688.0 2506.0 2718.0 2768.0 3023.0 3993.0 4038.0 4923.0 4986.0 5076.0 5652.0 5758.0 7093.0 7365.0 
122.0 378.0 546.0 1495.0 1722.0 1943.0 1989.0 2634.0 3175.0 3230.0 4114.0 4115.0 4322.0 4788.0 5152.0 6527.0 6630.0 
165.0 624.0 717.0 1123.0 1579.0 1787.0 1814.0 2439.0 3080.0 3131.0 3939.0 4072.0 4187.0 4663.0 5023.0 6773.0 6972.0 
69.0 621.0 680.0 1179.0 2333.0 3280.0 3447.0 3507.0 4751.0 4806.0 5700.0 5702.0 5832.0 6402.0 6487.0 8184.0 9152.0 
2322.0 2386.0 3180.0 3271.0 4844.0 4902.0 5028.0 5158.0 5834.0 6365.0 6390.0 6412.0 6451.0 7414.0 8563.0 10917.0 11520.0 
182.0 257.0 1450.0 1565.0 1569.0 1641.0 1735.0 2375.0 2392.0 2504.0 2734.0 2991.0 3433.0 4468.0 4835.0 5299.0 6831.0 
1714.0 1792.0 2575.0 2672.0 2752.0 3142.0 3390.0 3546.0 4960.0 4975.0 5079.0 5091.0 5144.0 6207.0 8021.0 10028.0 10464.0 
66.0 187.0 703.0 984.0 991.0 2438.0 2622.0 2678.0 2751.0 4227.0 4247.0 4303.0 4340.0 5364.0 7188.0 9338.0 9485.0 
142.0 210.0 587.0 1082.0 1126.0 2662.0 2842.0 3128.0 4273.0 4303.0 4331.0 4378.0 4637.0 5405.0 5963.0 9309.0 12084.0 
54.0 887.0 937.0 1029.0 1426.0 1626.0 1650.0 1948.0 3125.0 3152.0 3231.0 3269.0 3344.0 4160.0 5769.0 8302.0 11782.0 
70.0 328.0 433.0 1372.0 1758.0 1980.0 2010.0 3215.0 3272.0 4135.0 4149.0 4284.0 4776.0 4975.0 5182.0 6399.0 8342.0 
85.0 275.0 1581.0 1623.0 1880.0 1939.0 1978.0 2445.0 2459.0 2594.0 3134.0 3158.0 3493.0 4425.0 5096.0 7033.0 8459.0 
1988.0 2133.0 2545.0 2601.0 3249.0 5558.0 5785.0 5823.0 6964.0 7052.0 7908.0 7911.0 8054.0 8500.0 8982.0 10350.0 13256.0 

