768.0 1527.0 1847.0 1962.0 2063.0 2238.0 2678.0 3060.0 3172.0 3333.0 3454.0 3782.0 5481.0 5873.0 5925.0 8021.0 8426.0 
5498.0 5933.0 5957.0 6024.0 7687.0 7698.0 7844.0 7881.0 7950.0 8065.0 8882.0 9340.0 9405.0 9635.0 9780.0 10262.0 11526.0 
557.0 1993.0 2283.0 2409.0 2518.0 2681.0 2800.0 3443.0 3565.0 3756.0 3931.0 4230.0 5760.0 6111.0 6390.0 8823.0 9714.0 
289.0 470.0 626.0 748.0 841.0 1688.0 1793.0 1817.0 1849.0 1856.0 1992.0 2228.0 2307.0 2490.0 4348.0 7064.0 7649.0 
130.0 385.0 396.0 478.0 674.0 1330.0 1846.0 2000.0 2120.0 2308.0 2394.0 2492.0 2801.0 2977.0 4476.0 6878.0 6915.0 
121.0 200.0 462.0 612.0 634.0 1103.0 1852.0 2169.0 2206.0 2368.0 2380.0 2590.0 2984.0 3036.0 4447.0 6651.0 7016.0 
239.0 304.0 466.0 1845.0 1966.0 1982.0 2101.0 2251.0 2314.0 3177.0 3532.0 3797.0 3905.0 4402.0 4639.0 5277.0 5827.0 
365.0 1442.0 1650.0 1960.0 2105.0 2239.0 2312.0 3175.0 3342.0 3463.0 3486.0 3656.0 3956.0 4087.0 6064.0 8579.0 9449.0 
366.0 1827.0 1905.0 2287.0 2420.0 2548.0 2660.0 3479.0 3595.0 3690.0 3832.0 3902.0 4173.0 4413.0 6277.0 8363.0 8839.0 
937.0 1227.0 1292.0 1350.0 1587.0 1749.0 2964.0 3081.0 3279.0 3530.0 3650.0 4138.0 4144.0 4558.0 5600.0 8738.0 9846.0 
2613.0 2734.0 2848.0 4187.0 4243.0 4327.0 4393.0 4522.0 4604.0 4787.0 5495.0 5727.0 6110.0 6694.0 7329.0 7470.0 9237.0 
262.0 355.0 379.0 648.0 799.0 1002.0 2003.0 2121.0 2332.0 2711.0 2805.0 2954.0 3064.0 3482.0 4654.0 7694.0 7814.0 
199.0 344.0 459.0 849.0 993.0 1134.0 2064.0 2244.0 2561.0 2929.0 3000.0 3058.0 3109.0 3667.0 4409.0 6768.0 7693.0 
172.0 322.0 919.0 1781.0 1912.0 1917.0 2073.0 2085.0 2177.0 3001.0 3636.0 4001.0 4751.0 5387.0 6043.0 6830.0 8808.0 
467.0 552.0 620.0 2303.0 2322.0 2463.0 2504.0 2648.0 3114.0 3583.0 3888.0 3993.0 4354.0 4838.0 5421.0 5589.0 5593.0 

