1303.0 1370.0 2744.0 2873.0 3042.0 3581.0 3592.0 4018.0 4328.0 4363.0 4403.0 4845.0 5356.0 5403.0 5502.0 5617.0 9190.0 
2998.0 3069.0 3495.0 3499.0 3662.0 3769.0 4984.0 5273.0 5317.0 5337.0 5382.0 6302.0 6373.0 6419.0 6484.0 6571.0 7908.0 
190.0 279.0 286.0 1019.0 1244.0 2654.0 2694.0 2811.0 3111.0 3124.0 3549.0 4351.0 4380.0 4406.0 4442.0 7008.0 8562.0 
56.0 1640.0 1763.0 1821.0 2328.0 2332.0 2420.0 2786.0 3127.0 3163.0 3679.0 4255.0 4281.0 4300.0 4436.0 7779.0 9252.0 
250.0 1019.0 1111.0 1120.0 1266.0 1679.0 1813.0 1879.0 2155.0 2170.0 2588.0 3443.0 3614.0 3689.0 5787.0 6079.0 7800.0 
1706.0 1822.0 1896.0 1979.0 2156.0 2416.0 3330.0 3446.0 3493.0 3596.0 4500.0 4522.0 4544.0 4695.0 5359.0 6031.0 7604.0 
78.0 242.0 739.0 741.0 1250.0 1514.0 1671.0 1735.0 1748.0 2004.0 2757.0 2892.0 2911.0 2912.0 3008.0 4556.0 8164.0 
96.0 184.0 673.0 677.0 1128.0 1546.0 1752.0 1791.0 1850.0 1956.0 2777.0 2783.0 2807.0 2927.0 3085.0 4194.0 6336.0 
97.0 457.0 519.0 575.0 677.0 1986.0 2234.0 2245.0 2290.0 3259.0 3360.0 3389.0 3555.0 3601.0 3721.0 4850.0 5547.0 
114.0 226.0 317.0 1200.0 1452.0 2794.0 2835.0 2980.0 3277.0 3280.0 3733.0 4506.0 4587.0 4592.0 6958.0 7068.0 8887.0 
166.0 238.0 323.0 1080.0 1279.0 2712.0 2789.0 2852.0 3339.0 3355.0 3809.0 4384.0 4472.0 4597.0 5878.0 7806.0 9028.0 
1636.0 1693.0 1861.0 2352.0 2377.0 2835.0 3161.0 3281.0 3327.0 3385.0 3627.0 4324.0 4334.0 4367.0 4519.0 5945.0 7872.0 
65.0 1686.0 1686.0 1822.0 2358.0 2362.0 2400.0 2817.0 3128.0 3366.0 3600.0 4391.0 4449.0 4450.0 4591.0 4641.0 7815.0 
157.0 279.0 512.0 518.0 939.0 1585.0 1702.0 1795.0 1823.0 1930.0 2700.0 2721.0 2758.0 2918.0 3167.0 4890.0 6128.0 
144.0 553.0 564.0 712.0 796.0 2076.0 2288.0 2385.0 2452.0 3291.0 3334.0 3410.0 3556.0 3785.0 3802.0 5425.0 5611.0 

