2289.0 2457.0 2572.0 3132.0 3589.0 4268.0 4293.0 4395.0 4497.0 4513.0 5256.0 6978.0 7028.0 7608.0 8531.0 8599.0 8752.0 
906.0 1096.0 1207.0 2031.0 2070.0 2152.0 2476.0 2555.0 2773.0 2835.0 3240.0 3259.0 3524.0 3834.0 3990.0 4640.0 5474.0 
230.0 346.0 993.0 1025.0 1263.0 1275.0 1353.0 1584.0 2517.0 2616.0 2874.0 3198.0 3640.0 4221.0 4835.0 5097.0 5171.0 
125.0 424.0 1199.0 1691.0 1947.0 2006.0 2105.0 2116.0 2117.0 2414.0 2985.0 4708.0 4741.0 5044.0 6075.0 6188.0 6669.0 
1963.0 3898.0 4653.0 4791.0 4816.0 5446.0 5733.0 5746.0 5815.0 6118.0 7160.0 7329.0 7677.0 8079.0 8470.0 9744.0 9804.0 
990.0 1043.0 1106.0 1693.0 2003.0 2025.0 2034.0 2204.0 2406.0 3512.0 3670.0 3904.0 3975.0 4370.0 4722.0 6003.0 6075.0 
90.0 1534.0 2602.0 2772.0 2956.0 3721.0 3727.0 3857.0 4050.0 5143.0 5262.0 5528.0 5549.0 5641.0 7463.0 7710.0 8342.0 
88.0 1461.0 2596.0 2768.0 2885.0 3712.0 3718.0 3834.0 4051.0 5030.0 5215.0 5454.0 5475.0 5639.0 7457.0 7648.0 8076.0 
5548.0 6356.0 6523.0 6736.0 7473.0 7476.0 7551.0 7749.0 8006.0 8288.0 8381.0 8971.0 9235.0 9273.0 9399.0 10242.0 11143.0 
892.0 985.0 1122.0 2163.0 2585.0 2860.0 3086.0 3365.0 3469.0 3498.0 4374.0 5807.0 5982.0 6041.0 7737.0 8051.0 8170.0 
234.0 400.0 610.0 999.0 1173.0 1270.0 1305.0 1554.0 2369.0 2911.0 2919.0 3105.0 3624.0 3635.0 4698.0 4727.0 4766.0 
202.0 308.0 911.0 1479.0 1816.0 2079.0 2155.0 2192.0 2246.0 2414.0 3134.0 4812.0 4837.0 5466.0 6400.0 6465.0 6740.0 
229.0 292.0 957.0 1361.0 2010.0 2038.0 2064.0 2235.0 2279.0 2751.0 3112.0 4783.0 4792.0 5165.0 5989.0 6044.0 6691.0 
2532.0 2707.0 2819.0 3372.0 3559.0 3779.0 3836.0 3837.0 4053.0 4978.0 5343.0 5746.0 6122.0 6418.0 7352.0 7531.0 7642.0 
1811.0 1973.0 2783.0 2916.0 2946.0 3512.0 3825.0 3868.0 4002.0 4143.0 5304.0 5537.0 5800.0 6233.0 6566.0 7616.0 7671.0 

