238.0 1374.0 1481.0 1817.0 1985.0 2395.0 3224.0 3576.0 3606.0 3624.0 3634.0 4101.0 4248.0 4404.0 5389.0 5644.0 6597.0 
553.0 1024.0 1623.0 1634.0 1805.0 2686.0 3500.0 3832.0 3864.0 3897.0 3907.0 4420.0 4595.0 4778.0 5561.0 5828.0 6682.0 
82.0 344.0 396.0 711.0 938.0 977.0 1009.0 1342.0 1370.0 1430.0 1436.0 2643.0 2911.0 2953.0 3068.0 3389.0 4132.0 
75.0 356.0 436.0 475.0 559.0 1316.0 1429.0 1683.0 1687.0 2152.0 2282.0 2482.0 2529.0 3387.0 3990.0 4132.0 4567.0 
128.0 448.0 515.0 761.0 856.0 1408.0 1440.0 1753.0 1755.0 1761.0 1976.0 2133.0 2381.0 2938.0 4053.0 4167.0 4194.0 
200.0 425.0 502.0 658.0 759.0 1436.0 1496.0 1740.0 1741.0 1843.0 2079.0 2146.0 2314.0 3110.0 4047.0 4196.0 4534.0 
254.0 486.0 2518.0 2630.0 2841.0 2854.0 3206.0 3499.0 3524.0 3544.0 3869.0 3899.0 3931.0 3966.0 5422.0 5874.0 6855.0 
213.0 370.0 1700.0 1869.0 2140.0 2216.0 2332.0 2399.0 3158.0 3166.0 3421.0 3439.0 3794.0 4003.0 5741.0 5825.0 6235.0 
502.0 575.0 2018.0 2182.0 2417.0 2506.0 2680.0 2754.0 3474.0 3482.0 3767.0 3770.0 4101.0 4437.0 5906.0 6144.0 6327.0 
156.0 272.0 415.0 609.0 903.0 1292.0 2157.0 2451.0 2492.0 2524.0 2529.0 2990.0 3074.0 3455.0 4219.0 4476.0 5259.0 
320.0 499.0 503.0 743.0 971.0 1115.0 2057.0 2378.0 2425.0 2444.0 2500.0 2993.0 3177.0 3400.0 4115.0 4227.0 5337.0 
248.0 440.0 458.0 473.0 542.0 1075.0 1136.0 1321.0 1369.0 1684.0 1867.0 2069.0 2468.0 3149.0 4094.0 4357.0 10454.0 
123.0 247.0 346.0 363.0 512.0 1258.0 1304.0 1547.0 1558.0 1903.0 2225.0 2252.0 2507.0 3264.0 4119.0 4224.0 6596.0 
197.0 440.0 2713.0 2807.0 3081.0 3085.0 3568.0 3698.0 3793.0 3835.0 4095.0 4120.0 4164.0 4187.0 5806.0 6147.0 6957.0 
459.0 521.0 2599.0 2722.0 2954.0 2965.0 3317.0 3559.0 3662.0 3681.0 3960.0 4007.0 4018.0 4020.0 5679.0 6054.0 7415.0 

