488.0 763.0 1810.0 2413.0 2517.0 2705.0 2716.0 2973.0 2989.0 3505.0 4319.0 4495.0 5181.0 5771.0 5996.0 6824.0 8190.0 
247.0 953.0 2005.0 2781.0 2806.0 3037.0 3063.0 3129.0 3177.0 3701.0 3741.0 4656.0 4681.0 4765.0 5943.0 6007.0 8499.0 
2782.0 3197.0 4717.0 6105.0 6686.0 7730.0 8206.0 8247.0 8280.0 8440.0 8483.0 9157.0 9477.0 10135.0 10176.0 11842.0 13965.0 
147.0 255.0 295.0 1087.0 1789.0 2010.0 2128.0 2149.0 2504.0 3328.0 3874.0 5005.0 5845.0 6428.0 7215.0 7775.0 8919.0 
326.0 382.0 618.0 1317.0 1879.0 2345.0 2345.0 2362.0 2608.0 3737.0 4089.0 5224.0 5671.0 6325.0 7259.0 8066.0 8927.0 
2696.0 3054.0 5915.0 6270.0 7048.0 7535.0 8097.0 8621.0 8863.0 8885.0 9546.0 9831.0 10338.0 10501.0 10619.0 12292.0 14318.0 
201.0 2412.0 2485.0 3002.0 3199.0 3323.0 3393.0 3499.0 3612.0 3615.0 5264.0 5367.0 6037.0 8178.0 8857.0 9095.0 9920.0 
406.0 1485.0 2915.0 4538.0 5170.0 5496.0 6131.0 6749.0 6981.0 7026.0 7240.0 7667.0 7948.0 8664.0 8731.0 10477.0 12494.0 
384.0 1948.0 2881.0 3691.0 4469.0 5611.0 5887.0 5921.0 6128.0 6149.0 6752.0 6961.0 7250.0 7770.0 7903.0 9569.0 11641.0 
576.0 812.0 929.0 1030.0 1220.0 1238.0 1242.0 2512.0 2777.0 2950.0 2973.0 3573.0 5040.0 5588.0 6420.0 6852.0 7059.0 
3029.0 4891.0 4921.0 4923.0 5044.0 5788.0 6648.0 6876.0 6918.0 7174.0 8020.0 8488.0 9746.0 10978.0 11920.0 12590.0 13437.0 
191.0 297.0 317.0 1001.0 1955.0 2040.0 2098.0 2123.0 2552.0 3491.0 3823.0 5122.0 6146.0 6370.0 7411.0 7875.0 9078.0 
1034.0 1560.0 1585.0 1815.0 1954.0 1974.0 2176.0 2223.0 2758.0 3871.0 3874.0 3930.0 4383.0 6482.0 6950.0 7784.0 8111.0 
1571.0 1715.0 1781.0 1879.0 2696.0 3513.0 3743.0 3777.0 4248.0 5305.0 5438.0 6651.0 7449.0 7721.0 8887.0 9188.0 10410.0 
1807.0 1842.0 1848.0 1956.0 2736.0 3636.0 3722.0 3763.0 3946.0 4013.0 5219.0 5549.0 6586.0 8113.0 8736.0 9429.0 10364.0 

