437.0 710.0 847.0 984.0 987.0 1969.0 1997.0 2886.0 2970.0 3511.0 3670.0 4099.0 5153.0 5387.0 5435.0 5443.0 7376.0 
477.0 738.0 850.0 1001.0 1050.0 2068.0 2099.0 2846.0 3039.0 3556.0 3623.0 4102.0 5202.0 5323.0 5388.0 5451.0 7414.0 
210.0 256.0 330.0 1094.0 1292.0 1311.0 1347.0 2154.0 2452.0 2629.0 2990.0 3096.0 4358.0 4440.0 4457.0 4491.0 6427.0 
142.0 447.0 1724.0 1982.0 1985.0 2417.0 4279.0 4426.0 4560.0 4571.0 5474.0 5514.0 5518.0 5535.0 6373.0 7311.0 8559.0 
586.0 613.0 1681.0 1839.0 2089.0 2091.0 4451.0 4582.0 4734.0 4738.0 5569.0 5677.0 5711.0 5711.0 6499.0 7446.0 8711.0 
372.0 382.0 1106.0 1322.0 1416.0 1434.0 2324.0 2438.0 3472.0 3833.0 3943.0 4170.0 4289.0 5619.0 5641.0 5708.0 7571.0 
129.0 222.0 1849.0 1972.0 2024.0 2526.0 2827.0 2871.0 2892.0 3744.0 3765.0 3875.0 3903.0 3943.0 4703.0 5601.0 6937.0 
157.0 318.0 2085.0 2129.0 2142.0 2523.0 2773.0 2795.0 2825.0 3720.0 3760.0 3893.0 3907.0 3925.0 4733.0 5514.0 7041.0 
1995.0 2574.0 2576.0 3718.0 3937.0 3982.0 6382.0 6521.0 6641.0 6691.0 7490.0 7536.0 7555.0 7675.0 8543.0 9378.0 10642.0 
119.0 288.0 302.0 614.0 1288.0 1324.0 1544.0 2333.0 2738.0 2859.0 2925.0 3352.0 4351.0 4557.0 4752.0 4787.0 6547.0 
217.0 340.0 395.0 1051.0 1070.0 1161.0 1732.0 1997.0 2568.0 2756.0 3133.0 3192.0 4082.0 4248.0 4369.0 4451.0 6197.0 
73.0 330.0 1003.0 1141.0 1226.0 1244.0 2001.0 2397.0 3052.0 3682.0 3758.0 3842.0 3957.0 5553.0 5555.0 5771.0 7678.0 
112.0 414.0 1636.0 1889.0 1905.0 2240.0 4232.0 4407.0 4480.0 4489.0 5246.0 5426.0 5466.0 5599.0 6339.0 7293.0 8581.0 
347.0 353.0 1811.0 1812.0 1908.0 2649.0 2867.0 2957.0 2977.0 3728.0 3771.0 3823.0 3910.0 3992.0 4814.0 5710.0 6868.0 
2855.0 2991.0 3092.0 3104.0 3441.0 4136.0 4180.0 5081.0 5675.0 5689.0 5757.0 6101.0 7181.0 7454.0 7510.0 7535.0 9390.0 

