872.0 1172.0 2619.0 2816.0 2947.0 3227.0 3489.0 3909.0 4237.0 4336.0 4432.0 5704.0 5728.0 5896.0 7453.0 7864.0 12676.0 
2437.0 2677.0 2804.0 4313.0 4408.0 4501.0 4568.0 4836.0 5259.0 5277.0 5330.0 5958.0 6147.0 6187.0 6195.0 7997.0 11263.0 
111.0 575.0 1003.0 1231.0 1342.0 1623.0 1862.0 2466.0 2691.0 2739.0 3029.0 3885.0 4149.0 4696.0 5937.0 6085.0 10994.0 
368.0 470.0 565.0 1133.0 1404.0 1517.0 1573.0 1772.0 2005.0 2428.0 3432.0 3683.0 4278.0 5502.0 5633.0 6430.0 10555.0 
138.0 270.0 407.0 1116.0 1221.0 1288.0 1532.0 1693.0 1754.0 2047.0 3330.0 3418.0 3999.0 5253.0 5358.0 6104.0 10266.0 
57.0 308.0 468.0 1118.0 1260.0 1329.0 1583.0 1718.0 1830.0 2170.0 3175.0 3392.0 3995.0 5220.0 5383.0 6161.0 10226.0 
5178.0 7685.0 7845.0 7977.0 9564.0 9638.0 9646.0 9742.0 10005.0 10543.0 10635.0 11120.0 11318.0 11398.0 11403.0 13249.0 15367.0 
1702.0 1716.0 1748.0 1779.0 1816.0 2426.0 2780.0 2847.0 3283.0 3433.0 3544.0 3749.0 4072.0 4195.0 5533.0 7585.0 8998.0 
1939.0 2224.0 3626.0 4145.0 5179.0 5241.0 5265.0 5777.0 6244.0 6321.0 6738.0 6907.0 7025.0 7340.0 9043.0 9144.0 11010.0 
199.0 627.0 937.0 1205.0 1255.0 1768.0 1792.0 2333.0 2873.0 2889.0 3084.0 3820.0 4038.0 4925.0 5999.0 6012.0 11260.0 
1114.0 1418.0 1571.0 1627.0 2446.0 2696.0 2712.0 2906.0 2915.0 3677.0 4377.0 4616.0 5720.0 6557.0 6712.0 7380.0 11880.0 
345.0 389.0 971.0 992.0 997.0 1165.0 1644.0 2091.0 2120.0 2140.0 3256.0 3357.0 3803.0 5300.0 5374.0 5967.0 10296.0 
255.0 1643.0 1952.0 2058.0 3163.0 3237.0 3245.0 3681.0 4187.0 4281.0 4789.0 4949.0 5005.0 5230.0 6924.0 7196.0 9267.0 
1812.0 1833.0 1849.0 2070.0 2859.0 2871.0 3005.0 3015.0 3556.0 4045.0 5019.0 5221.0 5785.0 7341.0 7342.0 7732.0 13528.0 
2762.0 2940.0 3362.0 3700.0 3905.0 4013.0 4437.0 4633.0 5321.0 5595.0 5744.0 6781.0 7012.0 7723.0 8954.0 9008.0 13956.0 

