720.0 2739.0 3222.0 3253.0 3530.0 4131.0 4657.0 5178.0 5836.0 5840.0 6103.0 6122.0 6991.0 7146.0 7448.0 9144.0 13683.0 
981.0 1435.0 2195.0 3160.0 3349.0 3893.0 3894.0 5572.0 6298.0 6354.0 6655.0 7112.0 7340.0 7867.0 8461.0 10719.0 10795.0 
98.0 173.0 313.0 997.0 1071.0 1108.0 1110.0 1126.0 1173.0 1182.0 2237.0 2376.0 2422.0 2486.0 2495.0 2661.0 2924.0 
280.0 359.0 531.0 697.0 739.0 1095.0 1385.0 1463.0 1775.0 1787.0 1859.0 1862.0 1878.0 2036.0 2416.0 2477.0 2518.0 
194.0 495.0 556.0 668.0 671.0 1274.0 1400.0 1499.0 1781.0 1790.0 1861.0 1861.0 2018.0 2058.0 2163.0 2201.0 2333.0 
120.0 484.0 498.0 533.0 606.0 1209.0 1227.0 1736.0 1769.0 1789.0 1830.0 1851.0 1929.0 2010.0 2072.0 2672.0 3700.0 
124.0 237.0 250.0 643.0 670.0 1736.0 1765.0 1798.0 1843.0 1853.0 2025.0 3221.0 3627.0 3833.0 4837.0 5412.0 5722.0 
107.0 182.0 213.0 507.0 507.0 1563.0 1608.0 1679.0 1695.0 1761.0 2096.0 3403.0 3651.0 3692.0 3996.0 4602.0 5268.0 
151.0 522.0 544.0 561.0 563.0 1737.0 1887.0 1904.0 1953.0 2046.0 2105.0 3507.0 4224.0 4772.0 5632.0 5735.0 5897.0 
122.0 217.0 228.0 835.0 966.0 1035.0 1086.0 1126.0 1127.0 1141.0 1145.0 2312.0 2356.0 2362.0 2499.0 2553.0 2783.0 
205.0 276.0 316.0 1026.0 1060.0 1118.0 1129.0 1129.0 1170.0 1246.0 1268.0 2436.0 2450.0 2701.0 2920.0 4862.0 5192.0 
76.0 208.0 245.0 378.0 388.0 981.0 1041.0 1051.0 1176.0 1581.0 1659.0 1687.0 1836.0 2048.0 2150.0 2537.0 2872.0 
105.0 196.0 351.0 568.0 592.0 1206.0 1227.0 1297.0 1299.0 1684.0 1844.0 1932.0 2020.0 2045.0 2219.0 2254.0 2395.0 
101.0 199.0 209.0 480.0 512.0 1503.0 1700.0 1735.0 1837.0 1962.0 1984.0 3334.0 3346.0 3415.0 3747.0 5515.0 6374.0 
42.0 494.0 543.0 567.0 660.0 1755.0 1813.0 1856.0 1856.0 1882.0 1982.0 3115.0 3625.0 3678.0 5020.0 5328.0 5599.0 

