2244.0 2550.0 3061.0 3180.0 3252.0 3671.0 4941.0 5578.0 6047.0 6058.0 6475.0 6483.0 6502.0 6909.0 8313.0 9503.0 11777.0 
637.0 1429.0 2782.0 3061.0 3618.0 4415.0 4540.0 4939.0 5781.0 6072.0 6320.0 6444.0 6847.0 7043.0 8818.0 9237.0 10563.0 
236.0 263.0 360.0 1071.0 1098.0 1098.0 1113.0 1120.0 1125.0 1132.0 2155.0 2370.0 2517.0 2526.0 2633.0 2890.0 3170.0 
212.0 379.0 480.0 565.0 613.0 1170.0 1339.0 1372.0 1700.0 1721.0 1839.0 1839.0 1840.0 1888.0 1993.0 2378.0 2546.0 
128.0 408.0 490.0 620.0 664.0 1113.0 1118.0 1428.0 1772.0 1780.0 1802.0 1885.0 2039.0 2097.0 2117.0 2153.0 2164.0 
270.0 407.0 527.0 650.0 670.0 1199.0 1364.0 1846.0 1869.0 1911.0 1951.0 2022.0 2071.0 2088.0 2142.0 3879.0 4026.0 
180.0 217.0 227.0 543.0 576.0 1610.0 1619.0 1649.0 1665.0 1670.0 1767.0 3509.0 3552.0 3865.0 5261.0 5297.0 7469.0 
93.0 175.0 245.0 504.0 505.0 1564.0 1623.0 1699.0 1720.0 1752.0 1932.0 3194.0 3633.0 3683.0 3780.0 5092.0 5506.0 
123.0 576.0 590.0 602.0 603.0 1753.0 1780.0 2000.0 2022.0 2037.0 2100.0 3799.0 4865.0 5201.0 5353.0 5687.0 5894.0 
240.0 258.0 341.0 755.0 977.0 1003.0 1082.0 1145.0 1155.0 1159.0 2063.0 2287.0 2401.0 2477.0 2563.0 2834.0 2904.0 
163.0 236.0 242.0 828.0 982.0 1039.0 1137.0 1137.0 1247.0 1251.0 1318.0 2380.0 2404.0 2639.0 3176.0 4809.0 4828.0 
57.0 328.0 351.0 419.0 441.0 916.0 1014.0 1084.0 1087.0 1639.0 1737.0 1821.0 1903.0 2076.0 2488.0 2721.0 3303.0 
81.0 245.0 252.0 489.0 540.0 1037.0 1123.0 1174.0 1231.0 1687.0 1734.0 1929.0 1931.0 1953.0 2132.0 2185.0 2879.0 
84.0 180.0 182.0 494.0 848.0 1645.0 1704.0 1786.0 1873.0 1906.0 1916.0 3410.0 3417.0 3420.0 3752.0 5168.0 5275.0 
81.0 457.0 537.0 544.0 620.0 1788.0 1804.0 1837.0 1856.0 1931.0 2184.0 3467.0 3697.0 3726.0 4278.0 4836.0 5295.0 

