477.0 3211.0 3296.0 3359.0 3697.0 4462.0 4492.0 5041.0 5747.0 6026.0 7081.0 7100.0 7140.0 7294.0 7839.0 7947.0 8906.0 
2221.0 3251.0 3832.0 3885.0 4063.0 4088.0 4537.0 4659.0 4661.0 4668.0 6997.0 7480.0 8354.0 8678.0 9428.0 12953.0 13053.0 
359.0 368.0 375.0 1052.0 1114.0 1145.0 1152.0 1154.0 1165.0 1260.0 2337.0 2374.0 2544.0 2576.0 2726.0 2745.0 2746.0 
227.0 401.0 522.0 655.0 712.0 1185.0 1352.0 1412.0 1779.0 1860.0 1869.0 1911.0 1934.0 1954.0 2435.0 2456.0 2625.0 
163.0 255.0 330.0 482.0 584.0 904.0 1043.0 1114.0 1644.0 1746.0 1763.0 1789.0 1877.0 2000.0 2071.0 2138.0 2273.0 
82.0 280.0 290.0 434.0 507.0 1176.0 1216.0 1667.0 1733.0 1767.0 1792.0 1842.0 1904.0 1939.0 2008.0 2301.0 3772.0 
141.0 166.0 291.0 504.0 565.0 1482.0 1572.0 1615.0 1618.0 1657.0 1742.0 3212.0 3277.0 3313.0 3661.0 5035.0 5141.0 
130.0 140.0 316.0 546.0 581.0 1603.0 1624.0 1681.0 1763.0 1822.0 1956.0 2668.0 3394.0 3504.0 3943.0 4376.0 4689.0 
84.0 583.0 596.0 618.0 637.0 1908.0 1955.0 2010.0 2076.0 2184.0 2204.0 3043.0 3371.0 4213.0 4762.0 5663.0 5944.0 
144.0 264.0 362.0 1008.0 1011.0 1018.0 1024.0 1066.0 1068.0 1146.0 1158.0 2295.0 2312.0 2386.0 2407.0 2551.0 2595.0 
61.0 136.0 310.0 985.0 1035.0 1036.0 1182.0 1185.0 1220.0 1281.0 2052.0 2390.0 2434.0 2475.0 2639.0 2908.0 5058.0 
66.0 301.0 317.0 380.0 397.0 1102.0 1117.0 1133.0 1141.0 1544.0 1559.0 1624.0 1672.0 1824.0 1830.0 1843.0 2325.0 
72.0 282.0 315.0 467.0 485.0 1139.0 1148.0 1224.0 1290.0 1651.0 1696.0 1722.0 1835.0 1922.0 2020.0 2073.0 2221.0 
97.0 163.0 280.0 541.0 545.0 1540.0 1815.0 1858.0 1888.0 1912.0 1986.0 2567.0 2702.0 3427.0 3452.0 5202.0 5564.0 
55.0 438.0 521.0 531.0 628.0 1694.0 1793.0 1832.0 1860.0 1937.0 1975.0 2614.0 3231.0 3709.0 3966.0 5188.0 5965.0 

