693.0 2021.0 3065.0 3501.0 3546.0 3967.0 4193.0 5080.0 6434.0 6442.0 6452.0 6485.0 7220.0 8113.0 8352.0 9887.0 10160.0 
731.0 1548.0 2966.0 3541.0 4118.0 4354.0 5305.0 5788.0 6066.0 6097.0 6285.0 6318.0 6346.0 6513.0 10448.0 10781.0 10997.0 
221.0 270.0 353.0 993.0 1010.0 1024.0 1078.0 1100.0 1134.0 1134.0 2145.0 2358.0 2438.0 2483.0 2639.0 2662.0 3158.0 
85.0 194.0 317.0 495.0 547.0 1240.0 1327.0 1372.0 1534.0 1684.0 1689.0 1753.0 1773.0 1970.0 2107.0 2308.0 2613.0 
71.0 262.0 297.0 465.0 490.0 986.0 1192.0 1408.0 1623.0 1658.0 1720.0 1843.0 1907.0 1979.0 2022.0 2132.0 2168.0 
102.0 361.0 374.0 533.0 564.0 1332.0 1712.0 1828.0 1892.0 1936.0 1938.0 1971.0 1985.0 2006.0 2238.0 3852.0 8805.0 
87.0 174.0 208.0 459.0 562.0 1452.0 1529.0 1579.0 1629.0 1640.0 1742.0 3428.0 3745.0 4123.0 4746.0 5551.0 7301.0 
112.0 203.0 204.0 562.0 562.0 1471.0 1581.0 1675.0 1683.0 1700.0 1867.0 3399.0 3407.0 3635.0 4167.0 4179.0 5174.0 
89.0 485.0 504.0 570.0 574.0 1844.0 1874.0 1875.0 1982.0 2072.0 2139.0 4058.0 4740.0 5169.0 5341.0 5681.0 5728.0 
284.0 353.0 358.0 925.0 973.0 1059.0 1064.0 1079.0 1109.0 1146.0 1159.0 2336.0 2386.0 2462.0 2624.0 2657.0 2896.0 
132.0 241.0 246.0 1026.0 1032.0 1052.0 1077.0 1095.0 1225.0 1225.0 1240.0 2364.0 2417.0 2925.0 3130.0 4796.0 4845.0 
86.0 376.0 382.0 460.0 514.0 1135.0 1157.0 1211.0 1359.0 1734.0 1788.0 1949.0 1954.0 1960.0 2149.0 2300.0 2915.0 
90.0 257.0 271.0 512.0 557.0 1074.0 1096.0 1252.0 1259.0 1709.0 1726.0 1919.0 1948.0 1969.0 2094.0 2280.0 2982.0 
97.0 181.0 190.0 499.0 536.0 1726.0 1764.0 1821.0 1905.0 2034.0 2044.0 3321.0 3430.0 3497.0 4125.0 5289.0 7127.0 
85.0 433.0 486.0 495.0 567.0 1796.0 1835.0 1864.0 1916.0 1943.0 2176.0 3610.0 3675.0 3685.0 4773.0 5084.0 5341.0 

