{
  "num_compute_nodes": 5,
  "history_size": 5,
  "learning_rate": 1.0,
  "discount_factor": 0.90,
  "epsilon": 1.0,
  "per_hop_latency": 30,
  "iterations": 1000,
  "init_node_accept_probability": 0.01,
  "temp_node_accept_probability": 0.5,
  "node_reset_probability": 0.00,
  "inactivity_threshold": 1,
  "initq": -100,
  "node_latencies": [
    93,
    104,
    118,
    127,
    140
  ],
  "shortcut_node_latencies": [
    93,
    96,
    100,
    101,
    108
  ]
}
