499 2439
499 2476
499 2482
499 2491
499 2520
499 2585
499 2560
499 2549
499 2547
499 2442
499 2561
499 2596
499 2553
499 2529
499 2497
499 2512
499 2620
499 2530
499 2432
499 2462
499 2555
499 2589
499 2625
499 2504
499 2515
499 2594
499 2651
499 2586
499 2420
499 2475